#
# A fatal error has been detected by the Java Runtime Environment:
#
#  SIGSEGV (0xb) at pc=0x63be0391, pid=7629, tid=0x5f4e2b40
#
# JRE version: Java(TM) SE Runtime Environment (8.0_111-b14) (build 1.8.0_111-b14)
# Java VM: Java HotSpot(TM) Server VM (25.111-b14 mixed mode linux-x86 )
# Problematic frame:
# C  [EEBSip.so+0x30391]  int SkewDetection_Fast_Inner<IPRGB24>(IPIMG2 const&, float, Direction*, line&, LineDetectionSettings const&, float*, IPLINES*)+0xcc1
#
# Failed to write core dump. Core dumps have been disabled. To enable core dumping, try "ulimit -c unlimited" before starting Java again
#
# If you would like to submit a bug report, please visit:
#   http://bugreport.java.com/bugreport/crash.jsp
#

---------------  T H R E A D  ---------------

Current thread is native thread

siginfo: si_signo: 11 (SIGSEGV), si_code: 2 (SEGV_ACCERR), si_addr: 0x60b72000

Registers:
EAX=0x00000009, EBX=0x63c6c000, ECX=0x00000028, EDX=0x60b6b0fe
ESP=0x5f4e1d10, EBP=0x00000009, ESI=0x60b7043e, EDI=0x60b71ffe
EIP=0x63be0391, EFLAGS=0x00010216, CR2=0x60b72000

Top of Stack: (sp=0x5f4e1d10)
0x5f4e1d10:   5f4e1da4 00000000 000edba0 5f4e1d60
0x5f4e1d20:   b76b3000 b765d973 60b6ccbe 60760198
0x5f4e1d30:   60b6c388 00000113 00000000 60b6fb3e
0x5f4e1d40:   00001bc0 ffffc880 00000001 0000006f
0x5f4e1d50:   5f4e1d68 5f4e1d6c 00000000 5f4e1d60
0x5f4e1d60:   6070f000 00000014 0000092e 0000019e
0x5f4e1d70:   00000000 00000000 00000000 63c6bd80
0x5f4e1d80:   00000024 606c2008 000edba0 0000092e 

Instructions: (pc=0x63be0391)
0x63be0371:   e8 0f b6 6f 01 29 e8 0f b6 6a 02 8d 04 40 01 c1
0x63be0381:   8b 44 24 18 0f b6 40 02 01 e8 0f b6 6e 02 29 e8
0x63be0391:   0f b6 6f 02 29 e8 01 c1 8b 44 24 1c 81 f9 d5 fe
0x63be03a1:   ff ff 0f 9c 00 83 c2 03 83 44 24 1c 01 83 c6 03 

Register to memory mapping:

EAX=0x00000009 is an unknown value
EBX=0x63c6c000: <offset 0xbc000> in /usr/lib/plq22/EEBSip.so at 0x63bb0000
ECX=0x00000028 is an unknown value
EDX=0x60b6b0fe is an unknown value
ESP=0x5f4e1d10 is an unknown value
EBP=0x00000009 is an unknown value
ESI=0x60b7043e is an unknown value
EDI=0x60b71ffe is an unknown value


Stack: [0x5ece2000,0x5f4e3000],  sp=0x5f4e1d10,  free space=8191k
Native frames: (J=compiled Java code, j=interpreted, Vv=VM code, C=native code)
C  [EEBSip.so+0x30391]  int SkewDetection_Fast_Inner<IPRGB24>(IPIMG2 const&, float, Direction*, line&, LineDetectionSettings const&, float*, IPLINES*)+0xcc1


---------------  P R O C E S S  ---------------

VM state:not at safepoint (normal execution)

VM Mutex/Monitor currently owned by a thread: None

Heap:
 PSYoungGen      total 13824K, used 4084K [0x92580000, 0x93500000, 0xa6e00000)
  eden space 11776K, 32% used [0x92580000,0x9293d0c8,0x93100000)
  from space 2048K, 12% used [0x93100000,0x931400a0,0x93300000)
  to   space 2048K, 0% used [0x93300000,0x93300000,0x93500000)
 ParOldGen       total 42496K, used 7348K [0x69400000, 0x6bd80000, 0x92580000)
  object space 42496K, 17% used [0x69400000,0x69b2d348,0x6bd80000)
 Metaspace       used 10746K, capacity 10911K, committed 11032K, reserved 11568K

Card table byte_map: [0x69212000,0x69400000] byte_map_base: 0x68ec8000

Marking Bits: (ParMarkBitMap*) 0xb70ea8c0
 Begin Bits: [0x66b30000, 0x67a98000)
 End Bits:   [0x67a98000, 0x68a00000)

Polling page: 0xb76fe000

CodeCache: size=245760Kb used=5326Kb max_used=5326Kb free=240433Kb
 bounds [0xa7270000, 0xa77b0000, 0xb6270000]
 total_blobs=2186 nmethods=1904 adapters=203
 compilation: enabled

Compilation events (10 events):
Event: 996.752 Thread 0x660b2800 2078       3       java.io.BufferedReader::fill (170 bytes)
Event: 996.753 Thread 0x660b2800 nmethod 2078 0xa77a10c8 code [0xa77a1220, 0xa77a1724]
Event: 996.775 Thread 0x660b2800 2081       3       sun.java2d.pipe.Region::getIntersection (132 bytes)
Event: 996.776 Thread 0x660b2800 nmethod 2081 0xa779e0c8 code [0xa779e240, 0xa779e864]
Event: 997.176 Thread 0x660b2800 2082  s    3       sun.java2d.StateTrackableDelegate::getStateTracker (82 bytes)
Event: 997.177 Thread 0x660b2800 nmethod 2082 0xa77a0888 code [0xa77a09e0, 0xa77a0e20]
Event: 997.477 Thread 0x660b2800 2083       1       java.awt.Image$1::getSurfaceManager (5 bytes)
Event: 997.478 Thread 0x660b2800 nmethod 2083 0xa73bec08 code [0xa73bed00, 0xa73beda0]
Event: 998.463 Thread 0x660b2800 2084       3       javax.swing.MultiUIDefaults::get (67 bytes)
Event: 998.464 Thread 0x660b2800 nmethod 2084 0xa779d6c8 code [0xa779d820, 0xa779dbe4]

GC Heap History (10 events):
Event: 2058.264 GC heap before
{Heap before GC invocations=29 (full 3):
 PSYoungGen      total 14080K, used 11840K [0x92580000, 0x93580000, 0xa6e00000)
  eden space 11776K, 100% used [0x92580000,0x93100000,0x93100000)
  from space 2304K, 2% used [0x93100000,0x93110000,0x93340000)
  to   space 2304K, 0% used [0x93340000,0x93340000,0x93580000)
 ParOldGen       total 42496K, used 7686K [0x69400000, 0x6bd80000, 0x92580000)
  object space 42496K, 18% used [0x69400000,0x69b81940,0x6bd80000)
 Metaspace       used 10745K, capacity 10909K, committed 11032K, reserved 11568K
Event: 2058.266 GC heap after
Heap after GC invocations=29 (full 3):
 PSYoungGen      total 14080K, used 1017K [0x92580000, 0x93580000, 0xa6e00000)
  eden space 11776K, 0% used [0x92580000,0x92580000,0x93100000)
  from space 2304K, 44% used [0x93340000,0x9343e758,0x93580000)
  to   space 2304K, 0% used [0x93100000,0x93100000,0x93340000)
 ParOldGen       total 42496K, used 7694K [0x69400000, 0x6bd80000, 0x92580000)
  object space 42496K, 18% used [0x69400000,0x69b83940,0x6bd80000)
 Metaspace       used 10745K, capacity 10909K, committed 11032K, reserved 11568K
}
Event: 2062.629 GC heap before
{Heap before GC invocations=30 (full 3):
 PSYoungGen      total 14080K, used 12793K [0x92580000, 0x93580000, 0xa6e00000)
  eden space 11776K, 100% used [0x92580000,0x93100000,0x93100000)
  from space 2304K, 44% used [0x93340000,0x9343e758,0x93580000)
  to   space 2304K, 0% used [0x93100000,0x93100000,0x93340000)
 ParOldGen       total 42496K, used 7695K [0x69400000, 0x6bd80000, 0x92580000)
  object space 42496K, 18% used [0x69400000,0x69b83f98,0x6bd80000)
 Metaspace       used 10745K, capacity 10909K, committed 11032K, reserved 11568K
Event: 2062.630 GC heap after
Heap after GC invocations=30 (full 3):
 PSYoungGen      total 14080K, used 129K [0x92580000, 0x93580000, 0xa6e00000)
  eden space 11776K, 0% used [0x92580000,0x92580000,0x93100000)
  from space 2304K, 5% used [0x93100000,0x93120740,0x93340000)
  to   space 2304K, 0% used [0x93340000,0x93340000,0x93580000)
 ParOldGen       total 42496K, used 7703K [0x69400000, 0x6bd80000, 0x92580000)
  object space 42496K, 18% used [0x69400000,0x69b85f98,0x6bd80000)
 Metaspace       used 10745K, capacity 10909K, committed 11032K, reserved 11568K
}
Event: 2112.710 GC heap before
{Heap before GC invocations=31 (full 3):
 PSYoungGen      total 14080K, used 10802K [0x92580000, 0x93580000, 0xa6e00000)
  eden space 11776K, 90% used [0x92580000,0x92fec2a0,0x93100000)
  from space 2304K, 5% used [0x93100000,0x93120740,0x93340000)
  to   space 2304K, 0% used [0x93340000,0x93340000,0x93580000)
 ParOldGen       total 42496K, used 7703K [0x69400000, 0x6bd80000, 0x92580000)
  object space 42496K, 18% used [0x69400000,0x69b85f98,0x6bd80000)
 Metaspace       used 10746K, capacity 10911K, committed 11032K, reserved 11568K
Event: 2112.711 GC heap after
Heap after GC invocations=31 (full 3):
 PSYoungGen      total 13568K, used 199K [0x92580000, 0x93500000, 0xa6e00000)
  eden space 11776K, 0% used [0x92580000,0x92580000,0x93100000)
  from space 1792K, 11% used [0x93340000,0x93371cb0,0x93500000)
  to   space 2048K, 0% used [0x93100000,0x93100000,0x93300000)
 ParOldGen       total 42496K, used 7719K [0x69400000, 0x6bd80000, 0x92580000)
  object space 42496K, 18% used [0x69400000,0x69b89fa8,0x6bd80000)
 Metaspace       used 10746K, capacity 10911K, committed 11032K, reserved 11568K
}
Event: 2112.711 GC heap before
{Heap before GC invocations=32 (full 4):
 PSYoungGen      total 13568K, used 199K [0x92580000, 0x93500000, 0xa6e00000)
  eden space 11776K, 0% used [0x92580000,0x92580000,0x93100000)
  from space 1792K, 11% used [0x93340000,0x93371cb0,0x93500000)
  to   space 2048K, 0% used [0x93100000,0x93100000,0x93300000)
 ParOldGen       total 42496K, used 7719K [0x69400000, 0x6bd80000, 0x92580000)
  object space 42496K, 18% used [0x69400000,0x69b89fa8,0x6bd80000)
 Metaspace       used 10746K, capacity 10911K, committed 11032K, reserved 11568K
Event: 2112.742 GC heap after
Heap after GC invocations=32 (full 4):
 PSYoungGen      total 13568K, used 0K [0x92580000, 0x93500000, 0xa6e00000)
  eden space 11776K, 0% used [0x92580000,0x92580000,0x93100000)
  from space 1792K, 0% used [0x93340000,0x93340000,0x93500000)
  to   space 2048K, 0% used [0x93100000,0x93100000,0x93300000)
 ParOldGen       total 42496K, used 7348K [0x69400000, 0x6bd80000, 0x92580000)
  object space 42496K, 17% used [0x69400000,0x69b2d348,0x6bd80000)
 Metaspace       used 10746K, capacity 10911K, committed 11032K, reserved 11568K
}
Event: 2178.144 GC heap before
{Heap before GC invocations=33 (full 4):
 PSYoungGen      total 13568K, used 11776K [0x92580000, 0x93500000, 0xa6e00000)
  eden space 11776K, 100% used [0x92580000,0x93100000,0x93100000)
  from space 1792K, 0% used [0x93340000,0x93340000,0x93500000)
  to   space 2048K, 0% used [0x93100000,0x93100000,0x93300000)
 ParOldGen       total 42496K, used 7348K [0x69400000, 0x6bd80000, 0x92580000)
  object space 42496K, 17% used [0x69400000,0x69b2d348,0x6bd80000)
 Metaspace       used 10746K, capacity 10911K, committed 11032K, reserved 11568K
Event: 2178.146 GC heap after
Heap after GC invocations=33 (full 4):
 PSYoungGen      total 13824K, used 256K [0x92580000, 0x93500000, 0xa6e00000)
  eden space 11776K, 0% used [0x92580000,0x92580000,0x93100000)
  from space 2048K, 12% used [0x93100000,0x931400a0,0x93300000)
  to   space 2048K, 0% used [0x93300000,0x93300000,0x93500000)
 ParOldGen       total 42496K, used 7348K [0x69400000, 0x6bd80000, 0x92580000)
  object space 42496K, 17% used [0x69400000,0x69b2d348,0x6bd80000)
 Metaspace       used 10746K, capacity 10911K, committed 11032K, reserved 11568K
}

Deoptimization events (10 events):
Event: 664.029 Thread 0x656ae800 Uncommon trap: reason=unstable_if action=reinterpret pc=0xa75e6894 method=com.sun.org.apache.xerces.internal.parsers.AbstractDOMParser.startElement(Lcom/sun/org/apache/xerces/internal/xni/QName;Lcom/sun/org/apache/xerces/internal/xni/XMLAttributes;Lcom/su
Event: 664.030 Thread 0x656ae800 Uncommon trap: reason=unstable_if action=reinterpret pc=0xa745c830 method=com.sun.org.apache.xerces.internal.dom.DeferredElementImpl.synchronizeData()V @ 50
Event: 664.031 Thread 0x656ae800 Uncommon trap: reason=unstable_if action=reinterpret pc=0xa75a0d60 method=com.sun.org.apache.xerces.internal.impl.XMLDocumentFragmentScannerImpl.seekCloseOfStartTag()Z @ 19
Event: 664.713 Thread 0x656ae800 Uncommon trap: reason=unstable_if action=reinterpret pc=0xa7567c94 method=com.sun.org.apache.xerces.internal.dom.DeferredDocumentImpl.getPrevSibling(IZ)I @ 86
Event: 664.713 Thread 0x656ae800 Uncommon trap: reason=unstable_if action=reinterpret pc=0xa75220fc method=com.sun.org.apache.xerces.internal.dom.DeferredDocumentImpl.getNodeValueString(IZ)Ljava/lang/String; @ 97
Event: 664.713 Thread 0x656ae800 Uncommon trap: reason=unstable_if action=reinterpret pc=0xa755e474 method=com.sun.org.apache.xerces.internal.dom.DeferredDocumentImpl.getPrevSibling(IZ)I @ 86
Event: 664.735 Thread 0x64332400 Uncommon trap: reason=unstable_if action=reinterpret pc=0xa7598128 method=sun.awt.image.ImageDecoder.nextConsumer(Lsun/awt/image/ImageConsumerQueue;)Lsun/awt/image/ImageConsumerQueue; @ 11
Event: 972.469 Thread 0x68a2c000 Uncommon trap: reason=unstable_if action=reinterpret pc=0xa762b704 method=sun.awt.image.ImageRepresentation.setPixels(IIIILjava/awt/image/ColorModel;[BII)V @ 33
Event: 972.786 Thread 0x68a2c000 Uncommon trap: reason=unstable_if action=reinterpret pc=0xa7603a90 method=sun.awt.image.GifImageDecoder.sendPixels(IIII[BLjava/awt/image/ColorModel;)I @ 344
Event: 972.786 Thread 0x68a2c000 Uncommon trap: reason=unstable_if action=reinterpret pc=0xa752a930 method=sun.awt.image.GifImageDecoder.sendPixels(IIII[BLjava/awt/image/ColorModel;)I @ 344

Internal exceptions (10 events):
Event: 2180.417 Thread 0x64722000 Exception <a 'java/lang/NullPointerException'> (0x9284f348) thrown at [/HUDSON/workspace/8-2-build-linux-i586/jdk8u111/7883/hotspot/src/share/vm/interpreter/linkResolver.cpp, line 1280]
Event: 2180.425 Thread 0x64722000 Exception <a 'java/lang/NullPointerException'> (0x92868360) thrown at [/HUDSON/workspace/8-2-build-linux-i586/jdk8u111/7883/hotspot/src/share/vm/interpreter/linkResolver.cpp, line 1280]
Event: 2180.433 Thread 0x64722000 Exception <a 'java/lang/NullPointerException'> (0x92881758) thrown at [/HUDSON/workspace/8-2-build-linux-i586/jdk8u111/7883/hotspot/src/share/vm/interpreter/linkResolver.cpp, line 1280]
Event: 2180.435 Thread 0x64722000 Exception <a 'sun/nio/fs/UnixException'> (0x9288b3a0) thrown at [/HUDSON/workspace/8-2-build-linux-i586/jdk8u111/7883/hotspot/src/share/vm/prims/jni.cpp, line 709]
Event: 2180.435 Thread 0x64722000 Exception <a 'sun/nio/fs/UnixException'> (0x9288b5a8) thrown at [/HUDSON/workspace/8-2-build-linux-i586/jdk8u111/7883/hotspot/src/share/vm/prims/jni.cpp, line 709]
Event: 2180.443 Thread 0x64722000 Exception <a 'java/lang/NullPointerException'> (0x928a3390) thrown at [/HUDSON/workspace/8-2-build-linux-i586/jdk8u111/7883/hotspot/src/share/vm/interpreter/linkResolver.cpp, line 1280]
Event: 2180.451 Thread 0x64722000 Exception <a 'java/lang/NullPointerException'> (0x928bbf80) thrown at [/HUDSON/workspace/8-2-build-linux-i586/jdk8u111/7883/hotspot/src/share/vm/interpreter/linkResolver.cpp, line 1280]
Event: 2180.459 Thread 0x64722000 Exception <a 'java/lang/NullPointerException'> (0x928d4f08) thrown at [/HUDSON/workspace/8-2-build-linux-i586/jdk8u111/7883/hotspot/src/share/vm/interpreter/linkResolver.cpp, line 1280]
Event: 2180.462 Thread 0x64722000 Exception <a 'sun/nio/fs/UnixException'> (0x928de6b0) thrown at [/HUDSON/workspace/8-2-build-linux-i586/jdk8u111/7883/hotspot/src/share/vm/prims/jni.cpp, line 709]
Event: 2180.462 Thread 0x64722000 Exception <a 'sun/nio/fs/UnixException'> (0x928de8b8) thrown at [/HUDSON/workspace/8-2-build-linux-i586/jdk8u111/7883/hotspot/src/share/vm/prims/jni.cpp, line 709]

Events (10 events):
Event: 2178.149 Executing VM operation: RevokeBias done
Event: 2178.149 Executing VM operation: BulkRevokeBias
Event: 2178.149 Executing VM operation: BulkRevokeBias done
Event: 2180.257 Executing VM operation: ForceSafepoint
Event: 2180.257 Executing VM operation: ForceSafepoint done
Event: 2180.700 Executing VM operation: RevokeBias
Event: 2180.700 Executing VM operation: RevokeBias done
Event: 2180.700 Thread 0x68c1e800 Thread exited: 0x68c1e800
Event: 2183.258 Executing VM operation: ForceSafepoint
Event: 2183.258 Executing VM operation: ForceSafepoint done


Dynamic libraries:
08048000-08049000 r-xp 00000000 08:01 13373264   /usr/java/jdk1.8.0_111/bin/java
08049000-0804a000 rw-p 00000000 08:01 13373264   /usr/java/jdk1.8.0_111/bin/java
09780000-097e8000 rw-p 00000000 00:00 0          [heap]
585c1000-59537000 rw-p 00000000 00:00 0 
5b05d000-5b727000 rw-p 00000000 00:00 0 
5b727000-5b728000 ---p 00000000 00:00 0 
5b728000-5da98000 rw-p 00000000 00:00 0 
5dce0000-5dce1000 ---p 00000000 00:00 0 
5dce1000-5e4e1000 rw-p 00000000 00:00 0 
5e4e1000-5e4e2000 ---p 00000000 00:00 0 
5e4e2000-5ece2000 rw-p 00000000 00:00 0 
5ece2000-5ece3000 ---p 00000000 00:00 0 
5ece3000-5f4e3000 rw-p 00000000 00:00 0 
5f4e3000-5f4e4000 ---p 00000000 00:00 0 
5f4e4000-5fce4000 rw-p 00000000 00:00 0 
5fce4000-5fce5000 ---p 00000000 00:00 0 
5fce5000-604e5000 rw-p 00000000 00:00 0 
606c2000-60b72000 rw-p 00000000 00:00 0 
60b72000-60b73000 ---p 00000000 00:00 0 
60b73000-61373000 rw-p 00000000 00:00 0 
61373000-61374000 ---p 00000000 00:00 0 
61374000-61b74000 rw-p 00000000 00:00 0 
61bac000-61bad000 ---p 00000000 00:00 0 
61bad000-623ad000 rw-p 00000000 00:00 0 
623ad000-623ae000 ---p 00000000 00:00 0 
623ae000-62bae000 rw-p 00000000 00:00 0 
62bae000-62baf000 ---p 00000000 00:00 0 
62baf000-633af000 rw-p 00000000 00:00 0 
633af000-633b0000 ---p 00000000 00:00 0 
633b0000-63bb0000 rw-p 00000000 00:00 0 
63bb0000-63c6a000 r-xp 00000000 08:01 12978692   /usr/lib/plq22/EEBSip.so.1.1.0
63c6a000-63c6c000 r--p 000ba000 08:01 12978692   /usr/lib/plq22/EEBSip.so.1.1.0
63c6c000-63c6d000 rw-p 000bc000 08:01 12978692   /usr/lib/plq22/EEBSip.so.1.1.0
63c6d000-63c7c000 r--s 00000000 08:01 15077346   /var/cache/fontconfig/04aabc0a78ac019cf9454389977116d2-le32d4.cache-6
63c9c000-63ca5000 r-xp 00000000 08:01 12978703   /usr/lib/plq22/MSRWController.so.1.1.0
63ca5000-63ca6000 r--p 00009000 08:01 12978703   /usr/lib/plq22/MSRWController.so.1.1.0
63ca6000-63ca7000 rw-p 0000a000 08:01 12978703   /usr/lib/plq22/MSRWController.so.1.1.0
63ca7000-63cb8000 r-xp 00000000 08:01 12978681   /usr/lib/plq22/ScanController.so.1.1.1
63cb8000-63cb9000 r--p 00011000 08:01 12978681   /usr/lib/plq22/ScanController.so.1.1.1
63cb9000-63cba000 rw-p 00012000 08:01 12978681   /usr/lib/plq22/ScanController.so.1.1.1
63cba000-63cc3000 r-xp 00000000 08:01 12978685   /usr/lib/plq22/DeviceInfoController.so.1.1.0
63cc3000-63cc4000 r--p 00009000 08:01 12978685   /usr/lib/plq22/DeviceInfoController.so.1.1.0
63cc4000-63cc5000 rw-p 0000a000 08:01 12978685   /usr/lib/plq22/DeviceInfoController.so.1.1.0
63cc5000-63cf0000 r-xp 00000000 08:01 11403657   /opt/epson/epuras/libEpuras.so
63cf0000-63cf1000 r--p 0002a000 08:01 11403657   /opt/epson/epuras/libEpuras.so
63cf1000-63cf2000 rw-p 0002b000 08:01 11403657   /opt/epson/epuras/libEpuras.so
63cf2000-63d06000 r-xp 00000000 08:01 12978701   /usr/lib/plq22/ESDL.so.1.0.0
63d06000-63d07000 r--p 00013000 08:01 12978701   /usr/lib/plq22/ESDL.so.1.0.0
63d07000-63d08000 rw-p 00014000 08:01 12978701   /usr/lib/plq22/ESDL.so.1.0.0
63d08000-63d17000 r-xp 00000000 08:01 12978700   /usr/lib/plq22/CommonController.so.1.1.0
63d17000-63d18000 ---p 0000f000 08:01 12978700   /usr/lib/plq22/CommonController.so.1.1.0
63d18000-63d19000 r--p 0000f000 08:01 12978700   /usr/lib/plq22/CommonController.so.1.1.0
63d19000-63d1a000 rw-p 00010000 08:01 12978700   /usr/lib/plq22/CommonController.so.1.1.0
63d1a000-63d26000 r-xp 00000000 08:01 12978696   /usr/lib/plq22/ImageController.so.1.1.0
63d26000-63d27000 r--p 0000c000 08:01 12978696   /usr/lib/plq22/ImageController.so.1.1.0
63d27000-63d28000 rw-p 0000d000 08:01 12978696   /usr/lib/plq22/ImageController.so.1.1.0
63d28000-63d3a000 r-xp 00000000 08:01 12978690   /usr/lib/plq22/EndorseComposer.so.1.1.0
63d3a000-63d3b000 r--p 00011000 08:01 12978690   /usr/lib/plq22/EndorseComposer.so.1.1.0
63d3b000-63d3c000 rw-p 00012000 08:01 12978690   /usr/lib/plq22/EndorseComposer.so.1.1.0
63d3c000-63d47000 r-xp 00000000 08:01 12978702   /usr/lib/plq22/CharAnalyzeController.so.1.1.0
63d47000-63d48000 r--p 0000a000 08:01 12978702   /usr/lib/plq22/CharAnalyzeController.so.1.1.0
63d48000-63d49000 rw-p 0000b000 08:01 12978702   /usr/lib/plq22/CharAnalyzeController.so.1.1.0
63d49000-63d9e000 r-xp 00000000 08:01 12978688   /usr/lib/plq22/StatusApiWrapper.so.1.1.1
63d9e000-63d9f000 r--p 00054000 08:01 12978688   /usr/lib/plq22/StatusApiWrapper.so.1.1.1
63d9f000-63da0000 rw-p 00055000 08:01 12978688   /usr/lib/plq22/StatusApiWrapper.so.1.1.1
63da0000-63e20000 rw-p 00000000 00:00 0 
63e20000-63ea0000 ---p 00000000 00:00 0 
63ea1000-63eaf000 r-xp 00000000 08:01 12978687   /usr/lib/plq22/CommandCreater.so.1.1.1
63eaf000-63eb0000 r--p 0000d000 08:01 12978687   /usr/lib/plq22/CommandCreater.so.1.1.1
63eb0000-63eb1000 rw-p 0000e000 08:01 12978687   /usr/lib/plq22/CommandCreater.so.1.1.1
63eb1000-63ed1000 r-xp 00000000 08:01 12978689   /usr/lib/plq22/ScanComponent.so.1.1.0
63ed1000-63ed2000 ---p 00020000 08:01 12978689   /usr/lib/plq22/ScanComponent.so.1.1.0
63ed2000-63ed3000 r--p 00020000 08:01 12978689   /usr/lib/plq22/ScanComponent.so.1.1.0
63ed3000-63ed4000 rw-p 00021000 08:01 12978689   /usr/lib/plq22/ScanComponent.so.1.1.0
63ed4000-63eee000 r-xp 00000000 08:01 12978684   /usr/lib/plq22/ScanDocument.so.1.1.1
63eee000-63ef0000 r--p 00019000 08:01 12978684   /usr/lib/plq22/ScanDocument.so.1.1.1
63ef0000-63ef1000 rw-p 0001b000 08:01 12978684   /usr/lib/plq22/ScanDocument.so.1.1.1
63ef1000-63faf000 rw-s 00000000 00:05 10485777   /SYSV00000000 (deleted)
63faf000-63fb2000 ---p 00000000 00:00 0 
63fb2000-64000000 rw-p 00000000 00:00 0 
64000000-640ff000 rw-p 00000000 00:00 0 
640ff000-64100000 ---p 00000000 00:00 0 
64100000-641fd000 rw-p 00000000 00:00 0 
641fd000-64200000 ---p 00000000 00:00 0 
64200000-64300000 rw-p 00000000 00:00 0 
64300000-6438a000 rw-p 00000000 00:00 0 
6438a000-64400000 ---p 00000000 00:00 0 
64404000-6440c000 r--s 00000000 08:01 15075593   /var/cache/fontconfig/945677eb7aeaf62f1d50efc3fb3ec7d8-le32d4.cache-6
6440c000-6441c000 r--s 00000000 08:01 15077334   /var/cache/fontconfig/d52a8644073d54c13679302ca1180695-le32d4.cache-6
6441e000-6442c000 r-xp 00000000 08:01 12978686   /usr/lib/plq22/InputOutputManager.so.1.1.0
6442c000-6442d000 ---p 0000e000 08:01 12978686   /usr/lib/plq22/InputOutputManager.so.1.1.0
6442d000-6442e000 r--p 0000e000 08:01 12978686   /usr/lib/plq22/InputOutputManager.so.1.1.0
6442e000-6442f000 rw-p 0000f000 08:01 12978686   /usr/lib/plq22/InputOutputManager.so.1.1.0
6442f000-64444000 r-xp 00000000 08:01 12978680   /usr/lib/plq22/CoreModule.so.1.1.1
64444000-64445000 r--p 00014000 08:01 12978680   /usr/lib/plq22/CoreModule.so.1.1.1
64445000-64446000 rw-p 00015000 08:01 12978680   /usr/lib/plq22/CoreModule.so.1.1.1
64446000-64449000 ---p 00000000 00:00 0 
64449000-64497000 rw-p 00000000 00:00 0 
64497000-644f8000 r-xp 00000000 08:01 13633614   /usr/java/jdk1.8.0_111/jre/lib/i386/libt2k.so
644f8000-644fc000 rw-p 00060000 08:01 13633614   /usr/java/jdk1.8.0_111/jre/lib/i386/libt2k.so
644fc000-64500000 rw-p 00000000 00:00 0 
64500000-645ac000 rw-p 00000000 00:00 0 
645ac000-64600000 ---p 00000000 00:00 0 
64600000-64700000 rw-p 00000000 00:00 0 
64700000-647fd000 rw-p 00000000 00:00 0 
647fd000-64800000 ---p 00000000 00:00 0 
64805000-64812000 r-xp 00000000 08:01 12978694   /usr/lib/plq22/ExternalInfoReader.so.1.1.0
64812000-64813000 r--p 0000c000 08:01 12978694   /usr/lib/plq22/ExternalInfoReader.so.1.1.0
64813000-64814000 rw-p 0000d000 08:01 12978694   /usr/lib/plq22/ExternalInfoReader.so.1.1.0
64814000-64820000 r-xp 00000000 08:01 12978691   /usr/lib/plq22/LogManager.so.1.1.0
64820000-64821000 r--p 0000c000 08:01 12978691   /usr/lib/plq22/LogManager.so.1.1.0
64821000-64822000 rw-p 0000d000 08:01 12978691   /usr/lib/plq22/LogManager.so.1.1.0
64822000-6482e000 r--s 00000000 08:01 15077587   /var/cache/fontconfig/2cd17615ca594fa2959ae173292e504c-le32d4.cache-6
6482e000-64831000 r--s 00000000 08:01 15077344   /var/cache/fontconfig/385c0604a188198f04d133e54aba7fe7-le32d4.cache-6
64831000-6483f000 r--s 00000000 08:01 15075598   /var/cache/fontconfig/9b89f8e3dae116d678bbf48e5f21f69b-le32d4.cache-6
6483f000-64a00000 rw-p 00000000 00:00 0 
64a00000-64afb000 rw-p 00000000 00:00 0 
64afb000-64b00000 ---p 00000000 00:00 0 
64b00000-64b01000 rw-s 00000000 00:14 7          /dev/shm/BZQZgb (deleted)
64b01000-64b05000 r--s 00000000 08:01 15077340   /var/cache/fontconfig/8801497958630a81b71ace7c5f9b32a8-le32d4.cache-6
64b05000-64b18000 r--s 00345000 08:01 13373367   /usr/java/jdk1.8.0_111/jre/lib/resources.jar
64b18000-64b19000 rw-s 00000000 00:14 6          /dev/shm/modeK4 (deleted)
64b19000-64b1a000 r--s 00000000 08:01 15077347   /var/cache/fontconfig/0d8c3b2ac0904cb8a57a757ad11a4a08-le32d4.cache-6
64b1a000-64b1f000 r--s 00000000 08:01 15077338   /var/cache/fontconfig/3047814df9a2f067bd2d96a2b9c36e5a-le32d4.cache-6
64b1f000-64b22000 ---p 00000000 00:00 0 
64b22000-64b38000 rw-p 00000000 00:00 0 
64b38000-64b3b000 ---p 00000000 00:00 0 
64b3b000-64c89000 rw-p 00000000 00:00 0 
64c89000-64d89000 rw-p 00000000 00:00 0 
64d89000-64e89000 rw-p 00000000 00:00 0 
64e89000-64ff6000 r-xp 00000000 08:01 12978298   /usr/lib/i386-linux-gnu/libstdc++.so.6.0.21
64ff6000-64ff7000 ---p 0016d000 08:01 12978298   /usr/lib/i386-linux-gnu/libstdc++.so.6.0.21
64ff7000-64ffc000 r--p 0016d000 08:01 12978298   /usr/lib/i386-linux-gnu/libstdc++.so.6.0.21
64ffc000-64ffd000 rw-p 00172000 08:01 12978298   /usr/lib/i386-linux-gnu/libstdc++.so.6.0.21
64ffd000-65100000 rw-p 00000000 00:00 0 
65100000-651f9000 rw-p 00000000 00:00 0 
651f9000-65200000 ---p 00000000 00:00 0 
65200000-65201000 r--s 00000000 08:01 15077345   /var/cache/fontconfig/1ac9eb803944fde146138c791f5cc56a-le32d4.cache-6
65201000-65207000 r--s 00000000 08:01 15077354   /var/cache/fontconfig/bf3b770c553c462765856025a94f1ce6-le32d4.cache-6
65207000-6523b000 r-xp 00000000 08:01 13633510   /usr/java/jdk1.8.0_111/jre/lib/i386/libjpeg.so
6523b000-6523c000 rw-p 00033000 08:01 13633510   /usr/java/jdk1.8.0_111/jre/lib/i386/libjpeg.so
6523c000-6523f000 ---p 00000000 00:00 0 
6523f000-6528d000 rw-p 00000000 00:00 0 
6528d000-652a2000 r-xp 00000000 08:01 13634136   /usr/java/jdk1.8.0_111/jre/lib/i386/libnet.so
652a2000-652a3000 rw-p 00015000 08:01 13634136   /usr/java/jdk1.8.0_111/jre/lib/i386/libnet.so
652a3000-652b5000 r-xp 00000000 08:01 12978682   /usr/lib/plq22/DriverLoader.so.1.1.1
652b5000-652b6000 r--p 00012000 08:01 12978682   /usr/lib/plq22/DriverLoader.so.1.1.1
652b6000-652b7000 rw-p 00013000 08:01 12978682   /usr/lib/plq22/DriverLoader.so.1.1.1
652b7000-652ba000 ---p 00000000 00:00 0 
652ba000-65308000 rw-p 00000000 00:00 0 
65308000-6530b000 ---p 00000000 00:00 0 
6530b000-65359000 rw-p 00000000 00:00 0 
65359000-6535c000 ---p 00000000 00:00 0 
6535c000-653aa000 rw-p 00000000 00:00 0 
653aa000-653ad000 ---p 00000000 00:00 0 
653ad000-653fb000 rw-p 00000000 00:00 0 
653fb000-653fe000 ---p 00000000 00:00 0 
653fe000-6544c000 rw-p 00000000 00:00 0 
6544c000-654ae000 r-xp 00000000 08:01 13633599   /usr/java/jdk1.8.0_111/jre/lib/i386/libfontmanager.so
654ae000-654b1000 rw-p 00061000 08:01 13633599   /usr/java/jdk1.8.0_111/jre/lib/i386/libfontmanager.so
654b1000-654b5000 rw-p 00000000 00:00 0 
654b5000-655fb000 r-xp 00000000 08:01 12981847   /usr/lib/i386-linux-gnu/libX11.so.6.3.0
655fb000-655fc000 ---p 00146000 08:01 12981847   /usr/lib/i386-linux-gnu/libX11.so.6.3.0
655fc000-655fd000 r--p 00146000 08:01 12981847   /usr/lib/i386-linux-gnu/libX11.so.6.3.0
655fd000-655ff000 rw-p 00147000 08:01 12981847   /usr/lib/i386-linux-gnu/libX11.so.6.3.0
655ff000-65600000 rw-p 00000000 00:00 0 
65600000-656f9000 rw-p 00000000 00:00 0 
656f9000-65700000 ---p 00000000 00:00 0 
65700000-6574c000 r-xp 00000000 08:01 13633595   /usr/java/jdk1.8.0_111/jre/lib/i386/libawt_xawt.so
6574c000-6574e000 rw-p 0004c000 08:01 13633595   /usr/java/jdk1.8.0_111/jre/lib/i386/libawt_xawt.so
6574e000-6574f000 rw-p 00000000 00:00 0 
6574f000-657d5000 r-xp 00000000 08:01 13633526   /usr/java/jdk1.8.0_111/jre/lib/i386/libawt.so
657d5000-657dc000 rw-p 00086000 08:01 13633526   /usr/java/jdk1.8.0_111/jre/lib/i386/libawt.so
657dc000-65800000 rw-p 00000000 00:00 0 
65800000-658fe000 rw-p 00000000 00:00 0 
658fe000-65900000 ---p 00000000 00:00 0 
65900000-65909000 r--s 00000000 08:01 15077441   /var/cache/fontconfig/d589a48862398ed80a3d6066f4f56f4c-le32d4.cache-6
65909000-6590a000 ---p 00000000 00:00 0 
6590a000-6598a000 rw-p 00000000 00:00 0 
6598a000-6598d000 ---p 00000000 00:00 0 
6598d000-659db000 rw-p 00000000 00:00 0 
659db000-659de000 ---p 00000000 00:00 0 
659de000-65a5c000 rw-p 00000000 00:00 0 
65a5c000-65a5f000 ---p 00000000 00:00 0 
65a5f000-65add000 rw-p 00000000 00:00 0 
65add000-65ae0000 ---p 00000000 00:00 0 
65ae0000-65b5e000 rw-p 00000000 00:00 0 
65b5e000-65b61000 ---p 00000000 00:00 0 
65b61000-65baf000 rw-p 00000000 00:00 0 
65baf000-65bb2000 ---p 00000000 00:00 0 
65bb2000-65c00000 rw-p 00000000 00:00 0 
65c00000-65c5e000 rw-p 00000000 00:00 0 
65c5e000-65d00000 ---p 00000000 00:00 0 
65d00000-65d01000 r--s 00000000 08:01 15077343   /var/cache/fontconfig/dc05db6664285cc2f12bf69c139ae4c3-le32d4.cache-6
65d01000-65d05000 r--s 00000000 08:01 15077335   /var/cache/fontconfig/b47c4e1ecd0709278f4910c18777a504-le32d4.cache-6
65d05000-65d0d000 r--s 00000000 08:01 15077327   /var/cache/fontconfig/83bf95040141907cd45bb53cf7c1c148-le32d4.cache-6
65d0d000-65d10000 ---p 00000000 00:00 0 
65d10000-65d5e000 rw-p 00000000 00:00 0 
65d5e000-65d61000 ---p 00000000 00:00 0 
65d61000-65daf000 rw-p 00000000 00:00 0 
65daf000-65db2000 ---p 00000000 00:00 0 
65db2000-65e00000 rw-p 00000000 00:00 0 
65e00000-65e66000 rw-p 00000000 00:00 0 
65e66000-65f00000 ---p 00000000 00:00 0 
65f00000-65f0f000 r-xp 00000000 08:01 13633588   /usr/java/jdk1.8.0_111/jre/lib/i386/libnio.so
65f0f000-65f10000 rw-p 0000e000 08:01 13633588   /usr/java/jdk1.8.0_111/jre/lib/i386/libnio.so
65f10000-65f2c000 r-xp 00000000 08:01 12979339   /usr/lib/libolivettipassbookprinter.so
65f2c000-65f2d000 r--p 0001b000 08:01 12979339   /usr/lib/libolivettipassbookprinter.so
65f2d000-65f2e000 rw-p 0001c000 08:01 12979339   /usr/lib/libolivettipassbookprinter.so
65f2e000-65f31000 ---p 00000000 00:00 0 
65f31000-65f7f000 rw-p 00000000 00:00 0 
65f7f000-65f80000 ---p 00000000 00:00 0 
65f80000-66000000 rw-p 00000000 00:00 0 
66000000-660ff000 rw-p 00000000 00:00 0 
660ff000-66100000 ---p 00000000 00:00 0 
66100000-66102000 r--s 00000000 08:01 15077342   /var/cache/fontconfig/767a8244fc0220cfb567a839d0392e0b-le32d4.cache-6
66102000-66103000 r--s 00000000 08:01 15077097   /var/cache/fontconfig/4794a0821666d79190d59a36cb4f44b5-le32d4.cache-6
66103000-6610a000 r--s 00000000 08:01 12989061   /usr/lib/i386-linux-gnu/gconv/gconv-modules.cache
6610a000-66113000 r-xp 00000000 08:01 12981858   /usr/lib/i386-linux-gnu/libXcursor.so.1.0.2
66113000-66114000 r--p 00008000 08:01 12981858   /usr/lib/i386-linux-gnu/libXcursor.so.1.0.2
66114000-66115000 rw-p 00009000 08:01 12981858   /usr/lib/i386-linux-gnu/libXcursor.so.1.0.2
66115000-66131000 r-xp 00000000 08:01 4851030    /lib/i386-linux-gnu/libgcc_s.so.1
66131000-66132000 rw-p 0001b000 08:01 4851030    /lib/i386-linux-gnu/libgcc_s.so.1
66132000-6630a000 r--s 03d2a000 08:01 13373373   /usr/java/jdk1.8.0_111/jre/lib/rt.jar
6630a000-66750000 rw-p 00000000 00:00 0 
66750000-66756000 ---p 00000000 00:00 0 
66756000-68a00000 rw-p 00000000 00:00 0 
68a00000-68a92000 rw-p 00000000 00:00 0 
68a92000-68b00000 ---p 00000000 00:00 0 
68b00000-68b01000 r--s 00000000 08:01 15077339   /var/cache/fontconfig/bab58bb527bb656aaa9f116d68a48d89-le32d4.cache-6
68b01000-68b02000 r--s 00000000 08:01 15077337   /var/cache/fontconfig/56cf4f4769d0f4abc89a4895d7bd3ae1-le32d4.cache-6
68b02000-68b03000 r--s 00000000 08:01 15077336   /var/cache/fontconfig/b9d506c9ac06c20b433354fa67a72993-le32d4.cache-6
68b03000-68b08000 r-xp 00000000 08:01 12981866   /usr/lib/i386-linux-gnu/libXfixes.so.3.1.0
68b08000-68b09000 r--p 00004000 08:01 12981866   /usr/lib/i386-linux-gnu/libXfixes.so.3.1.0
68b09000-68b0a000 rw-p 00005000 08:01 12981866   /usr/lib/i386-linux-gnu/libXfixes.so.3.1.0
68b0a000-68b2e000 r-xp 00000000 08:01 12983222   /usr/lib/i386-linux-gnu/libxcb.so.1.1.0
68b2e000-68b2f000 r--p 00023000 08:01 12983222   /usr/lib/i386-linux-gnu/libxcb.so.1.1.0
68b2f000-68b30000 rw-p 00024000 08:01 12983222   /usr/lib/i386-linux-gnu/libxcb.so.1.1.0
68b30000-68b7f000 rw-p 00000000 00:00 0 
68b7f000-68b80000 ---p 00000000 00:00 0 
68b80000-68c00000 rw-p 00000000 00:00 0 
68c00000-68c5e000 rw-p 00000000 00:00 0 
68c5e000-68d00000 ---p 00000000 00:00 0 
68d00000-68dfe000 rw-p 00000000 00:00 0 
68dfe000-68e00000 ---p 00000000 00:00 0 
68e00000-68e01000 r--s 00000000 08:01 15077333   /var/cache/fontconfig/551ecf3b0e8b0bca0f25c0944f561853-le32d4.cache-6
68e01000-68e04000 r--s 00000000 08:01 15077328   /var/cache/fontconfig/75114ca45c98e8a441da0ff356701271-le32d4.cache-6
68e04000-68e06000 r--s 00000000 08:01 15075595   /var/cache/fontconfig/e13b20fdb08344e0e664864cc2ede53d-le32d4.cache-6
68e06000-68e0b000 r-xp 00000000 08:01 12981862   /usr/lib/i386-linux-gnu/libXdmcp.so.6.0.0
68e0b000-68e0c000 r--p 00004000 08:01 12981862   /usr/lib/i386-linux-gnu/libXdmcp.so.6.0.0
68e0c000-68e0d000 rw-p 00005000 08:01 12981862   /usr/lib/i386-linux-gnu/libXdmcp.so.6.0.0
68e0d000-68e0f000 r-xp 00000000 08:01 12981851   /usr/lib/i386-linux-gnu/libXau.so.6.0.0
68e0f000-68e10000 r--p 00001000 08:01 12981851   /usr/lib/i386-linux-gnu/libXau.so.6.0.0
68e10000-68e11000 rw-p 00002000 08:01 12981851   /usr/lib/i386-linux-gnu/libXau.so.6.0.0
68e11000-68e22000 r-xp 00000000 08:01 12981872   /usr/lib/i386-linux-gnu/libXi.so.6.1.0
68e22000-68e23000 r--p 00010000 08:01 12981872   /usr/lib/i386-linux-gnu/libXi.so.6.1.0
68e23000-68e24000 rw-p 00011000 08:01 12981872   /usr/lib/i386-linux-gnu/libXi.so.6.1.0
68e24000-68e7f000 rw-p 00000000 00:00 0 
68e7f000-68e80000 ---p 00000000 00:00 0 
68e80000-68f00000 rw-p 00000000 00:00 0 
68f00000-68fff000 rw-p 00000000 00:00 0 
68fff000-69000000 ---p 00000000 00:00 0 
69000000-69003000 r--s 00000000 08:01 15077011   /var/cache/fontconfig/7ef2298fde41cc6eeb7af42e48b7d293-le32d4.cache-6
69003000-69008000 r-xp 00000000 08:01 12981890   /usr/lib/i386-linux-gnu/libXtst.so.6.1.0
69008000-69009000 r--p 00004000 08:01 12981890   /usr/lib/i386-linux-gnu/libXtst.so.6.1.0
69009000-6900a000 rw-p 00005000 08:01 12981890   /usr/lib/i386-linux-gnu/libXtst.so.6.1.0
6900a000-69014000 r-xp 00000000 08:01 12981884   /usr/lib/i386-linux-gnu/libXrender.so.1.3.0
69014000-69015000 r--p 00009000 08:01 12981884   /usr/lib/i386-linux-gnu/libXrender.so.1.3.0
69015000-69016000 rw-p 0000a000 08:01 12981884   /usr/lib/i386-linux-gnu/libXrender.so.1.3.0
69016000-69029000 r-xp 00000000 08:01 12981864   /usr/lib/i386-linux-gnu/libXext.so.6.4.0
69029000-6902a000 r--p 00012000 08:01 12981864   /usr/lib/i386-linux-gnu/libXext.so.6.4.0
6902a000-6902b000 rw-p 00013000 08:01 12981864   /usr/lib/i386-linux-gnu/libXext.so.6.4.0
6902b000-6902c000 r--s 00000000 08:01 15077331   /var/cache/fontconfig/30829fa25452a46451e813d634d7f916-le32d4.cache-6
6902c000-69039000 r-xp 00000000 08:01 12978693   /usr/lib/plq22/libPLQ20W32.so.1.0.1
69039000-6903a000 r--p 0000d000 08:01 12978693   /usr/lib/plq22/libPLQ20W32.so.1.0.1
6903a000-6903b000 rw-p 0000e000 08:01 12978693   /usr/lib/plq22/libPLQ20W32.so.1.0.1
6903b000-69046000 r-xp 00000000 08:01 12978695   /usr/lib/plq22/libPLQ20JNI.so.1.0.1
69046000-69047000 r--p 0000a000 08:01 12978695   /usr/lib/plq22/libPLQ20JNI.so.1.0.1
69047000-69048000 rw-p 0000b000 08:01 12978695   /usr/lib/plq22/libPLQ20JNI.so.1.0.1
69048000-69049000 ---p 00000000 00:00 0 
69049000-690de000 rw-p 00000000 00:00 0 
690de000-69212000 ---p 00000000 00:00 0 
69212000-69227000 rw-p 00000000 00:00 0 
69227000-6935a000 ---p 00000000 00:00 0 
6935a000-69363000 rw-p 00000000 00:00 0 
69363000-693ff000 ---p 00000000 00:00 0 
693ff000-6bd80000 rw-p 00000000 00:00 0 
6bd80000-92580000 ---p 00000000 00:00 0 
92580000-93500000 rw-p 00000000 00:00 0 
93500000-a6e00000 ---p 00000000 00:00 0 
a6e00000-a6e01000 r--s 00000000 08:01 15077330   /var/cache/fontconfig/0c9eb80ebd1c36541ebe2852d3bb0c49-le32d4.cache-6
a6e01000-a6e06000 r--s 002f9000 08:01 13373361   /usr/java/jdk1.8.0_111/jre/lib/charsets.jar
a6e06000-a6e07000 r--s 00000000 08:01 921914     /home/megha/netbeans-8.2/java/modules/ext/AbsoluteLayout.jar
a6e07000-a6e08000 r--s 0000d000 08:01 20449849   /root/forbes/microbanker/bin/lib/PLQ22Linux.jar
a6e08000-a6e09000 r--s 00001000 08:01 20449855   /root/forbes/microbanker/bin/lib/PLQ20JNI.jar
a6e09000-a6e0b000 r--s 00000000 08:01 20187157   /root/forbes/microbanker/bin/OlivettiEpsonJar.jar
a6e0b000-a6e0d000 r--s 0000f000 08:01 20712525   /root/forbes/sp_plq22/bin/PLQ22Linux.jar
a6e0d000-a6e0e000 r--s 00002000 08:01 20449282   /root/forbes/microbanker/bin/lib/OlivettiWithoutGUI.jar
a6e0e000-a6e0f000 r--s 00003000 08:01 20449315   /root/forbes/microbanker/bin/lib/OlivettiPPK.jar
a6e0f000-a6e13000 r--s 00022000 08:01 20449857   /root/forbes/microbanker/bin/lib/ksoap2-android-assembly-2.6.0-jar-with-dependencies.jar
a6e13000-a6e16000 r-xp 00000000 08:01 13633594   /usr/java/jdk1.8.0_111/jre/lib/i386/libdt_socket.so
a6e16000-a6e17000 rw-p 00003000 08:01 13633594   /usr/java/jdk1.8.0_111/jre/lib/i386/libdt_socket.so
a6e17000-a6e2f000 rw-p 00000000 00:00 0 
a6e2f000-a6e30000 ---p 00000000 00:00 0 
a6e30000-a6ec5000 rw-p 00000000 00:00 0 
a6ec5000-a7270000 ---p 00000000 00:00 0 
a7270000-a77b0000 rwxp 00000000 00:00 0 
a77b0000-b6270000 ---p 00000000 00:00 0 
b6270000-b627b000 r-xp 00000000 08:01 4857186    /lib/i386-linux-gnu/libnss_files-2.23.so
b627b000-b627c000 r--p 0000a000 08:01 4857186    /lib/i386-linux-gnu/libnss_files-2.23.so
b627c000-b627d000 rw-p 0000b000 08:01 4857186    /lib/i386-linux-gnu/libnss_files-2.23.so
b627d000-b6283000 rw-p 00000000 00:00 0 
b6283000-b628e000 r-xp 00000000 08:01 4857189    /lib/i386-linux-gnu/libnss_nis-2.23.so
b628e000-b628f000 r--p 0000a000 08:01 4857189    /lib/i386-linux-gnu/libnss_nis-2.23.so
b628f000-b6290000 rw-p 0000b000 08:01 4857189    /lib/i386-linux-gnu/libnss_nis-2.23.so
b6290000-b62a7000 r-xp 00000000 08:01 4851080    /lib/i386-linux-gnu/libnsl-2.23.so
b62a7000-b62a8000 r--p 00016000 08:01 4851080    /lib/i386-linux-gnu/libnsl-2.23.so
b62a8000-b62a9000 rw-p 00017000 08:01 4851080    /lib/i386-linux-gnu/libnsl-2.23.so
b62a9000-b62ab000 rw-p 00000000 00:00 0 
b62ab000-b62ae000 r--s 00012000 08:01 20449913   /root/forbes/microbanker/bin/lib/org.apache.commons.io.jar
b62ae000-b62c7000 r-xp 00000000 08:01 13634138   /usr/java/jdk1.8.0_111/jre/lib/i386/libzip.so
b62c7000-b62c8000 rw-p 00019000 08:01 13634138   /usr/java/jdk1.8.0_111/jre/lib/i386/libzip.so
b62c8000-b64c8000 r--p 00000000 08:01 12989319   /usr/lib/locale/locale-archive
b64c8000-b64ff000 r-xp 00000000 08:01 13633915   /usr/java/jdk1.8.0_111/jre/lib/i386/libjdwp.so
b64ff000-b6500000 rw-p 00037000 08:01 13633915   /usr/java/jdk1.8.0_111/jre/lib/i386/libjdwp.so
b6500000-b65fd000 rw-p 00000000 00:00 0 
b65fd000-b6600000 ---p 00000000 00:00 0 
b6600000-b6601000 r--s 00001000 08:01 20712527   /root/forbes/sp_plq22/bin/lib/PLQ20JNI.jar
b6601000-b6603000 r--s 00004000 08:01 20449914   /root/forbes/microbanker/bin/lib/SHA256.jar
b6603000-b660b000 rw-s 00000000 08:01 21499344   /tmp/hsperfdata_root/7629
b660b000-b662f000 r-xp 00000000 08:01 13634133   /usr/java/jdk1.8.0_111/jre/lib/i386/libjava.so
b662f000-b6630000 rw-p 00024000 08:01 13634133   /usr/java/jdk1.8.0_111/jre/lib/i386/libjava.so
b6630000-b6637000 r-xp 00000000 08:01 4857191    /lib/i386-linux-gnu/librt-2.23.so
b6637000-b6638000 r--p 00006000 08:01 4857191    /lib/i386-linux-gnu/librt-2.23.so
b6638000-b6639000 rw-p 00007000 08:01 4857191    /lib/i386-linux-gnu/librt-2.23.so
b6639000-b663c000 ---p 00000000 00:00 0 
b663c000-b668a000 rw-p 00000000 00:00 0 
b668a000-b66dd000 r-xp 00000000 08:01 4857200    /lib/i386-linux-gnu/libm-2.23.so
b66dd000-b66de000 r--p 00052000 08:01 4857200    /lib/i386-linux-gnu/libm-2.23.so
b66de000-b66df000 rw-p 00053000 08:01 4857200    /lib/i386-linux-gnu/libm-2.23.so
b66df000-b706a000 r-xp 00000000 08:01 13633621   /usr/java/jdk1.8.0_111/jre/lib/i386/server/libjvm.so
b706a000-b70d7000 rw-p 0098b000 08:01 13633621   /usr/java/jdk1.8.0_111/jre/lib/i386/server/libjvm.so
b70d7000-b7501000 rw-p 00000000 00:00 0 
b7501000-b76b1000 r-xp 00000000 08:01 4857204    /lib/i386-linux-gnu/libc-2.23.so
b76b1000-b76b3000 r--p 001af000 08:01 4857204    /lib/i386-linux-gnu/libc-2.23.so
b76b3000-b76b4000 rw-p 001b1000 08:01 4857204    /lib/i386-linux-gnu/libc-2.23.so
b76b4000-b76b7000 rw-p 00000000 00:00 0 
b76b7000-b76ba000 r-xp 00000000 08:01 4857194    /lib/i386-linux-gnu/libdl-2.23.so
b76ba000-b76bb000 r--p 00002000 08:01 4857194    /lib/i386-linux-gnu/libdl-2.23.so
b76bb000-b76bc000 rw-p 00003000 08:01 4857194    /lib/i386-linux-gnu/libdl-2.23.so
b76bc000-b76d0000 r-xp 00000000 08:01 13238376   /usr/java/jdk1.8.0_111/lib/i386/jli/libjli.so
b76d0000-b76d1000 rw-p 00014000 08:01 13238376   /usr/java/jdk1.8.0_111/lib/i386/jli/libjli.so
b76d1000-b76ea000 r-xp 00000000 08:01 4857188    /lib/i386-linux-gnu/libpthread-2.23.so
b76ea000-b76eb000 r--p 00018000 08:01 4857188    /lib/i386-linux-gnu/libpthread-2.23.so
b76eb000-b76ec000 rw-p 00019000 08:01 4857188    /lib/i386-linux-gnu/libpthread-2.23.so
b76ec000-b76ee000 rw-p 00000000 00:00 0 
b76ee000-b76ef000 r--s 00007000 08:01 20449917   /root/forbes/microbanker/bin/lib/ISO8583.jar
b76ef000-b76f7000 r-xp 00000000 08:01 4857195    /lib/i386-linux-gnu/libnss_compat-2.23.so
b76f7000-b76f8000 r--p 00007000 08:01 4857195    /lib/i386-linux-gnu/libnss_compat-2.23.so
b76f8000-b76f9000 rw-p 00008000 08:01 4857195    /lib/i386-linux-gnu/libnss_compat-2.23.so
b76f9000-b76fa000 r--p 002cf000 08:01 12989319   /usr/lib/locale/locale-archive
b76fa000-b76fc000 r-xp 00000000 08:01 13633608   /usr/java/jdk1.8.0_111/jre/lib/i386/libnpt.so
b76fc000-b76fd000 rw-p 00001000 08:01 13633608   /usr/java/jdk1.8.0_111/jre/lib/i386/libnpt.so
b76fd000-b76fe000 rw-p 00000000 00:00 0 
b76fe000-b76ff000 r--p 00000000 00:00 0 
b76ff000-b770a000 r-xp 00000000 08:01 13633525   /usr/java/jdk1.8.0_111/jre/lib/i386/libverify.so
b770a000-b770b000 rw-p 0000b000 08:01 13633525   /usr/java/jdk1.8.0_111/jre/lib/i386/libverify.so
b770b000-b7747000 r-xp 00000000 08:01 12979336   /usr/lib/libPR2.so.1.00.2
b7747000-b7748000 rw-p 0003c000 08:01 12979336   /usr/lib/libPR2.so.1.00.2
b7748000-b7790000 rw-p 00000000 00:00 0 
b7790000-b7792000 r--p 00000000 00:00 0          [vvar]
b7792000-b7793000 r-xp 00000000 00:00 0          [vdso]
b7793000-b77b5000 r-xp 00000000 08:01 4857181    /lib/i386-linux-gnu/ld-2.23.so
b77b5000-b77b6000 rw-p 00000000 00:00 0 
b77b6000-b77b7000 r--p 00022000 08:01 4857181    /lib/i386-linux-gnu/ld-2.23.so
b77b7000-b77b8000 rw-p 00023000 08:01 4857181    /lib/i386-linux-gnu/ld-2.23.so
bf878000-bf899000 rw-p 00000000 00:00 0          [stack]

VM Arguments:
jvm_args: -Xdebug -Xrunjdwp:transport=dt_socket,address=localhost:35156 -Dfile.encoding=UTF-8 
java_command: uibibankpbk.UIBIBankPBK
java_class_path (initial): /root/forbes/microbanker/bin/lib/SHA256.jar:/root/forbes/microbanker/bin/lib/ksoap2-android-assembly-2.6.0-jar-with-dependencies.jar:/root/forbes/microbanker/bin/lib/org.apache.commons.io.jar:/root/forbes/microbanker/bin/lib/ISO8583.jar:/root/forbes/sp_plq22/bin/lib/PLQ20JNI.jar:/root/forbes/microbanker/bin/lib/OlivettiPPK.jar:/root/forbes/microbanker/bin/lib/OlivettiWithoutGUI.jar:/root/forbes/sp_plq22/bin/PLQ22Linux.jar:/root/forbes/microbanker/bin/OlivettiEpsonJar.jar:/home/megha/netbeans-8.2/java/modules/ext/AbsoluteLayout.jar:/root/NetBeansProjects/UIBIBankPBK/build/classes
Launcher Type: SUN_STANDARD

Environment Variables:
PATH=/usr/local/sbin:/usr/local/bin:/usr/sbin:/usr/bin:/sbin:/bin:/usr/games:/usr/local/games
USERNAME=root
LD_LIBRARY_PATH=/usr/java/jdk1.8.0_111/jre/lib/amd64:/usr/java/jdk1.8.0_111/jre/lib/i386:
LD_PRELOAD=/usr/lib/libPR2.so
SHELL=/bin/bash
DISPLAY=:0

Signal Handlers:
SIGSEGV: [libjvm.so+0x8d66b0], sa_mask[0]=11111111011111111101111111111110, sa_flags=SA_RESTART|SA_SIGINFO
SIGBUS: [libjvm.so+0x8d66b0], sa_mask[0]=11111111011111111101111111111110, sa_flags=SA_RESTART|SA_SIGINFO
SIGFPE: [libjvm.so+0x753700], sa_mask[0]=11111111011111111101111111111110, sa_flags=SA_RESTART|SA_SIGINFO
SIGPIPE: [libjvm.so+0x753700], sa_mask[0]=11111111011111111101111111111110, sa_flags=SA_RESTART|SA_SIGINFO
SIGXFSZ: [libjvm.so+0x753700], sa_mask[0]=11111111011111111101111111111110, sa_flags=SA_RESTART|SA_SIGINFO
SIGILL: [libjvm.so+0x753700], sa_mask[0]=11111111011111111101111111111110, sa_flags=SA_RESTART|SA_SIGINFO
SIGUSR1: SIG_DFL, sa_mask[0]=00000000000000000000000000000000, sa_flags=none
SIGUSR2: [libjvm.so+0x754d80], sa_mask[0]=00100000000000000000000000000000, sa_flags=SA_RESTART|SA_SIGINFO
SIGHUP: [libjvm.so+0x756230], sa_mask[0]=11111111011111111101111111111110, sa_flags=SA_RESTART|SA_SIGINFO
SIGINT: SIG_IGN, sa_mask[0]=00000000000000000000000000000000, sa_flags=none
SIGTERM: [libjvm.so+0x756230], sa_mask[0]=11111111011111111101111111111110, sa_flags=SA_RESTART|SA_SIGINFO
SIGQUIT: [libjvm.so+0x756230], sa_mask[0]=11111111011111111101111111111110, sa_flags=SA_RESTART|SA_SIGINFO


---------------  S Y S T E M  ---------------

OS:DISTRIB_ID=Ubuntu
DISTRIB_RELEASE=16.04
DISTRIB_CODENAME=xenial
DISTRIB_DESCRIPTION="Ubuntu 16.04 LTS"

uname:Linux 4.4.0-83-generic #106-Ubuntu SMP Mon Jun 26 17:54:25 UTC 2017 i686
libc:glibc 2.23 NPTL 2.23 
rlimit: STACK 8192k, CORE 0k, NPROC 31257, NOFILE 65536, AS infinity
load average:0.74 0.68 0.54

/proc/meminfo:
MemTotal:        4037040 kB
MemFree:          223480 kB
MemAvailable:    1024964 kB
Buffers:          140888 kB
Cached:          1317700 kB
SwapCached:          332 kB
Active:          2402724 kB
Inactive:        1242652 kB
Active(anon):    1820396 kB
Inactive(anon):   720264 kB
Active(file):     582328 kB
Inactive(file):   522388 kB
Unevictable:          64 kB
Mlocked:              64 kB
HighTotal:       3179120 kB
HighFree:          58816 kB
LowTotal:         857920 kB
LowFree:          164664 kB
SwapTotal:       4090876 kB
SwapFree:        4067456 kB
Dirty:               728 kB
Writeback:             0 kB
AnonPages:       2186548 kB
Mapped:           458080 kB
Shmem:            353800 kB
Slab:             111820 kB
SReclaimable:      85268 kB
SUnreclaim:        26552 kB
KernelStack:        5856 kB
PageTables:        18612 kB
NFS_Unstable:          0 kB
Bounce:                0 kB
WritebackTmp:          0 kB
CommitLimit:     6109396 kB
Committed_AS:    7507368 kB
VmallocTotal:     122880 kB
VmallocUsed:           0 kB
VmallocChunk:          0 kB
AnonHugePages:   1357824 kB
CmaTotal:              0 kB
CmaFree:               0 kB
HugePages_Total:       0
HugePages_Free:        0
HugePages_Rsvd:        0
HugePages_Surp:        0
Hugepagesize:       2048 kB
DirectMap4k:       49144 kB
DirectMap2M:      864256 kB


CPU:total 4 (2 cores per cpu, 2 threads per core) family 6 model 60 stepping 3, cmov, cx8, fxsr, mmx, sse, sse2, sse3, ssse3, sse4.1, sse4.2, popcnt, avx, avx2, aes, clmul, erms, lzcnt, ht, tsc, tscinvbit, bmi1, bmi2

/proc/cpuinfo:
processor	: 0
vendor_id	: GenuineIntel
cpu family	: 6
model		: 60
model name	: Intel(R) Core(TM) i3-4130 CPU @ 3.40GHz
stepping	: 3
microcode	: 0x12
cpu MHz		: 3381.804
cache size	: 3072 KB
physical id	: 0
siblings	: 4
core id		: 0
cpu cores	: 2
apicid		: 0
initial apicid	: 0
fdiv_bug	: no
f00f_bug	: no
coma_bug	: no
fpu		: yes
fpu_exception	: yes
cpuid level	: 13
wp		: yes
flags		: fpu vme de pse tsc msr pae mce cx8 apic sep mtrr pge mca cmov pat pse36 clflush dts acpi mmx fxsr sse sse2 ss ht tm pbe nx pdpe1gb rdtscp lm constant_tsc arch_perfmon pebs bts xtopology nonstop_tsc aperfmperf eagerfpu pni pclmulqdq dtes64 monitor ds_cpl vmx est tm2 ssse3 sdbg fma cx16 xtpr pdcm pcid sse4_1 sse4_2 movbe popcnt tsc_deadline_timer aes xsave avx f16c rdrand lahf_lm abm tpr_shadow vnmi flexpriority ept vpid fsgsbase tsc_adjust bmi1 avx2 smep bmi2 erms invpcid xsaveopt dtherm arat pln pts
bugs		:
bogomips	: 6784.34
clflush size	: 64
cache_alignment	: 64
address sizes	: 39 bits physical, 48 bits virtual
power management:

processor	: 1
vendor_id	: GenuineIntel
cpu family	: 6
model		: 60
model name	: Intel(R) Core(TM) i3-4130 CPU @ 3.40GHz
stepping	: 3
microcode	: 0x12
cpu MHz		: 3400.000
cache size	: 3072 KB
physical id	: 0
siblings	: 4
core id		: 1
cpu cores	: 2
apicid		: 2
initial apicid	: 2
fdiv_bug	: no
f00f_bug	: no
coma_bug	: no
fpu		: yes
fpu_exception	: yes
cpuid level	: 13
wp		: yes
flags		: fpu vme de pse tsc msr pae mce cx8 apic sep mtrr pge mca cmov pat pse36 clflush dts acpi mmx fxsr sse sse2 ss ht tm pbe nx pdpe1gb rdtscp lm constant_tsc arch_perfmon pebs bts xtopology nonstop_tsc aperfmperf eagerfpu pni pclmulqdq dtes64 monitor ds_cpl vmx est tm2 ssse3 sdbg fma cx16 xtpr pdcm pcid sse4_1 sse4_2 movbe popcnt tsc_deadline_timer aes xsave avx f16c rdrand lahf_lm abm tpr_shadow vnmi flexpriority ept vpid fsgsbase tsc_adjust bmi1 avx2 smep bmi2 erms invpcid xsaveopt dtherm arat pln pts
bugs		:
bogomips	: 6784.34
clflush size	: 64
cache_alignment	: 64
address sizes	: 39 bits physical, 48 bits virtual
power management:

processor	: 2
vendor_id	: GenuineIntel
cpu family	: 6
model		: 60
model name	: Intel(R) Core(TM) i3-4130 CPU @ 3.40GHz
stepping	: 3
microcode	: 0x12
cpu MHz		: 3400.000
cache size	: 3072 KB
physical id	: 0
siblings	: 4
core id		: 0
cpu cores	: 2
apicid		: 1
initial apicid	: 1
fdiv_bug	: no
f00f_bug	: no
coma_bug	: no
fpu		: yes
fpu_exception	: yes
cpuid level	: 13
wp		: yes
flags		: fpu vme de pse tsc msr pae mce cx8 apic sep mtrr pge mca cmov pat pse36 clflush dts acpi mmx fxsr sse sse2 ss ht tm pbe nx pdpe1gb rdtscp lm constant_tsc arch_perfmon pebs bts xtopology nonstop_tsc aperfmperf eagerfpu pni pclmulqdq dtes64 monitor ds_cpl vmx est tm2 ssse3 sdbg fma cx16 xtpr pdcm pcid sse4_1 sse4_2 movbe popcnt tsc_deadline_timer aes xsave avx f16c rdrand lahf_lm abm tpr_shadow vnmi flexpriority ept vpid fsgsbase tsc_adjust bmi1 avx2 smep bmi2 erms invpcid xsaveopt dtherm arat pln pts
bugs		:
bogomips	: 6784.34
clflush size	: 64
cache_alignment	: 64
address sizes	: 39 bits physical, 48 bits virtual
power management:

processor	: 3
vendor_id	: GenuineIntel
cpu family	: 6
model		: 60
model name	: Intel(R) Core(TM) i3-4130 CPU @ 3.40GHz
stepping	: 3
microcode	: 0x12
cpu MHz		: 3400.000
cache size	: 3072 KB
physical id	: 0
siblings	: 4
core id		: 1
cpu cores	: 2
apicid		: 3
initial apicid	: 3
fdiv_bug	: no
f00f_bug	: no
coma_bug	: no
fpu		: yes
fpu_exception	: yes
cpuid level	: 13
wp		: yes
flags		: fpu vme de pse tsc msr pae mce cx8 apic sep mtrr pge mca cmov pat pse36 clflush dts acpi mmx fxsr sse sse2 ss ht tm pbe nx pdpe1gb rdtscp lm constant_tsc arch_perfmon pebs bts xtopology nonstop_tsc aperfmperf eagerfpu pni pclmulqdq dtes64 monitor ds_cpl vmx est tm2 ssse3 sdbg fma cx16 xtpr pdcm pcid sse4_1 sse4_2 movbe popcnt tsc_deadline_timer aes xsave avx f16c rdrand lahf_lm abm tpr_shadow vnmi flexpriority ept vpid fsgsbase tsc_adjust bmi1 avx2 smep bmi2 erms invpcid xsaveopt dtherm arat pln pts
bugs		:
bogomips	: 6784.34
clflush size	: 64
cache_alignment	: 64
address sizes	: 39 bits physical, 48 bits virtual
power management:



Memory: 4k page, physical 4037040k(223480k free), swap 4090876k(4067456k free)

vm_info: Java HotSpot(TM) Server VM (25.111-b14) for linux-x86 JRE (1.8.0_111-b14), built on Sep 22 2016 15:52:27 by "java_re" with gcc 4.3.0 20080428 (Red Hat 4.3.0-8)

time: Mon Jul 24 13:02:02 2017
elapsed time: 2183 seconds (0d 0h 36m 23s)

