24/01/20 18:53:050    IDBI JAR (with API) : IDBIJar : ApiConfig does not exist.
24/01/20 18:53:050    IDBI JAR (with API) : IsAuthenticated : ------------Enter into IsAuthenticated Method------------
24/01/20 18:53:050    IDBI JAR (with API) : IsAuthenticated : Terminal Authentication Params are : {"responseString":"","KioskID":"FTL007","IP_address":"192.168.1.231"}
24/01/20 18:53:050    IDBI JAR (with API) : IsAuthenticated : Response is : Unsuccessful
24/01/20 18:53:050    IDBI JAR (with API) : IsAuthenticated : Error is : java.net.MalformedURLException: no protocol: TerminalAuthentication
24/01/20 18:53:050    IDBI JAR (with API) : IsAuthenticated : -------------Exit from IsAuthenticated Method------------
24/01/20 18:54:045    IDBI JAR (with API) : IDBIJar : ApiConfig does not exist.
24/01/20 18:54:045    IDBI JAR (with API) : IsAuthenticated : ------------Enter into IsAuthenticated Method------------
24/01/20 18:54:045    IDBI JAR (with API) : IsAuthenticated : Terminal Authentication Params are : {"responseString":"","KioskID":"FTL007","IP_address":"192.168.1.231"}
24/01/20 18:54:045    IDBI JAR (with API) : IsAuthenticated : Response is : Unsuccessful
24/01/20 18:54:045    IDBI JAR (with API) : IsAuthenticated : Error is : java.net.MalformedURLException: no protocol: TerminalAuthentication
24/01/20 18:54:045    IDBI JAR (with API) : IsAuthenticated : -------------Exit from IsAuthenticated Method------------
24/01/20 18:55:049    IDBI JAR (with API) : IDBIJar : ApiConfig does not exist.
24/01/20 18:55:049    IDBI JAR (with API) : IsAuthenticated : ------------Enter into IsAuthenticated Method------------
24/01/20 18:55:049    IDBI JAR (with API) : IsAuthenticated : Terminal Authentication Params are : {"responseString":"","KioskID":"FTL007","IP_address":"192.168.1.231"}
24/01/20 18:55:049    IDBI JAR (with API) : IsAuthenticated : Response is : Unsuccessful
24/01/20 18:55:049    IDBI JAR (with API) : IsAuthenticated : Error is : java.net.MalformedURLException: no protocol: TerminalAuthentication
24/01/20 18:55:049    IDBI JAR (with API) : IsAuthenticated : -------------Exit from IsAuthenticated Method------------
24/01/20 18:55:053    IDBI JAR (with API) : IDBIJar : ApiConfig does not exist.
24/01/20 18:55:053    IDBI JAR (with API) : AccountValidation : -----------Enter into AccountValidation Method-----------
24/01/20 18:55:053    IDBI JAR (with API) : AccountValidation : IP Address is : 192.168.1.231
24/01/20 18:55:053    IDBI JAR (with API) : AccountValidation : Barcode No is : 183104000074962
24/01/20 18:56:023    IDBI JAR (with API) : IDBIJar : ApiConfig does not exist.
24/01/20 18:56:023    IDBI JAR (with API) : AccountValidation : -----------Enter into AccountValidation Method-----------
24/01/20 18:56:023    IDBI JAR (with API) : AccountValidation : IP Address is : 192.168.1.231
24/01/20 18:56:023    IDBI JAR (with API) : AccountValidation : Barcode No is : 183104000074962
24/01/20 18:57:034    IDBI JAR (with API) : IDBIJar : ApiConfig does not exist.
24/01/20 18:57:034    IDBI JAR (with API) : AccountValidation : -----------Enter into AccountValidation Method-----------
24/01/20 18:57:034    IDBI JAR (with API) : AccountValidation : IP Address is : 192.168.1.231
24/01/20 18:57:034    IDBI JAR (with API) : AccountValidation : Barcode No is : 183104000074962
24/01/20 18:58:037    IDBI JAR (with API) : IDBIJar : ApiConfig does not exist.
24/01/20 18:58:037    IDBI JAR (with API) : IsAuthenticated : ------------Enter into IsAuthenticated Method------------
24/01/20 18:58:037    IDBI JAR (with API) : IsAuthenticated : Terminal Authentication Params are : {"responseString":"","KioskID":"FTL007","IP_address":"192.168.1.231"}
24/01/20 18:58:037    IDBI JAR (with API) : IsAuthenticated : Response is : Unsuccessful
24/01/20 18:58:037    IDBI JAR (with API) : IsAuthenticated : Error is : java.net.MalformedURLException: no protocol: TerminalAuthentication
24/01/20 18:58:037    IDBI JAR (with API) : IsAuthenticated : -------------Exit from IsAuthenticated Method------------
24/01/20 18:58:045    IDBI JAR (with API) : IDBIJar : ApiConfig does not exist.
24/01/20 18:58:045    IDBI JAR (with API) : AccountValidation : -----------Enter into AccountValidation Method-----------
24/01/20 18:58:045    IDBI JAR (with API) : AccountValidation : IP Address is : 192.168.1.231
24/01/20 18:58:045    IDBI JAR (with API) : AccountValidation : Barcode No is : 183104000074962
24/01/20 18:58:059    IDBI JAR (with API) : IDBIJar : ApiConfig does not exist.
24/01/20 18:58:059    IDBI JAR (with API) : AccountValidation : -----------Enter into AccountValidation Method-----------
24/01/20 18:58:059    IDBI JAR (with API) : AccountValidation : IP Address is : 192.168.1.231
24/01/20 18:58:059    IDBI JAR (with API) : AccountValidation : Barcode No is : 183104000074962
