Thu Nov 10 11:55:19 2016 AM   tracedemo  :  Configuration ENTERING  SP       Response -> SUCCESS
Thursday 10 November 2016 11:55:19 AM IST  tracedemo  :  Configuration ENTERING  C++       Response -> SUCCESS
Thursday 10 November 2016 11:55:19 AM IST  tracedemo  :  Configuration CPI & LPI  C++       CPI ->"10"  LPI ->"40"   Response -> SUCCESS
Thursday 10 November 2016 11:55:25 AM IST  tracedemo  :   Device Successfully Initialized  C++       Response -> SUCCESS
Thu Nov 10 11:55:28 2016 AM   tracedemo  :  Configuration ENTERING  SP       Response -> SUCCESS
Thursday 10 November 2016 11:55:28 AM IST  tracedemo  :  Configuration ENTERING  C++       Response -> SUCCESS
Thursday 10 November 2016 11:55:28 AM IST  tracedemo  :  Configuration CPI & LPI  C++       CPI ->"10"  LPI ->"40"   Response -> SUCCESS
Thursday 10 November 2016 11:55:28 AM IST  tracedemo  :   Device Successfully Initialized  C++       Response -> SUCCESS
Thu Nov 10 11:55:29 2016 AM   tracedemo  :  Paper Status ENTERING  SP       Response -> SUCCESS
Thursday 10 November 2016 11:55:29 AM IST  tracedemo  :  Paper Status  ENTERING  C++       Response -> SUCCESS
Thursday 10 November 2016 11:55:29 AM IST  tracedemo  :  Paper Status EXECUTED  C++   Response -> "DOCABSENT"  Status -> "0"
Thu Nov 10 11:55:29 2016 AM   tracedemo  :  Paper Status EXITING  SP       Response -> DOCABSENT
Thu Nov 10 11:55:30 2016 AM   tracedemo  :  Paper Status ENTERING  SP       Response -> SUCCESS
Thursday 10 November 2016 11:55:30 AM IST  tracedemo  :  Paper Status  ENTERING  C++       Response -> SUCCESS
Thursday 10 November 2016 11:55:30 AM IST  tracedemo  :  Paper Status EXECUTED  C++   Response -> "DOCABSENT"  Status -> "0"
Thu Nov 10 11:55:30 2016 AM   tracedemo  :  Paper Status EXITING  SP       Response -> DOCABSENT
Thu Nov 10 11:55:31 2016 AM   tracedemo  :  Paper Status ENTERING  SP       Response -> SUCCESS
Thursday 10 November 2016 11:55:31 AM IST  tracedemo  :  Paper Status  ENTERING  C++       Response -> SUCCESS
Thursday 10 November 2016 11:55:31 AM IST  tracedemo  :  Paper Status EXECUTED  C++   Response -> "DOCABSENT"  Status -> "0"
Thu Nov 10 11:55:31 2016 AM   tracedemo  :  Paper Status EXITING  SP       Response -> DOCABSENT
Thu Nov 10 11:55:32 2016 AM   tracedemo  :  Paper Status ENTERING  SP       Response -> SUCCESS
Thursday 10 November 2016 11:55:32 AM IST  tracedemo  :  Paper Status  ENTERING  C++       Response -> SUCCESS
Thursday 10 November 2016 11:55:32 AM IST  tracedemo  :  Paper Status EXECUTED  C++   Response -> "DOCABSENT"  Status -> "0"
Thu Nov 10 11:55:32 2016 AM   tracedemo  :  Paper Status EXITING  SP       Response -> DOCABSENT
Thu Nov 10 11:55:33 2016 AM   tracedemo  :  Paper Status ENTERING  SP       Response -> SUCCESS
Thursday 10 November 2016 11:55:33 AM IST  tracedemo  :  Paper Status  ENTERING  C++       Response -> SUCCESS
Thursday 10 November 2016 11:55:33 AM IST  tracedemo  :  Paper Status EXECUTED  C++   Response -> "DOCABSENT"  Status -> "0"
Thu Nov 10 11:55:33 2016 AM   tracedemo  :  Paper Status EXITING  SP       Response -> DOCABSENT
Thu Nov 10 11:55:34 2016 AM   tracedemo  :  Paper Status ENTERING  SP       Response -> SUCCESS
Thursday 10 November 2016 11:55:34 AM IST  tracedemo  :  Paper Status  ENTERING  C++       Response -> SUCCESS
Thursday 10 November 2016 11:55:34 AM IST  tracedemo  :  Paper Status EXECUTED  C++   Response -> "DOCABSENT"  Status -> "0"
Thu Nov 10 11:55:34 2016 AM   tracedemo  :  Paper Status EXITING  SP       Response -> DOCABSENT
Thu Nov 10 11:55:35 2016 AM   tracedemo  :  Paper Status ENTERING  SP       Response -> SUCCESS
Thursday 10 November 2016 11:55:35 AM IST  tracedemo  :  Paper Status  ENTERING  C++       Response -> SUCCESS
Thursday 10 November 2016 11:55:35 AM IST  tracedemo  :  Paper Status EXECUTED  C++   Response -> "DOCABSENT"  Status -> "0"
Thu Nov 10 11:55:35 2016 AM   tracedemo  :  Paper Status EXITING  SP       Response -> DOCABSENT
Thu Nov 10 11:55:36 2016 AM   tracedemo  :  Paper Status ENTERING  SP       Response -> SUCCESS
Thursday 10 November 2016 11:55:36 AM IST  tracedemo  :  Paper Status  ENTERING  C++       Response -> SUCCESS
Thursday 10 November 2016 11:55:36 AM IST  tracedemo  :  Paper Status EXECUTED  C++   Response -> "DOCABSENT"  Status -> "0"
Thu Nov 10 11:55:36 2016 AM   tracedemo  :  Paper Status EXITING  SP       Response -> DOCABSENT
Thu Nov 10 11:55:37 2016 AM   tracedemo  :  Paper Status ENTERING  SP       Response -> SUCCESS
Thursday 10 November 2016 11:55:37 AM IST  tracedemo  :  Paper Status  ENTERING  C++       Response -> SUCCESS
Thursday 10 November 2016 11:55:37 AM IST  tracedemo  :  Paper Status EXECUTED  C++   Response -> "DOCABSENT"  Status -> "0"
Thu Nov 10 11:55:37 2016 AM   tracedemo  :  Paper Status EXITING  SP       Response -> DOCABSENT
Thu Nov 10 11:55:38 2016 AM   tracedemo  :  Paper Status ENTERING  SP       Response -> SUCCESS
Thursday 10 November 2016 11:55:38 AM IST  tracedemo  :  Paper Status  ENTERING  C++       Response -> SUCCESS
Thursday 10 November 2016 11:55:38 AM IST  tracedemo  :  Paper Status EXECUTED  C++   Response -> "DOCABSENT"  Status -> "0"
Thu Nov 10 11:55:38 2016 AM   tracedemo  :  Paper Status EXITING  SP       Response -> DOCABSENT
Thu Nov 10 11:55:39 2016 AM   tracedemo  :  Paper Status ENTERING  SP       Response -> SUCCESS
Thursday 10 November 2016 11:55:39 AM IST  tracedemo  :  Paper Status  ENTERING  C++       Response -> SUCCESS
Thursday 10 November 2016 11:55:39 AM IST  tracedemo  :  Paper Status EXECUTED  C++   Response -> "DOCABSENT"  Status -> "0"
Thu Nov 10 11:55:39 2016 AM   tracedemo  :  Paper Status EXITING  SP       Response -> DOCABSENT
Thu Nov 10 11:55:40 2016 AM   tracedemo  :  Paper Status ENTERING  SP       Response -> SUCCESS
Thursday 10 November 2016 11:55:40 AM IST  tracedemo  :  Paper Status  ENTERING  C++       Response -> SUCCESS
Thursday 10 November 2016 11:55:40 AM IST  tracedemo  :  Paper Status EXECUTED  C++   Response -> "DOCABSENT"  Status -> "0"
Thu Nov 10 11:55:40 2016 AM   tracedemo  :  Paper Status EXITING  SP       Response -> DOCABSENT
Thu Nov 10 11:55:41 2016 AM   tracedemo  :  Paper Status ENTERING  SP       Response -> SUCCESS
Thursday 10 November 2016 11:55:41 AM IST  tracedemo  :  Paper Status  ENTERING  C++       Response -> SUCCESS
Thursday 10 November 2016 11:55:41 AM IST  tracedemo  :  Paper Status EXECUTED  C++   Response -> "DOCEJECTED"  Status -> "1"
Thu Nov 10 11:55:41 2016 AM   tracedemo  :  Paper Status EXITING  SP       Response -> DOCEJECTED
Thu Nov 10 11:55:42 2016 AM   tracedemo  :  Paper Status ENTERING  SP       Response -> SUCCESS
Thursday 10 November 2016 11:55:42 AM IST  tracedemo  :  Paper Status  ENTERING  C++       Response -> SUCCESS
Thursday 10 November 2016 11:55:43 AM IST  tracedemo  :  Paper Status EXECUTED  C++   Response -> "DOCABSENT"  Status -> "0"
Thu Nov 10 11:55:43 2016 AM   tracedemo  :  Paper Status EXITING  SP       Response -> DOCABSENT
Thu Nov 10 11:55:44 2016 AM   tracedemo  :  Paper Status ENTERING  SP       Response -> SUCCESS
Thursday 10 November 2016 11:55:44 AM IST  tracedemo  :  Paper Status  ENTERING  C++       Response -> SUCCESS
Thursday 10 November 2016 11:55:44 AM IST  tracedemo  :  Paper Status EXECUTED  C++   Response -> "DOCABSENT"  Status -> "0"
Thu Nov 10 11:55:44 2016 AM   tracedemo  :  Paper Status EXITING  SP       Response -> DOCABSENT
Thu Nov 10 11:55:45 2016 AM   tracedemo  :  Paper Status ENTERING  SP       Response -> SUCCESS
Thursday 10 November 2016 11:55:45 AM IST  tracedemo  :  Paper Status  ENTERING  C++       Response -> SUCCESS
Thursday 10 November 2016 11:55:45 AM IST  tracedemo  :  Paper Status EXECUTED  C++   Response -> "DOCEJECTED"  Status -> "1"
Thu Nov 10 11:55:45 2016 AM   tracedemo  :  Paper Status EXITING  SP       Response -> DOCEJECTED
Thu Nov 10 11:55:46 2016 AM   tracedemo  :  Paper Status ENTERING  SP       Response -> SUCCESS
Thursday 10 November 2016 11:55:46 AM IST  tracedemo  :  Paper Status  ENTERING  C++       Response -> SUCCESS
Thursday 10 November 2016 11:55:46 AM IST  tracedemo  :  Paper Status EXECUTED  C++   Response -> "DOCPRESENT"  Status -> "2"
Thu Nov 10 11:55:46 2016 AM   tracedemo  :  Paper Status EXITING  SP       Response -> DOCPRESENT
Thu Nov 10 11:55:46 2016 AM   tracedemo  :  Scanning ENTERING  SP       Response -> SUCCESS
Thursday 10 November 2016 11:55:46 AM IST  tracedemo  :  Scanning  ENTERING  C++       Response -> SUCCESS
Thursday 10 November 2016 11:55:46 AM IST  tracedemo  :  Scanning Properties  C++       BitsPerPixel -> "8"  ScanMode ->"SCAN_FRONT_REAR" 
Thursday 10 November 2016 11:55:51 AM IST  tracedemo  :  Scanning EXECUTED  C++       Response -> ONLINE
Thu Nov 10 11:55:51 2016 AM   tracedemo  :  SCanning   SP   Passbook Placed Vertically    Response -> UNSUCCESSFUL Scan
Thu Nov 10 11:55:51 2016 AM tracedemo  :  Scanning EXITING  SP       Response -> SUCCESS     Barcode Data -> IMPROPER_PASSBOOK_INSERTION
Thu Nov 10 11:55:51 2016 AM   tracedemo  :  Eject ENTERING  SP       Response -> SUCCESS
Thursday 10 November 2016 11:55:52 AM IST  tracedemo  :  Eject  ENTERING  C++       Response -> SUCCESS
Thursday 10 November 2016 11:55:52 AM IST  tracedemo  :  Eject EXECUTED  C++       Response -> ONLINE  Error_Code -> "0"
Thu Nov 10 11:55:52 2016 AM   tracedemo  :  Eject Executed  SP       Response -> SUCCESS
Thu Nov 10 11:56:46 2016 AM   tracedemo  :  Configuration ENTERING  SP       Response -> SUCCESS
Thursday 10 November 2016 11:56:46 AM IST  tracedemo  :  Configuration ENTERING  C++       Response -> SUCCESS
Thursday 10 November 2016 11:56:46 AM IST  tracedemo  :  Configuration CPI & LPI  C++       CPI ->"10"  LPI ->"40"   Response -> SUCCESS
Thursday 10 November 2016 11:56:46 AM IST  tracedemo  :   Device Successfully Initialized  C++       Response -> SUCCESS
Thu Nov 10 11:56:47 2016 AM   tracedemo  :  Paper Status ENTERING  SP       Response -> SUCCESS
Thursday 10 November 2016 11:56:47 AM IST  tracedemo  :  Paper Status  ENTERING  C++       Response -> SUCCESS
Thursday 10 November 2016 11:56:47 AM IST  tracedemo  :  Paper Status EXECUTED  C++   Response -> "DOCABSENT"  Status -> "0"
Thu Nov 10 11:56:47 2016 AM   tracedemo  :  Paper Status EXITING  SP       Response -> DOCABSENT
Thu Nov 10 11:56:48 2016 AM   tracedemo  :  Paper Status ENTERING  SP       Response -> SUCCESS
Thursday 10 November 2016 11:56:48 AM IST  tracedemo  :  Paper Status  ENTERING  C++       Response -> SUCCESS
Thursday 10 November 2016 11:56:48 AM IST  tracedemo  :  Paper Status EXECUTED  C++   Response -> "DOCABSENT"  Status -> "0"
Thu Nov 10 11:56:48 2016 AM   tracedemo  :  Paper Status EXITING  SP       Response -> DOCABSENT
Thu Nov 10 11:56:49 2016 AM   tracedemo  :  Paper Status ENTERING  SP       Response -> SUCCESS
Thursday 10 November 2016 11:56:49 AM IST  tracedemo  :  Paper Status  ENTERING  C++       Response -> SUCCESS
Thursday 10 November 2016 11:56:49 AM IST  tracedemo  :  Paper Status EXECUTED  C++   Response -> "DOCABSENT"  Status -> "0"
Thu Nov 10 11:56:49 2016 AM   tracedemo  :  Paper Status EXITING  SP       Response -> DOCABSENT
Thu Nov 10 11:56:50 2016 AM   tracedemo  :  Paper Status ENTERING  SP       Response -> SUCCESS
Thursday 10 November 2016 11:56:50 AM IST  tracedemo  :  Paper Status  ENTERING  C++       Response -> SUCCESS
Thursday 10 November 2016 11:56:50 AM IST  tracedemo  :  Paper Status EXECUTED  C++   Response -> "DOCABSENT"  Status -> "0"
Thu Nov 10 11:56:50 2016 AM   tracedemo  :  Paper Status EXITING  SP       Response -> DOCABSENT
Thu Nov 10 11:56:51 2016 AM   tracedemo  :  Paper Status ENTERING  SP       Response -> SUCCESS
Thursday 10 November 2016 11:56:51 AM IST  tracedemo  :  Paper Status  ENTERING  C++       Response -> SUCCESS
Thursday 10 November 2016 11:56:51 AM IST  tracedemo  :  Paper Status EXECUTED  C++   Response -> "DOCABSENT"  Status -> "0"
Thu Nov 10 11:56:51 2016 AM   tracedemo  :  Paper Status EXITING  SP       Response -> DOCABSENT
Thu Nov 10 11:56:52 2016 AM   tracedemo  :  Paper Status ENTERING  SP       Response -> SUCCESS
Thursday 10 November 2016 11:56:52 AM IST  tracedemo  :  Paper Status  ENTERING  C++       Response -> SUCCESS
Thursday 10 November 2016 11:56:52 AM IST  tracedemo  :  Paper Status EXECUTED  C++   Response -> "DOCABSENT"  Status -> "0"
Thu Nov 10 11:56:52 2016 AM   tracedemo  :  Paper Status EXITING  SP       Response -> DOCABSENT
Thu Nov 10 11:56:53 2016 AM   tracedemo  :  Paper Status ENTERING  SP       Response -> SUCCESS
Thursday 10 November 2016 11:56:53 AM IST  tracedemo  :  Paper Status  ENTERING  C++       Response -> SUCCESS
Thursday 10 November 2016 11:56:53 AM IST  tracedemo  :  Paper Status EXECUTED  C++   Response -> "DOCABSENT"  Status -> "0"
Thu Nov 10 11:56:53 2016 AM   tracedemo  :  Paper Status EXITING  SP       Response -> DOCABSENT
Thu Nov 10 11:56:54 2016 AM   tracedemo  :  Paper Status ENTERING  SP       Response -> SUCCESS
Thursday 10 November 2016 11:56:54 AM IST  tracedemo  :  Paper Status  ENTERING  C++       Response -> SUCCESS
Thursday 10 November 2016 11:56:54 AM IST  tracedemo  :  Paper Status EXECUTED  C++   Response -> "DOCABSENT"  Status -> "0"
Thu Nov 10 11:56:54 2016 AM   tracedemo  :  Paper Status EXITING  SP       Response -> DOCABSENT
Thu Nov 10 11:56:55 2016 AM   tracedemo  :  Paper Status ENTERING  SP       Response -> SUCCESS
Thursday 10 November 2016 11:56:55 AM IST  tracedemo  :  Paper Status  ENTERING  C++       Response -> SUCCESS
Thursday 10 November 2016 11:56:55 AM IST  tracedemo  :  Paper Status EXECUTED  C++   Response -> "DOCABSENT"  Status -> "0"
Thu Nov 10 11:56:55 2016 AM   tracedemo  :  Paper Status EXITING  SP       Response -> DOCABSENT
Thu Nov 10 11:56:56 2016 AM   tracedemo  :  Paper Status ENTERING  SP       Response -> SUCCESS
Thursday 10 November 2016 11:56:56 AM IST  tracedemo  :  Paper Status  ENTERING  C++       Response -> SUCCESS
Thursday 10 November 2016 11:56:56 AM IST  tracedemo  :  Paper Status EXECUTED  C++   Response -> "DOCABSENT"  Status -> "0"
Thu Nov 10 11:56:56 2016 AM   tracedemo  :  Paper Status EXITING  SP       Response -> DOCABSENT
Thu Nov 10 11:56:57 2016 AM   tracedemo  :  Paper Status ENTERING  SP       Response -> SUCCESS
Thursday 10 November 2016 11:56:57 AM IST  tracedemo  :  Paper Status  ENTERING  C++       Response -> SUCCESS
Thursday 10 November 2016 11:56:57 AM IST  tracedemo  :  Paper Status EXECUTED  C++   Response -> "DOCABSENT"  Status -> "0"
Thu Nov 10 11:56:57 2016 AM   tracedemo  :  Paper Status EXITING  SP       Response -> DOCABSENT
Thu Nov 10 11:56:58 2016 AM   tracedemo  :  Paper Status ENTERING  SP       Response -> SUCCESS
Thursday 10 November 2016 11:56:58 AM IST  tracedemo  :  Paper Status  ENTERING  C++       Response -> SUCCESS
Thursday 10 November 2016 11:56:58 AM IST  tracedemo  :  Paper Status EXECUTED  C++   Response -> "DOCABSENT"  Status -> "0"
Thu Nov 10 11:56:58 2016 AM   tracedemo  :  Paper Status EXITING  SP       Response -> DOCABSENT
Thu Nov 10 11:56:59 2016 AM   tracedemo  :  Paper Status ENTERING  SP       Response -> SUCCESS
Thursday 10 November 2016 11:56:59 AM IST  tracedemo  :  Paper Status  ENTERING  C++       Response -> SUCCESS
Thursday 10 November 2016 11:56:59 AM IST  tracedemo  :  Paper Status EXECUTED  C++   Response -> "DOCABSENT"  Status -> "0"
Thu Nov 10 11:56:59 2016 AM   tracedemo  :  Paper Status EXITING  SP       Response -> DOCABSENT
Thu Nov 10 11:57:00 2016 AM   tracedemo  :  Paper Status ENTERING  SP       Response -> SUCCESS
Thursday 10 November 2016 11:57:00 AM IST  tracedemo  :  Paper Status  ENTERING  C++       Response -> SUCCESS
Thursday 10 November 2016 11:57:00 AM IST  tracedemo  :  Paper Status EXECUTED  C++   Response -> "DOCABSENT"  Status -> "0"
Thu Nov 10 11:57:00 2016 AM   tracedemo  :  Paper Status EXITING  SP       Response -> DOCABSENT
Thu Nov 10 11:57:01 2016 AM   tracedemo  :  Paper Status ENTERING  SP       Response -> SUCCESS
Thursday 10 November 2016 11:57:01 AM IST  tracedemo  :  Paper Status  ENTERING  C++       Response -> SUCCESS
Thursday 10 November 2016 11:57:01 AM IST  tracedemo  :  Paper Status EXECUTED  C++   Response -> "DOCABSENT"  Status -> "0"
Thu Nov 10 11:57:01 2016 AM   tracedemo  :  Paper Status EXITING  SP       Response -> DOCABSENT
Thu Nov 10 11:57:02 2016 AM   tracedemo  :  Paper Status ENTERING  SP       Response -> SUCCESS
Thursday 10 November 2016 11:57:02 AM IST  tracedemo  :  Paper Status  ENTERING  C++       Response -> SUCCESS
Thursday 10 November 2016 11:57:02 AM IST  tracedemo  :  Paper Status EXECUTED  C++   Response -> "DOCABSENT"  Status -> "0"
Thu Nov 10 11:57:02 2016 AM   tracedemo  :  Paper Status EXITING  SP       Response -> DOCABSENT
Thu Nov 10 11:57:03 2016 AM   tracedemo  :  Paper Status ENTERING  SP       Response -> SUCCESS
Thursday 10 November 2016 11:57:03 AM IST  tracedemo  :  Paper Status  ENTERING  C++       Response -> SUCCESS
Thursday 10 November 2016 11:57:03 AM IST  tracedemo  :  Paper Status EXECUTED  C++   Response -> "DOCABSENT"  Status -> "0"
Thu Nov 10 11:57:03 2016 AM   tracedemo  :  Paper Status EXITING  SP       Response -> DOCABSENT
Thu Nov 10 11:57:04 2016 AM   tracedemo  :  Paper Status ENTERING  SP       Response -> SUCCESS
Thursday 10 November 2016 11:57:04 AM IST  tracedemo  :  Paper Status  ENTERING  C++       Response -> SUCCESS
Thursday 10 November 2016 11:57:04 AM IST  tracedemo  :  Paper Status EXECUTED  C++   Response -> "DOCABSENT"  Status -> "0"
Thu Nov 10 11:57:04 2016 AM   tracedemo  :  Paper Status EXITING  SP       Response -> DOCABSENT
Thu Nov 10 11:57:05 2016 AM   tracedemo  :  Paper Status ENTERING  SP       Response -> SUCCESS
Thursday 10 November 2016 11:57:05 AM IST  tracedemo  :  Paper Status  ENTERING  C++       Response -> SUCCESS
Thursday 10 November 2016 11:57:05 AM IST  tracedemo  :  Paper Status EXECUTED  C++   Response -> "DOCABSENT"  Status -> "0"
Thu Nov 10 11:57:05 2016 AM   tracedemo  :  Paper Status EXITING  SP       Response -> DOCABSENT
Thu Nov 10 11:57:06 2016 AM   tracedemo  :  Paper Status ENTERING  SP       Response -> SUCCESS
Thursday 10 November 2016 11:57:06 AM IST  tracedemo  :  Paper Status  ENTERING  C++       Response -> SUCCESS
Thursday 10 November 2016 11:57:06 AM IST  tracedemo  :  Paper Status EXECUTED  C++   Response -> "DOCABSENT"  Status -> "0"
Thu Nov 10 11:57:06 2016 AM   tracedemo  :  Paper Status EXITING  SP       Response -> DOCABSENT
Thu Nov 10 11:57:07 2016 AM   tracedemo  :  Paper Status ENTERING  SP       Response -> SUCCESS
Thursday 10 November 2016 11:57:07 AM IST  tracedemo  :  Paper Status  ENTERING  C++       Response -> SUCCESS
Thursday 10 November 2016 11:57:07 AM IST  tracedemo  :  Paper Status EXECUTED  C++   Response -> "DOCABSENT"  Status -> "0"
Thu Nov 10 11:57:07 2016 AM   tracedemo  :  Paper Status EXITING  SP       Response -> DOCABSENT
Thu Nov 10 11:57:07 2016 AM   tracedemo  :  Eject ENTERING  SP       Response -> SUCCESS
Thursday 10 November 2016 11:57:07 AM IST  tracedemo  :  Eject  ENTERING  C++       Response -> SUCCESS
Thursday 10 November 2016 11:57:07 AM IST  tracedemo  :  Eject EXECUTED  C++       Response -> ONLINE  Error_Code -> "0"
Thu Nov 10 11:57:07 2016 AM   tracedemo  :  Eject Executed  SP       Response -> SUCCESS
Thu Nov 10 11:57:22 2016 AM   tracedemo  :  Configuration ENTERING  SP       Response -> SUCCESS
Thursday 10 November 2016 11:57:22 AM IST  tracedemo  :  Configuration ENTERING  C++       Response -> SUCCESS
Thursday 10 November 2016 11:57:22 AM IST  tracedemo  :  Configuration CPI & LPI  C++       CPI ->"10"  LPI ->"40"   Response -> SUCCESS
Thursday 10 November 2016 11:57:22 AM IST  tracedemo  :   Device Successfully Initialized  C++       Response -> SUCCESS
Thu Nov 10 11:57:23 2016 AM   tracedemo  :  Paper Status ENTERING  SP       Response -> SUCCESS
Thursday 10 November 2016 11:57:23 AM IST  tracedemo  :  Paper Status  ENTERING  C++       Response -> SUCCESS
Thursday 10 November 2016 11:57:23 AM IST  tracedemo  :  Paper Status EXECUTED  C++   Response -> "DOCABSENT"  Status -> "0"
Thu Nov 10 11:57:23 2016 AM   tracedemo  :  Paper Status EXITING  SP       Response -> DOCABSENT
Thu Nov 10 11:57:24 2016 AM   tracedemo  :  Paper Status ENTERING  SP       Response -> SUCCESS
Thursday 10 November 2016 11:57:24 AM IST  tracedemo  :  Paper Status  ENTERING  C++       Response -> SUCCESS
Thursday 10 November 2016 11:57:24 AM IST  tracedemo  :  Paper Status EXECUTED  C++   Response -> "DOCABSENT"  Status -> "0"
Thu Nov 10 11:57:24 2016 AM   tracedemo  :  Paper Status EXITING  SP       Response -> DOCABSENT
Thu Nov 10 11:57:25 2016 AM   tracedemo  :  Paper Status ENTERING  SP       Response -> SUCCESS
Thursday 10 November 2016 11:57:25 AM IST  tracedemo  :  Paper Status  ENTERING  C++       Response -> SUCCESS
Thursday 10 November 2016 11:57:26 AM IST  tracedemo  :  Paper Status EXECUTED  C++   Response -> "DOCEJECTED"  Status -> "1"
Thu Nov 10 11:57:26 2016 AM   tracedemo  :  Paper Status EXITING  SP       Response -> DOCEJECTED
Thu Nov 10 11:57:27 2016 AM   tracedemo  :  Paper Status ENTERING  SP       Response -> SUCCESS
Thursday 10 November 2016 11:57:27 AM IST  tracedemo  :  Paper Status  ENTERING  C++       Response -> SUCCESS
Thursday 10 November 2016 11:57:27 AM IST  tracedemo  :  Paper Status EXECUTED  C++   Response -> "DOCEJECTED"  Status -> "1"
Thu Nov 10 11:57:27 2016 AM   tracedemo  :  Paper Status EXITING  SP       Response -> DOCEJECTED
Thu Nov 10 11:57:28 2016 AM   tracedemo  :  Paper Status ENTERING  SP       Response -> SUCCESS
Thursday 10 November 2016 11:57:28 AM IST  tracedemo  :  Paper Status  ENTERING  C++       Response -> SUCCESS
Thursday 10 November 2016 11:57:28 AM IST  tracedemo  :  Paper Status EXECUTED  C++   Response -> "DOCPRESENT"  Status -> "2"
Thu Nov 10 11:57:28 2016 AM   tracedemo  :  Paper Status EXITING  SP       Response -> DOCPRESENT
Thu Nov 10 11:57:28 2016 AM   tracedemo  :  Scanning ENTERING  SP       Response -> SUCCESS
Thursday 10 November 2016 11:57:28 AM IST  tracedemo  :  Scanning  ENTERING  C++       Response -> SUCCESS
Thursday 10 November 2016 11:57:28 AM IST  tracedemo  :  Scanning Properties  C++       BitsPerPixel -> "8"  ScanMode ->"SCAN_FRONT_REAR" 
Thursday 10 November 2016 11:57:33 AM IST  tracedemo  :  Scanning EXECUTED  C++       Response -> ONLINE
Thu Nov 10 11:57:34 2016 AM   tracedemo  :   Barcode Range specified Min->9  Max->16SP       
Thu Nov 10 11:57:34 2016 AM   tracedemo  :   Length of barcode retrieved ->15  SP       
Thu Nov 10 11:57:34 2016 AM   tracedemo  :  Barcode scanning successfully executed  SP       Response -> SUCCESSFULL	Barcode Data ->	985619121111107
Thu Nov 10 11:57:34 2016 AM   tracedemo  :  SCanning   SP   LOWER REGION specified for scanning
Thu Nov 10 11:57:34 2016 AM tracedemo  :  Scanning EXITING  SP       Response -> SUCCESS     Barcode Data -> 985619121111107
Thu Nov 10 11:57:34 2016 AM   tracedemo  :  Eject ENTERING  SP       Response -> SUCCESS
Thursday 10 November 2016 11:57:35 AM IST  tracedemo  :  Eject  ENTERING  C++       Response -> SUCCESS
Thursday 10 November 2016 11:57:35 AM IST  tracedemo  :  Eject EXECUTED  C++       Response -> ONLINE  Error_Code -> "0"
Thu Nov 10 11:57:35 2016 AM   tracedemo  :  Eject Executed  SP       Response -> SUCCESS
Thu Nov 10 11:57:54 2016 AM   tracedemo  :  Configuration ENTERING  SP       Response -> SUCCESS
Thursday 10 November 2016 11:57:54 AM IST  tracedemo  :  Configuration ENTERING  C++       Response -> SUCCESS
Thursday 10 November 2016 11:57:54 AM IST  tracedemo  :  Configuration CPI & LPI  C++       CPI ->"10"  LPI ->"40"   Response -> SUCCESS
Thursday 10 November 2016 11:57:54 AM IST  tracedemo  :   Device Successfully Initialized  C++       Response -> SUCCESS
Thu Nov 10 11:57:55 2016 AM   tracedemo  :  Paper Status ENTERING  SP       Response -> SUCCESS
Thursday 10 November 2016 11:57:55 AM IST  tracedemo  :  Paper Status  ENTERING  C++       Response -> SUCCESS
Thursday 10 November 2016 11:57:55 AM IST  tracedemo  :  Paper Status EXECUTED  C++   Response -> "DOCABSENT"  Status -> "0"
Thu Nov 10 11:57:55 2016 AM   tracedemo  :  Paper Status EXITING  SP       Response -> DOCABSENT
Thu Nov 10 11:57:56 2016 AM   tracedemo  :  Paper Status ENTERING  SP       Response -> SUCCESS
Thursday 10 November 2016 11:57:56 AM IST  tracedemo  :  Paper Status  ENTERING  C++       Response -> SUCCESS
Thursday 10 November 2016 11:57:56 AM IST  tracedemo  :  Paper Status EXECUTED  C++   Response -> "DOCABSENT"  Status -> "0"
Thu Nov 10 11:57:56 2016 AM   tracedemo  :  Paper Status EXITING  SP       Response -> DOCABSENT
Thu Nov 10 11:57:57 2016 AM   tracedemo  :  Paper Status ENTERING  SP       Response -> SUCCESS
Thursday 10 November 2016 11:57:57 AM IST  tracedemo  :  Paper Status  ENTERING  C++       Response -> SUCCESS
Thursday 10 November 2016 11:57:57 AM IST  tracedemo  :  Paper Status EXECUTED  C++   Response -> "DOCABSENT"  Status -> "0"
Thu Nov 10 11:57:57 2016 AM   tracedemo  :  Paper Status EXITING  SP       Response -> DOCABSENT
Thu Nov 10 11:57:58 2016 AM   tracedemo  :  Paper Status ENTERING  SP       Response -> SUCCESS
Thursday 10 November 2016 11:57:58 AM IST  tracedemo  :  Paper Status  ENTERING  C++       Response -> SUCCESS
Thursday 10 November 2016 11:57:58 AM IST  tracedemo  :  Paper Status EXECUTED  C++   Response -> "DOCABSENT"  Status -> "0"
Thu Nov 10 11:57:58 2016 AM   tracedemo  :  Paper Status EXITING  SP       Response -> DOCABSENT
Thu Nov 10 11:57:59 2016 AM   tracedemo  :  Paper Status ENTERING  SP       Response -> SUCCESS
Thursday 10 November 2016 11:57:59 AM IST  tracedemo  :  Paper Status  ENTERING  C++       Response -> SUCCESS
Thursday 10 November 2016 11:57:59 AM IST  tracedemo  :  Paper Status EXECUTED  C++   Response -> "DOCABSENT"  Status -> "0"
Thu Nov 10 11:57:59 2016 AM   tracedemo  :  Paper Status EXITING  SP       Response -> DOCABSENT
Thu Nov 10 11:58:00 2016 AM   tracedemo  :  Paper Status ENTERING  SP       Response -> SUCCESS
Thursday 10 November 2016 11:58:00 AM IST  tracedemo  :  Paper Status  ENTERING  C++       Response -> SUCCESS
Thursday 10 November 2016 11:58:00 AM IST  tracedemo  :  Paper Status EXECUTED  C++   Response -> "DOCABSENT"  Status -> "0"
Thu Nov 10 11:58:00 2016 AM   tracedemo  :  Paper Status EXITING  SP       Response -> DOCABSENT
Thu Nov 10 11:58:01 2016 AM   tracedemo  :  Paper Status ENTERING  SP       Response -> SUCCESS
Thursday 10 November 2016 11:58:01 AM IST  tracedemo  :  Paper Status  ENTERING  C++       Response -> SUCCESS
Thursday 10 November 2016 11:58:01 AM IST  tracedemo  :  Paper Status EXECUTED  C++   Response -> "DOCABSENT"  Status -> "0"
Thu Nov 10 11:58:01 2016 AM   tracedemo  :  Paper Status EXITING  SP       Response -> DOCABSENT
Thu Nov 10 11:58:02 2016 AM   tracedemo  :  Paper Status ENTERING  SP       Response -> SUCCESS
Thursday 10 November 2016 11:58:02 AM IST  tracedemo  :  Paper Status  ENTERING  C++       Response -> SUCCESS
Thursday 10 November 2016 11:58:02 AM IST  tracedemo  :  Paper Status EXECUTED  C++   Response -> "DOCABSENT"  Status -> "0"
Thu Nov 10 11:58:02 2016 AM   tracedemo  :  Paper Status EXITING  SP       Response -> DOCABSENT
Thu Nov 10 11:58:03 2016 AM   tracedemo  :  Paper Status ENTERING  SP       Response -> SUCCESS
Thursday 10 November 2016 11:58:03 AM IST  tracedemo  :  Paper Status  ENTERING  C++       Response -> SUCCESS
Thursday 10 November 2016 11:58:03 AM IST  tracedemo  :  Paper Status EXECUTED  C++   Response -> "DOCEJECTED"  Status -> "1"
Thu Nov 10 11:58:03 2016 AM   tracedemo  :  Paper Status EXITING  SP       Response -> DOCEJECTED
Thu Nov 10 11:58:04 2016 AM   tracedemo  :  Paper Status ENTERING  SP       Response -> SUCCESS
Thursday 10 November 2016 11:58:04 AM IST  tracedemo  :  Paper Status  ENTERING  C++       Response -> SUCCESS
Thursday 10 November 2016 11:58:04 AM IST  tracedemo  :  Paper Status EXECUTED  C++   Response -> "DOCPRESENT"  Status -> "2"
Thu Nov 10 11:58:04 2016 AM   tracedemo  :  Paper Status EXITING  SP       Response -> DOCPRESENT
Thu Nov 10 11:58:04 2016 AM   tracedemo  :  Scanning ENTERING  SP       Response -> SUCCESS
Thursday 10 November 2016 11:58:04 AM IST  tracedemo  :  Scanning  ENTERING  C++       Response -> SUCCESS
Thursday 10 November 2016 11:58:04 AM IST  tracedemo  :  Scanning Properties  C++       BitsPerPixel -> "8"  ScanMode ->"SCAN_FRONT_REAR" 
Thursday 10 November 2016 11:58:09 AM IST  tracedemo  :  Scanning EXECUTED  C++       Response -> ONLINE
Thu Nov 10 11:58:09 2016 AM   tracedemo  :   Barcode Range specified Min->9  Max->16SP       
Thu Nov 10 11:58:09 2016 AM   tracedemo  :   Length of barcode retrieved ->14  SP       
Thu Nov 10 11:58:09 2016 AM   tracedemo  :  Barcode scanning successfully executed  SP       Response -> SUCCESSFULL	Barcode Data ->	11662191010765
Thu Nov 10 11:58:09 2016 AM   tracedemo  :  SCanning   SP   LOWER REGION specified for scanning
Thu Nov 10 11:58:09 2016 AM tracedemo  :  Scanning EXITING  SP       Response -> SUCCESS     Barcode Data -> 11662191010765
Thu Nov 10 11:58:42 2016 AM   tracedemo  :  Eject ENTERING  SP       Response -> SUCCESS
Thursday 10 November 2016 11:58:43 AM IST  tracedemo  :  Eject  ENTERING  C++       Response -> SUCCESS
Thursday 10 November 2016 11:58:43 AM IST  tracedemo  :  Eject EXECUTED  C++       Response -> ONLINE  Error_Code -> "0"
Thu Nov 10 11:58:43 2016 AM   tracedemo  :  Eject Executed  SP       Response -> SUCCESS
Thu Nov 10 12:00:04 2016 PM   tracedemo  :  Configuration ENTERING  SP       Response -> SUCCESS
Thursday 10 November 2016 12:00:04 PM IST  tracedemo  :  Configuration ENTERING  C++       Response -> SUCCESS
Thursday 10 November 2016 12:00:04 PM IST  tracedemo  :  Configuration CPI & LPI  C++       CPI ->"10"  LPI ->"40"   Response -> SUCCESS
Thursday 10 November 2016 12:00:10 PM IST  tracedemo  :   Device Successfully Initialized  C++       Response -> SUCCESS
Thu Nov 10 12:00:17 2016 PM   tracedemo  :  Configuration ENTERING  SP       Response -> SUCCESS
Thursday 10 November 2016 12:00:17 PM IST  tracedemo  :  Configuration ENTERING  C++       Response -> SUCCESS
Thursday 10 November 2016 12:00:17 PM IST  tracedemo  :  Configuration CPI & LPI  C++       CPI ->"10"  LPI ->"40"   Response -> SUCCESS
Thursday 10 November 2016 12:00:17 PM IST  tracedemo  :   Device Successfully Initialized  C++       Response -> SUCCESS
Thu Nov 10 12:00:18 2016 PM   tracedemo  :  Paper Status ENTERING  SP       Response -> SUCCESS
Thursday 10 November 2016 12:00:18 PM IST  tracedemo  :  Paper Status  ENTERING  C++       Response -> SUCCESS
Thursday 10 November 2016 12:00:18 PM IST  tracedemo  :  Paper Status EXECUTED  C++   Response -> "DOCABSENT"  Status -> "0"
Thu Nov 10 12:00:18 2016 PM   tracedemo  :  Paper Status EXITING  SP       Response -> DOCABSENT
Thu Nov 10 12:00:19 2016 PM   tracedemo  :  Paper Status ENTERING  SP       Response -> SUCCESS
Thursday 10 November 2016 12:00:19 PM IST  tracedemo  :  Paper Status  ENTERING  C++       Response -> SUCCESS
Thursday 10 November 2016 12:00:19 PM IST  tracedemo  :  Paper Status EXECUTED  C++   Response -> "DOCPRESENT"  Status -> "2"
Thu Nov 10 12:00:19 2016 PM   tracedemo  :  Paper Status EXITING  SP       Response -> DOCPRESENT
Thu Nov 10 12:00:19 2016 PM   tracedemo  :  Scanning ENTERING  SP       Response -> SUCCESS
Thursday 10 November 2016 12:00:19 PM IST  tracedemo  :  Scanning  ENTERING  C++       Response -> SUCCESS
Thursday 10 November 2016 12:00:19 PM IST  tracedemo  :  Scanning Properties  C++       BitsPerPixel -> "8"  ScanMode ->"SCAN_FRONT_REAR" 
Thursday 10 November 2016 12:00:24 PM IST  tracedemo  :  Scanning EXECUTED  C++       Response -> ONLINE
Thu Nov 10 12:00:25 2016 PM   tracedemo  :   Barcode Range specified Min->9  Max->16SP       
Thu Nov 10 12:00:25 2016 PM   tracedemo  :   Length of barcode retrieved ->14  SP       
Thu Nov 10 12:00:25 2016 PM   tracedemo  :  Barcode scanning successfully executed  SP       Response -> SUCCESSFULL	Barcode Data ->	11662191010765
Thu Nov 10 12:00:25 2016 PM   tracedemo  :  SCanning   SP   LOWER REGION specified for scanning
Thu Nov 10 12:00:25 2016 PM tracedemo  :  Scanning EXITING  SP       Response -> SUCCESS     Barcode Data -> 11662191010765
Thu Nov 10 12:00:45 2016 PM   tracedemo  :  Eject ENTERING  SP       Response -> SUCCESS
Thursday 10 November 2016 12:00:46 PM IST  tracedemo  :  Eject  ENTERING  C++       Response -> SUCCESS
Thursday 10 November 2016 12:00:46 PM IST  tracedemo  :  Eject EXECUTED  C++       Response -> ONLINE  Error_Code -> "0"
Thu Nov 10 12:00:46 2016 PM   tracedemo  :  Eject Executed  SP       Response -> SUCCESS
