Tue May 03 06:16:07 2016 PM   tracedemo  :  Configuration ENTERING  SP       Response -> SUCCESS
Tuesday 03 May 2016 06:16:07 PM IST  tracedemo  :  Configuration ENTERING  C++       Response -> SUCCESS
Tuesday 03 May 2016 06:16:07 PM IST  tracedemo  :  Configuration CPI & LPI  C++       CPI ->"17"  LPI ->"40"   Response -> SUCCESS
Tuesday 03 May 2016 06:16:13 PM IST  tracedemo  :   Device Successfully Initialized  C++       Response -> SUCCESS
Tue May 03 06:57:53 2016 PM   tracedemo  :  Configuration ENTERING  SP       Response -> SUCCESS
Tuesday 03 May 2016 06:57:53 PM IST  tracedemo  :  Configuration ENTERING  C++       Response -> SUCCESS
Tuesday 03 May 2016 06:57:53 PM IST  tracedemo  :  Configuration CPI & LPI  C++       CPI ->"17"  LPI ->"40"   Response -> SUCCESS
Tuesday 03 May 2016 06:57:59 PM IST  tracedemo  :   Device Successfully Initialized  C++       Response -> SUCCESS
Tue May 03 06:58:08 2016 PM   tracedemo  :  Configuration ENTERING  SP       Response -> SUCCESS
Tuesday 03 May 2016 06:58:08 PM IST  tracedemo  :  Configuration ENTERING  C++       Response -> SUCCESS
Tuesday 03 May 2016 06:58:08 PM IST  tracedemo  :  Configuration CPI & LPI  C++       CPI ->"17"  LPI ->"40"   Response -> SUCCESS
Tuesday 03 May 2016 06:58:08 PM IST  tracedemo  :   Device Successfully Initialized  C++       Response -> SUCCESS
Tue May 03 06:58:09 2016 PM   tracedemo  :  Paper Status ENTERING  SP       Response -> SUCCESS
Tuesday 03 May 2016 06:58:09 PM IST  tracedemo  :  Paper Status  ENTERING  C++       Response -> SUCCESS
Tuesday 03 May 2016 06:58:09 PM IST  tracedemo  :  Paper Status EXECUTED  C++   Response -> "DOCPRESENT"  Status -> "2"
Tue May 03 06:58:09 2016 PM   tracedemo  :  Paper Status EXITING  SP       Response -> DOCPRESENT
Tue May 03 06:58:09 2016 PM   tracedemo  :  Scanning ENTERING  SP       Response -> SUCCESS
Tuesday 03 May 2016 06:58:09 PM IST  tracedemo  :  Scanning  ENTERING  C++       Response -> SUCCESS
Tuesday 03 May 2016 06:58:09 PM IST  tracedemo  :  Scanning Properties  C++       BitsPerPixel -> "8"  ScanMode ->"SCAN_FRONT_REAR" 
Tuesday 03 May 2016 06:58:14 PM IST  tracedemo  :  Scanning EXECUTED  C++       Response -> ONLINE
Tue May 03 06:58:15 2016 PM   tracedemo  :   Barcode Range specified Min->9  Max->16SP       
Tue May 03 06:58:15 2016 PM   tracedemo  :   Length of barcode retrieved ->0  SP       
Tue May 03 06:58:15 2016 PM   tracedemo  :  ./barcodescanning could not be successfully executed  SP       Response -> UNSUCCESSFULL
Tue May 03 06:58:15 2016 PM   tracedemo  :  SCanning   SP   LOWER REGION specified for scanning
Tue May 03 06:58:15 2016 PM tracedemo  :  Scanning EXITING  SP       Response -> SUCCESS     Barcode Data -> NULL
Tue May 03 06:58:15 2016 PM   tracedemo  :  Eject ENTERING  SP       Response -> SUCCESS
Tuesday 03 May 2016 06:58:16 PM IST  tracedemo  :  Eject  ENTERING  C++       Response -> SUCCESS
Tuesday 03 May 2016 06:58:16 PM IST  tracedemo  :  Eject EXECUTED  C++       Response -> ONLINE  Error_Code -> "0"
Tue May 03 06:58:16 2016 PM   tracedemo  :  Eject Executed  SP       Response -> SUCCESS
Tue May 03 06:58:25 2016 PM   tracedemo  :  Configuration ENTERING  SP       Response -> SUCCESS
Tuesday 03 May 2016 06:58:25 PM IST  tracedemo  :  Configuration ENTERING  C++       Response -> SUCCESS
Tuesday 03 May 2016 06:58:25 PM IST  tracedemo  :  Configuration CPI & LPI  C++       CPI ->"17"  LPI ->"40"   Response -> SUCCESS
Tuesday 03 May 2016 06:58:25 PM IST  tracedemo  :   Device Successfully Initialized  C++       Response -> SUCCESS
Tue May 03 06:58:26 2016 PM   tracedemo  :  Paper Status ENTERING  SP       Response -> SUCCESS
Tuesday 03 May 2016 06:58:26 PM IST  tracedemo  :  Paper Status  ENTERING  C++       Response -> SUCCESS
Tuesday 03 May 2016 06:58:26 PM IST  tracedemo  :  Paper Status EXECUTED  C++   Response -> "DOCPRESENT"  Status -> "2"
Tue May 03 06:58:26 2016 PM   tracedemo  :  Paper Status EXITING  SP       Response -> DOCPRESENT
Tue May 03 06:58:26 2016 PM   tracedemo  :  Scanning ENTERING  SP       Response -> SUCCESS
Tuesday 03 May 2016 06:58:26 PM IST  tracedemo  :  Scanning  ENTERING  C++       Response -> SUCCESS
Tuesday 03 May 2016 06:58:26 PM IST  tracedemo  :  Scanning Properties  C++       BitsPerPixel -> "8"  ScanMode ->"SCAN_FRONT_REAR" 
Tuesday 03 May 2016 06:58:31 PM IST  tracedemo  :  Scanning EXECUTED  C++       Response -> ONLINE
Tue May 03 06:58:32 2016 PM   tracedemo  :   Barcode Range specified Min->9  Max->16SP       
Tue May 03 06:58:32 2016 PM   tracedemo  :   Length of barcode retrieved ->16  SP       
Tue May 03 06:58:32 2016 PM   tracedemo  :  Barcode scanning successfully executed  SP       Response -> SUCCESSFULL	Barcode Data ->	0241301000023516
Tue May 03 06:58:32 2016 PM   tracedemo  :  SCanning   SP   LOWER REGION specified for scanning
Tue May 03 06:58:32 2016 PM tracedemo  :  Scanning EXITING  SP       Response -> SUCCESS     Barcode Data -> 0241301000023516
Tue May 03 06:58:36 2016 PM   tracedemo  :  Print ENTERING  SP       Response -> SUCCESS
Tuesday 03 May 2016 06:58:36 PM IST  tracedemo  :  Printing  ENTERING  C++       Response -> SUCCESS
Tuesday 03 May 2016 06:58:36 PM IST  tracedemo  :  Printing path  C++       Path ->  "/root/forbes/microbanker/bin/Print_Files/PrintFile.txt"
Tuesday 03 May 2016 06:58:45 PM IST  tracedemo  :  Printing EXECUTED  C++       Response -> ONLINE
Tue May 03 06:58:45 2016 PM   tracedemo  :  Print EXITING  SP       Response -> SUCCESS
Tue May 03 06:58:45 2016 PM   tracedemo  :  Print ENTERING  SP       Response -> SUCCESS
Tuesday 03 May 2016 06:58:45 PM IST  tracedemo  :  Printing  ENTERING  C++       Response -> SUCCESS
Tuesday 03 May 2016 06:58:45 PM IST  tracedemo  :  Printing path  C++       Path ->  "/root/forbes/microbanker/bin/Print_Files/PrintFile.txt"
Tuesday 03 May 2016 06:58:52 PM IST  tracedemo  :  Printing EXECUTED  C++       Response -> ONLINE
Tue May 03 06:58:52 2016 PM   tracedemo  :  Print EXITING  SP       Response -> SUCCESS
Tue May 03 06:58:53 2016 PM   tracedemo  :  Print ENTERING  SP       Response -> SUCCESS
Tuesday 03 May 2016 06:58:53 PM IST  tracedemo  :  Printing  ENTERING  C++       Response -> SUCCESS
Tuesday 03 May 2016 06:58:53 PM IST  tracedemo  :  Printing path  C++       Path ->  "/root/forbes/microbanker/bin/Print_Files/PrintFile.txt"
Tuesday 03 May 2016 06:58:54 PM IST  tracedemo  :  Printing EXECUTED  C++       Response -> ONLINE
Tue May 03 06:58:54 2016 PM   tracedemo  :  Print EXITING  SP       Response -> SUCCESS
Tue May 03 06:58:54 2016 PM   tracedemo  :  Eject ENTERING  SP       Response -> SUCCESS
Tuesday 03 May 2016 06:58:55 PM IST  tracedemo  :  Eject  ENTERING  C++       Response -> SUCCESS
Tuesday 03 May 2016 06:58:55 PM IST  tracedemo  :  Eject EXECUTED  C++       Response -> ONLINE  Error_Code -> "0"
Tue May 03 06:58:55 2016 PM   tracedemo  :  Eject Executed  SP       Response -> SUCCESS
Tue May 03 06:58:55 2016 PM   tracedemo  :  Paper Status ENTERING  SP       Response -> SUCCESS
Tuesday 03 May 2016 06:58:55 PM IST  tracedemo  :  Paper Status  ENTERING  C++       Response -> SUCCESS
Tuesday 03 May 2016 06:58:55 PM IST  tracedemo  :  Paper Status EXECUTED  C++   Response -> "DOCEJECTED"  Status -> "1"
Tue May 03 06:58:55 2016 PM   tracedemo  :  Paper Status EXITING  SP       Response -> DOCEJECTED
Tue May 03 06:58:55 2016 PM   tracedemo  :  Paper Status ENTERING  SP       Response -> SUCCESS
Tuesday 03 May 2016 06:58:55 PM IST  tracedemo  :  Paper Status  ENTERING  C++       Response -> SUCCESS
Tuesday 03 May 2016 06:58:55 PM IST  tracedemo  :  Paper Status EXECUTED  C++   Response -> "DOCEJECTED"  Status -> "1"
Tue May 03 06:58:55 2016 PM   tracedemo  :  Paper Status EXITING  SP       Response -> DOCEJECTED
Tue May 03 06:58:56 2016 PM   tracedemo  :  Paper Status ENTERING  SP       Response -> SUCCESS
Tuesday 03 May 2016 06:58:56 PM IST  tracedemo  :  Paper Status  ENTERING  C++       Response -> SUCCESS
Tuesday 03 May 2016 06:58:56 PM IST  tracedemo  :  Paper Status EXECUTED  C++   Response -> "DOCEJECTED"  Status -> "1"
Tue May 03 06:58:56 2016 PM   tracedemo  :  Paper Status EXITING  SP       Response -> DOCEJECTED
Tue May 03 06:58:57 2016 PM   tracedemo  :  Paper Status ENTERING  SP       Response -> SUCCESS
Tuesday 03 May 2016 06:58:57 PM IST  tracedemo  :  Paper Status  ENTERING  C++       Response -> SUCCESS
Tuesday 03 May 2016 06:58:57 PM IST  tracedemo  :  Paper Status EXECUTED  C++   Response -> "DOCEJECTED"  Status -> "1"
Tue May 03 06:58:57 2016 PM   tracedemo  :  Paper Status EXITING  SP       Response -> DOCEJECTED
Tue May 03 06:58:58 2016 PM   tracedemo  :  Paper Status ENTERING  SP       Response -> SUCCESS
Tuesday 03 May 2016 06:58:58 PM IST  tracedemo  :  Paper Status  ENTERING  C++       Response -> SUCCESS
Tuesday 03 May 2016 06:58:58 PM IST  tracedemo  :  Paper Status EXECUTED  C++   Response -> "DOCEJECTED"  Status -> "1"
Tue May 03 06:58:58 2016 PM   tracedemo  :  Paper Status EXITING  SP       Response -> DOCEJECTED
Tue May 03 06:58:59 2016 PM   tracedemo  :  Paper Status ENTERING  SP       Response -> SUCCESS
Tuesday 03 May 2016 06:58:59 PM IST  tracedemo  :  Paper Status  ENTERING  C++       Response -> SUCCESS
Tuesday 03 May 2016 06:58:59 PM IST  tracedemo  :  Paper Status EXECUTED  C++   Response -> "DOCEJECTED"  Status -> "1"
Tue May 03 06:58:59 2016 PM   tracedemo  :  Paper Status EXITING  SP       Response -> DOCEJECTED
Tue May 03 06:59:00 2016 PM   tracedemo  :  Paper Status ENTERING  SP       Response -> SUCCESS
Tuesday 03 May 2016 06:59:00 PM IST  tracedemo  :  Paper Status  ENTERING  C++       Response -> SUCCESS
Tuesday 03 May 2016 06:59:00 PM IST  tracedemo  :  Paper Status EXECUTED  C++   Response -> "DOCEJECTED"  Status -> "1"
Tue May 03 06:59:00 2016 PM   tracedemo  :  Paper Status EXITING  SP       Response -> DOCEJECTED
Tue May 03 06:59:01 2016 PM   tracedemo  :  Paper Status ENTERING  SP       Response -> SUCCESS
Tuesday 03 May 2016 06:59:01 PM IST  tracedemo  :  Paper Status  ENTERING  C++       Response -> SUCCESS
Tuesday 03 May 2016 06:59:01 PM IST  tracedemo  :  Paper Status EXECUTED  C++   Response -> "DOCEJECTED"  Status -> "1"
Tue May 03 06:59:01 2016 PM   tracedemo  :  Paper Status EXITING  SP       Response -> DOCEJECTED
Tue May 03 06:59:02 2016 PM   tracedemo  :  Paper Status ENTERING  SP       Response -> SUCCESS
Tuesday 03 May 2016 06:59:02 PM IST  tracedemo  :  Paper Status  ENTERING  C++       Response -> SUCCESS
Tuesday 03 May 2016 06:59:02 PM IST  tracedemo  :  Paper Status EXECUTED  C++   Response -> "DOCEJECTED"  Status -> "1"
Tue May 03 06:59:02 2016 PM   tracedemo  :  Paper Status EXITING  SP       Response -> DOCEJECTED
Tue May 03 06:59:03 2016 PM   tracedemo  :  Paper Status ENTERING  SP       Response -> SUCCESS
Tuesday 03 May 2016 06:59:03 PM IST  tracedemo  :  Paper Status  ENTERING  C++       Response -> SUCCESS
Tuesday 03 May 2016 06:59:03 PM IST  tracedemo  :  Paper Status EXECUTED  C++   Response -> "DOCEJECTED"  Status -> "1"
Tue May 03 06:59:03 2016 PM   tracedemo  :  Paper Status EXITING  SP       Response -> DOCEJECTED
Tue May 03 06:59:04 2016 PM   tracedemo  :  Paper Status ENTERING  SP       Response -> SUCCESS
Tuesday 03 May 2016 06:59:04 PM IST  tracedemo  :  Paper Status  ENTERING  C++       Response -> SUCCESS
Tuesday 03 May 2016 06:59:04 PM IST  tracedemo  :  Paper Status EXECUTED  C++   Response -> "DOCEJECTED"  Status -> "1"
Tue May 03 06:59:04 2016 PM   tracedemo  :  Paper Status EXITING  SP       Response -> DOCEJECTED
Tue May 03 06:59:05 2016 PM   tracedemo  :  Paper Status ENTERING  SP       Response -> SUCCESS
Tuesday 03 May 2016 06:59:05 PM IST  tracedemo  :  Paper Status  ENTERING  C++       Response -> SUCCESS
Tuesday 03 May 2016 06:59:05 PM IST  tracedemo  :  Paper Status EXECUTED  C++   Response -> "DOCEJECTED"  Status -> "1"
Tue May 03 06:59:05 2016 PM   tracedemo  :  Paper Status EXITING  SP       Response -> DOCEJECTED
Tue May 03 06:59:06 2016 PM   tracedemo  :  Paper Status ENTERING  SP       Response -> SUCCESS
Tuesday 03 May 2016 06:59:06 PM IST  tracedemo  :  Paper Status  ENTERING  C++       Response -> SUCCESS
Tuesday 03 May 2016 06:59:06 PM IST  tracedemo  :  Paper Status EXECUTED  C++   Response -> "DOCEJECTED"  Status -> "1"
Tue May 03 06:59:06 2016 PM   tracedemo  :  Paper Status EXITING  SP       Response -> DOCEJECTED
Tue May 03 06:59:07 2016 PM   tracedemo  :  Paper Status ENTERING  SP       Response -> SUCCESS
Tuesday 03 May 2016 06:59:07 PM IST  tracedemo  :  Paper Status  ENTERING  C++       Response -> SUCCESS
Tuesday 03 May 2016 06:59:07 PM IST  tracedemo  :  Paper Status EXECUTED  C++   Response -> "DOCEJECTED"  Status -> "1"
Tue May 03 06:59:07 2016 PM   tracedemo  :  Paper Status EXITING  SP       Response -> DOCEJECTED
Tue May 03 06:59:08 2016 PM   tracedemo  :  Paper Status ENTERING  SP       Response -> SUCCESS
Tuesday 03 May 2016 06:59:08 PM IST  tracedemo  :  Paper Status  ENTERING  C++       Response -> SUCCESS
Tuesday 03 May 2016 06:59:08 PM IST  tracedemo  :  Paper Status EXECUTED  C++   Response -> "DOCEJECTED"  Status -> "1"
Tue May 03 06:59:08 2016 PM   tracedemo  :  Paper Status EXITING  SP       Response -> DOCEJECTED
Tue May 03 06:59:09 2016 PM   tracedemo  :  Paper Status ENTERING  SP       Response -> SUCCESS
Tuesday 03 May 2016 06:59:09 PM IST  tracedemo  :  Paper Status  ENTERING  C++       Response -> SUCCESS
Tuesday 03 May 2016 06:59:09 PM IST  tracedemo  :  Paper Status EXECUTED  C++   Response -> "DOCEJECTED"  Status -> "1"
Tue May 03 06:59:09 2016 PM   tracedemo  :  Paper Status EXITING  SP       Response -> DOCEJECTED
Tue May 03 06:59:10 2016 PM   tracedemo  :  Paper Status ENTERING  SP       Response -> SUCCESS
Tuesday 03 May 2016 06:59:10 PM IST  tracedemo  :  Paper Status  ENTERING  C++       Response -> SUCCESS
Tuesday 03 May 2016 06:59:10 PM IST  tracedemo  :  Paper Status EXECUTED  C++   Response -> "DOCEJECTED"  Status -> "1"
Tue May 03 06:59:10 2016 PM   tracedemo  :  Paper Status EXITING  SP       Response -> DOCEJECTED
Tue May 03 06:59:11 2016 PM   tracedemo  :  Paper Status ENTERING  SP       Response -> SUCCESS
Tuesday 03 May 2016 06:59:11 PM IST  tracedemo  :  Paper Status  ENTERING  C++       Response -> SUCCESS
Tuesday 03 May 2016 06:59:11 PM IST  tracedemo  :  Paper Status EXECUTED  C++   Response -> "DOCEJECTED"  Status -> "1"
Tue May 03 06:59:11 2016 PM   tracedemo  :  Paper Status EXITING  SP       Response -> DOCEJECTED
Tue May 03 06:59:12 2016 PM   tracedemo  :  Paper Status ENTERING  SP       Response -> SUCCESS
Tuesday 03 May 2016 06:59:12 PM IST  tracedemo  :  Paper Status  ENTERING  C++       Response -> SUCCESS
Tuesday 03 May 2016 06:59:12 PM IST  tracedemo  :  Paper Status EXECUTED  C++   Response -> "DOCEJECTED"  Status -> "1"
Tue May 03 06:59:12 2016 PM   tracedemo  :  Paper Status EXITING  SP       Response -> DOCEJECTED
Tue May 03 06:59:13 2016 PM   tracedemo  :  Paper Status ENTERING  SP       Response -> SUCCESS
Tuesday 03 May 2016 06:59:13 PM IST  tracedemo  :  Paper Status  ENTERING  C++       Response -> SUCCESS
Tuesday 03 May 2016 06:59:13 PM IST  tracedemo  :  Paper Status EXECUTED  C++   Response -> "DOCEJECTED"  Status -> "1"
Tue May 03 06:59:13 2016 PM   tracedemo  :  Paper Status EXITING  SP       Response -> DOCEJECTED
Tue May 03 06:59:14 2016 PM   tracedemo  :  Paper Status ENTERING  SP       Response -> SUCCESS
Tuesday 03 May 2016 06:59:14 PM IST  tracedemo  :  Paper Status  ENTERING  C++       Response -> SUCCESS
Tuesday 03 May 2016 06:59:14 PM IST  tracedemo  :  Paper Status EXECUTED  C++   Response -> "DOCEJECTED"  Status -> "1"
Tue May 03 06:59:14 2016 PM   tracedemo  :  Paper Status EXITING  SP       Response -> DOCEJECTED
Tue May 03 07:00:30 2016 PM   tracedemo  :  Eject ENTERING  SP       Response -> SUCCESS
Tuesday 03 May 2016 07:00:30 PM IST  tracedemo  :  Eject  ENTERING  C++       Response -> SUCCESS
Tuesday 03 May 2016 07:00:30 PM IST  tracedemo  :  Eject EXECUTED  C++       Response -> ONLINE  Error_Code -> "0"
Tue May 03 07:00:30 2016 PM   tracedemo  :  Eject Executed  SP       Response -> SUCCESS
Tue May 03 07:21:20 2016 PM   tracedemo  :  Configuration ENTERING  SP       Response -> SUCCESS
Tuesday 03 May 2016 07:21:20 PM IST  tracedemo  :  Configuration ENTERING  C++       Response -> SUCCESS
Tuesday 03 May 2016 07:21:20 PM IST  tracedemo  :  Configuration CPI & LPI  C++       CPI ->"17"  LPI ->"40"   Response -> SUCCESS
Tuesday 03 May 2016 07:21:20 PM IST  tracedemo  :   Device Successfully Initialized  C++       Response -> SUCCESS
Tue May 03 07:21:21 2016 PM   tracedemo  :  Paper Status ENTERING  SP       Response -> SUCCESS
Tuesday 03 May 2016 07:21:21 PM IST  tracedemo  :  Paper Status  ENTERING  C++       Response -> SUCCESS
Tuesday 03 May 2016 07:21:21 PM IST  tracedemo  :  Paper Status EXECUTED  C++   Response -> "DOCABSENT"  Status -> "0"
Tue May 03 07:21:21 2016 PM   tracedemo  :  Paper Status EXITING  SP       Response -> DOCABSENT
Tue May 03 07:21:22 2016 PM   tracedemo  :  Paper Status ENTERING  SP       Response -> SUCCESS
Tuesday 03 May 2016 07:21:22 PM IST  tracedemo  :  Paper Status  ENTERING  C++       Response -> SUCCESS
Tuesday 03 May 2016 07:21:22 PM IST  tracedemo  :  Paper Status EXECUTED  C++   Response -> "DOCABSENT"  Status -> "0"
Tue May 03 07:21:22 2016 PM   tracedemo  :  Paper Status EXITING  SP       Response -> DOCABSENT
Tue May 03 07:21:23 2016 PM   tracedemo  :  Paper Status ENTERING  SP       Response -> SUCCESS
Tuesday 03 May 2016 07:21:23 PM IST  tracedemo  :  Paper Status  ENTERING  C++       Response -> SUCCESS
Tuesday 03 May 2016 07:21:24 PM IST  tracedemo  :  Paper Status EXECUTED  C++   Response -> "DOCEJECTED"  Status -> "1"
Tue May 03 07:21:24 2016 PM   tracedemo  :  Paper Status EXITING  SP       Response -> DOCEJECTED
Tue May 03 07:21:25 2016 PM   tracedemo  :  Paper Status ENTERING  SP       Response -> SUCCESS
Tuesday 03 May 2016 07:21:25 PM IST  tracedemo  :  Paper Status  ENTERING  C++       Response -> SUCCESS
Tuesday 03 May 2016 07:21:25 PM IST  tracedemo  :  Paper Status EXECUTED  C++   Response -> "DOCPRESENT"  Status -> "2"
Tue May 03 07:21:25 2016 PM   tracedemo  :  Paper Status EXITING  SP       Response -> DOCPRESENT
Tue May 03 07:21:25 2016 PM   tracedemo  :  Scanning ENTERING  SP       Response -> SUCCESS
Tuesday 03 May 2016 07:21:25 PM IST  tracedemo  :  Scanning  ENTERING  C++       Response -> SUCCESS
Tuesday 03 May 2016 07:21:25 PM IST  tracedemo  :  Scanning Properties  C++       BitsPerPixel -> "8"  ScanMode ->"SCAN_FRONT_REAR" 
Tuesday 03 May 2016 07:21:30 PM IST  tracedemo  :  Scanning EXECUTED  C++       Response -> ONLINE
Tue May 03 07:21:30 2016 PM   tracedemo  :   Barcode Range specified Min->9  Max->16SP       
Tue May 03 07:21:30 2016 PM   tracedemo  :   Length of barcode retrieved ->16  SP       
Tue May 03 07:21:30 2016 PM   tracedemo  :  Barcode scanning successfully executed  SP       Response -> SUCCESSFULL	Barcode Data ->	0241301000023516
Tue May 03 07:21:30 2016 PM   tracedemo  :  SCanning   SP   LOWER REGION specified for scanning
Tue May 03 07:21:30 2016 PM tracedemo  :  Scanning EXITING  SP       Response -> SUCCESS     Barcode Data -> 0241301000023516
Tue May 03 07:21:33 2016 PM   tracedemo  :  Print ENTERING  SP       Response -> SUCCESS
Tuesday 03 May 2016 07:21:33 PM IST  tracedemo  :  Printing  ENTERING  C++       Response -> SUCCESS
Tuesday 03 May 2016 07:21:33 PM IST  tracedemo  :  Printing path  C++       Path ->  "/root/forbes/microbanker/bin/Print_Files/PrintFile.txt"
Tuesday 03 May 2016 07:21:42 PM IST  tracedemo  :  Printing EXECUTED  C++       Response -> ONLINE
Tue May 03 07:21:42 2016 PM   tracedemo  :  Print EXITING  SP       Response -> SUCCESS
Tue May 03 07:21:42 2016 PM   tracedemo  :  Print ENTERING  SP       Response -> SUCCESS
Tuesday 03 May 2016 07:21:42 PM IST  tracedemo  :  Printing  ENTERING  C++       Response -> SUCCESS
Tuesday 03 May 2016 07:21:42 PM IST  tracedemo  :  Printing path  C++       Path ->  "/root/forbes/microbanker/bin/Print_Files/PrintFile.txt"
Tuesday 03 May 2016 07:21:49 PM IST  tracedemo  :  Printing EXECUTED  C++       Response -> ONLINE
Tue May 03 07:21:50 2016 PM   tracedemo  :  Print EXITING  SP       Response -> SUCCESS
Tue May 03 07:21:50 2016 PM   tracedemo  :  Print ENTERING  SP       Response -> SUCCESS
Tuesday 03 May 2016 07:21:50 PM IST  tracedemo  :  Printing  ENTERING  C++       Response -> SUCCESS
Tuesday 03 May 2016 07:21:50 PM IST  tracedemo  :  Printing path  C++       Path ->  "/root/forbes/microbanker/bin/Print_Files/PrintFile.txt"
Tuesday 03 May 2016 07:21:51 PM IST  tracedemo  :  Printing EXECUTED  C++       Response -> ONLINE
Tue May 03 07:21:51 2016 PM   tracedemo  :  Print EXITING  SP       Response -> SUCCESS
Tue May 03 07:21:51 2016 PM   tracedemo  :  Eject ENTERING  SP       Response -> SUCCESS
Tuesday 03 May 2016 07:21:52 PM IST  tracedemo  :  Eject  ENTERING  C++       Response -> SUCCESS
Tuesday 03 May 2016 07:21:52 PM IST  tracedemo  :  Eject EXECUTED  C++       Response -> ONLINE  Error_Code -> "0"
Tue May 03 07:21:52 2016 PM   tracedemo  :  Eject Executed  SP       Response -> SUCCESS
Tue May 03 07:21:52 2016 PM   tracedemo  :  Paper Status ENTERING  SP       Response -> SUCCESS
Tuesday 03 May 2016 07:21:52 PM IST  tracedemo  :  Paper Status  ENTERING  C++       Response -> SUCCESS
Tuesday 03 May 2016 07:21:52 PM IST  tracedemo  :  Paper Status EXECUTED  C++   Response -> "DOCEJECTED"  Status -> "1"
Tue May 03 07:21:52 2016 PM   tracedemo  :  Paper Status EXITING  SP       Response -> DOCEJECTED
Tue May 03 07:21:52 2016 PM   tracedemo  :  Paper Status ENTERING  SP       Response -> SUCCESS
Tuesday 03 May 2016 07:21:52 PM IST  tracedemo  :  Paper Status  ENTERING  C++       Response -> SUCCESS
Tuesday 03 May 2016 07:21:52 PM IST  tracedemo  :  Paper Status EXECUTED  C++   Response -> "DOCEJECTED"  Status -> "1"
Tue May 03 07:21:52 2016 PM   tracedemo  :  Paper Status EXITING  SP       Response -> DOCEJECTED
Tue May 03 07:21:53 2016 PM   tracedemo  :  Paper Status ENTERING  SP       Response -> SUCCESS
Tuesday 03 May 2016 07:21:53 PM IST  tracedemo  :  Paper Status  ENTERING  C++       Response -> SUCCESS
Tuesday 03 May 2016 07:21:53 PM IST  tracedemo  :  Paper Status EXECUTED  C++   Response -> "DOCEJECTED"  Status -> "1"
Tue May 03 07:21:53 2016 PM   tracedemo  :  Paper Status EXITING  SP       Response -> DOCEJECTED
Tue May 03 07:21:54 2016 PM   tracedemo  :  Paper Status ENTERING  SP       Response -> SUCCESS
Tuesday 03 May 2016 07:21:54 PM IST  tracedemo  :  Paper Status  ENTERING  C++       Response -> SUCCESS
Tuesday 03 May 2016 07:21:54 PM IST  tracedemo  :  Paper Status EXECUTED  C++   Response -> "DOCABSENT"  Status -> "0"
Tue May 03 07:21:54 2016 PM   tracedemo  :  Paper Status EXITING  SP       Response -> DOCABSENT
Tue May 03 07:21:55 2016 PM   tracedemo  :  Paper Status ENTERING  SP       Response -> SUCCESS
Tuesday 03 May 2016 07:21:55 PM IST  tracedemo  :  Paper Status  ENTERING  C++       Response -> SUCCESS
Tuesday 03 May 2016 07:21:55 PM IST  tracedemo  :  Paper Status EXECUTED  C++   Response -> "DOCABSENT"  Status -> "0"
Tue May 03 07:21:55 2016 PM   tracedemo  :  Paper Status EXITING  SP       Response -> DOCABSENT
Tue May 03 07:21:56 2016 PM   tracedemo  :  Paper Status ENTERING  SP       Response -> SUCCESS
Tuesday 03 May 2016 07:21:56 PM IST  tracedemo  :  Paper Status  ENTERING  C++       Response -> SUCCESS
Tuesday 03 May 2016 07:21:56 PM IST  tracedemo  :  Paper Status EXECUTED  C++   Response -> "DOCABSENT"  Status -> "0"
Tue May 03 07:21:56 2016 PM   tracedemo  :  Paper Status EXITING  SP       Response -> DOCABSENT
Tue May 03 07:21:57 2016 PM   tracedemo  :  Paper Status ENTERING  SP       Response -> SUCCESS
Tuesday 03 May 2016 07:21:57 PM IST  tracedemo  :  Paper Status  ENTERING  C++       Response -> SUCCESS
Tuesday 03 May 2016 07:21:57 PM IST  tracedemo  :  Paper Status EXECUTED  C++   Response -> "DOCABSENT"  Status -> "0"
Tue May 03 07:21:57 2016 PM   tracedemo  :  Paper Status EXITING  SP       Response -> DOCABSENT
Tue May 03 07:21:58 2016 PM   tracedemo  :  Paper Status ENTERING  SP       Response -> SUCCESS
Tuesday 03 May 2016 07:21:58 PM IST  tracedemo  :  Paper Status  ENTERING  C++       Response -> SUCCESS
Tuesday 03 May 2016 07:21:58 PM IST  tracedemo  :  Paper Status EXECUTED  C++   Response -> "DOCABSENT"  Status -> "0"
Tue May 03 07:21:58 2016 PM   tracedemo  :  Paper Status EXITING  SP       Response -> DOCABSENT
Tue May 03 07:21:59 2016 PM   tracedemo  :  Paper Status ENTERING  SP       Response -> SUCCESS
Tuesday 03 May 2016 07:21:59 PM IST  tracedemo  :  Paper Status  ENTERING  C++       Response -> SUCCESS
Tuesday 03 May 2016 07:21:59 PM IST  tracedemo  :  Paper Status EXECUTED  C++   Response -> "DOCABSENT"  Status -> "0"
Tue May 03 07:21:59 2016 PM   tracedemo  :  Paper Status EXITING  SP       Response -> DOCABSENT
Tue May 03 07:22:00 2016 PM   tracedemo  :  Paper Status ENTERING  SP       Response -> SUCCESS
Tuesday 03 May 2016 07:22:00 PM IST  tracedemo  :  Paper Status  ENTERING  C++       Response -> SUCCESS
Tuesday 03 May 2016 07:22:00 PM IST  tracedemo  :  Paper Status EXECUTED  C++   Response -> "DOCABSENT"  Status -> "0"
Tue May 03 07:22:00 2016 PM   tracedemo  :  Paper Status EXITING  SP       Response -> DOCABSENT
Tue May 03 07:22:01 2016 PM   tracedemo  :  Paper Status ENTERING  SP       Response -> SUCCESS
Tuesday 03 May 2016 07:22:01 PM IST  tracedemo  :  Paper Status  ENTERING  C++       Response -> SUCCESS
Tuesday 03 May 2016 07:22:01 PM IST  tracedemo  :  Paper Status EXECUTED  C++   Response -> "DOCABSENT"  Status -> "0"
Tue May 03 07:22:01 2016 PM   tracedemo  :  Paper Status EXITING  SP       Response -> DOCABSENT
Tue May 03 07:22:02 2016 PM   tracedemo  :  Paper Status ENTERING  SP       Response -> SUCCESS
Tuesday 03 May 2016 07:22:02 PM IST  tracedemo  :  Paper Status  ENTERING  C++       Response -> SUCCESS
Tuesday 03 May 2016 07:22:02 PM IST  tracedemo  :  Paper Status EXECUTED  C++   Response -> "DOCABSENT"  Status -> "0"
Tue May 03 07:22:02 2016 PM   tracedemo  :  Paper Status EXITING  SP       Response -> DOCABSENT
Tue May 03 07:22:03 2016 PM   tracedemo  :  Paper Status ENTERING  SP       Response -> SUCCESS
Tuesday 03 May 2016 07:22:03 PM IST  tracedemo  :  Paper Status  ENTERING  C++       Response -> SUCCESS
Tuesday 03 May 2016 07:22:03 PM IST  tracedemo  :  Paper Status EXECUTED  C++   Response -> "DOCABSENT"  Status -> "0"
Tue May 03 07:22:03 2016 PM   tracedemo  :  Paper Status EXITING  SP       Response -> DOCABSENT
Tue May 03 07:22:04 2016 PM   tracedemo  :  Paper Status ENTERING  SP       Response -> SUCCESS
Tuesday 03 May 2016 07:22:04 PM IST  tracedemo  :  Paper Status  ENTERING  C++       Response -> SUCCESS
Tuesday 03 May 2016 07:22:04 PM IST  tracedemo  :  Paper Status EXECUTED  C++   Response -> "DOCABSENT"  Status -> "0"
Tue May 03 07:22:04 2016 PM   tracedemo  :  Paper Status EXITING  SP       Response -> DOCABSENT
Tue May 03 07:22:05 2016 PM   tracedemo  :  Paper Status ENTERING  SP       Response -> SUCCESS
Tuesday 03 May 2016 07:22:05 PM IST  tracedemo  :  Paper Status  ENTERING  C++       Response -> SUCCESS
Tuesday 03 May 2016 07:22:05 PM IST  tracedemo  :  Paper Status EXECUTED  C++   Response -> "DOCABSENT"  Status -> "0"
Tue May 03 07:22:05 2016 PM   tracedemo  :  Paper Status EXITING  SP       Response -> DOCABSENT
Tue May 03 07:22:06 2016 PM   tracedemo  :  Paper Status ENTERING  SP       Response -> SUCCESS
Tuesday 03 May 2016 07:22:06 PM IST  tracedemo  :  Paper Status  ENTERING  C++       Response -> SUCCESS
Tuesday 03 May 2016 07:22:06 PM IST  tracedemo  :  Paper Status EXECUTED  C++   Response -> "DOCABSENT"  Status -> "0"
Tue May 03 07:22:06 2016 PM   tracedemo  :  Paper Status EXITING  SP       Response -> DOCABSENT
Tue May 03 07:22:07 2016 PM   tracedemo  :  Paper Status ENTERING  SP       Response -> SUCCESS
Tuesday 03 May 2016 07:22:07 PM IST  tracedemo  :  Paper Status  ENTERING  C++       Response -> SUCCESS
Tuesday 03 May 2016 07:22:07 PM IST  tracedemo  :  Paper Status EXECUTED  C++   Response -> "DOCABSENT"  Status -> "0"
Tue May 03 07:22:07 2016 PM   tracedemo  :  Paper Status EXITING  SP       Response -> DOCABSENT
Tue May 03 07:22:08 2016 PM   tracedemo  :  Paper Status ENTERING  SP       Response -> SUCCESS
Tuesday 03 May 2016 07:22:08 PM IST  tracedemo  :  Paper Status  ENTERING  C++       Response -> SUCCESS
Tuesday 03 May 2016 07:22:08 PM IST  tracedemo  :  Paper Status EXECUTED  C++   Response -> "DOCABSENT"  Status -> "0"
Tue May 03 07:22:08 2016 PM   tracedemo  :  Paper Status EXITING  SP       Response -> DOCABSENT
Tue May 03 07:22:09 2016 PM   tracedemo  :  Paper Status ENTERING  SP       Response -> SUCCESS
Tuesday 03 May 2016 07:22:09 PM IST  tracedemo  :  Paper Status  ENTERING  C++       Response -> SUCCESS
Tuesday 03 May 2016 07:22:09 PM IST  tracedemo  :  Paper Status EXECUTED  C++   Response -> "DOCABSENT"  Status -> "0"
Tue May 03 07:22:09 2016 PM   tracedemo  :  Paper Status EXITING  SP       Response -> DOCABSENT
Tue May 03 07:22:10 2016 PM   tracedemo  :  Paper Status ENTERING  SP       Response -> SUCCESS
Tuesday 03 May 2016 07:22:10 PM IST  tracedemo  :  Paper Status  ENTERING  C++       Response -> SUCCESS
Tuesday 03 May 2016 07:22:10 PM IST  tracedemo  :  Paper Status EXECUTED  C++   Response -> "DOCABSENT"  Status -> "0"
Tue May 03 07:22:10 2016 PM   tracedemo  :  Paper Status EXITING  SP       Response -> DOCABSENT
Tue May 03 07:22:11 2016 PM   tracedemo  :  Paper Status ENTERING  SP       Response -> SUCCESS
Tuesday 03 May 2016 07:22:11 PM IST  tracedemo  :  Paper Status  ENTERING  C++       Response -> SUCCESS
Tuesday 03 May 2016 07:22:11 PM IST  tracedemo  :  Paper Status EXECUTED  C++   Response -> "DOCABSENT"  Status -> "0"
Tue May 03 07:22:11 2016 PM   tracedemo  :  Paper Status EXITING  SP       Response -> DOCABSENT
Tue May 03 07:23:27 2016 PM   tracedemo  :  Eject ENTERING  SP       Response -> SUCCESS
Tuesday 03 May 2016 07:23:27 PM IST  tracedemo  :  Eject  ENTERING  C++       Response -> SUCCESS
Tuesday 03 May 2016 07:23:27 PM IST  tracedemo  :  Eject EXECUTED  C++       Response -> ONLINE  Error_Code -> "0"
Tue May 03 07:23:27 2016 PM   tracedemo  :  Eject Executed  SP       Response -> SUCCESS
