Mon Oct 17 12:17:17 2016 PM   tracedemo  :  Configuration ENTERING  SP       Response -> SUCCESS
Monday 17 October 2016 12:17:17 PM IST  tracedemo  :  Configuration ENTERING  C++       Response -> SUCCESS
Monday 17 October 2016 12:17:17 PM IST  tracedemo  :  Configuration CPI & LPI  C++       CPI ->"10"  LPI ->"40"   Response -> SUCCESS
Monday 17 October 2016 12:17:23 PM IST  tracedemo  :   Device Successfully Initialized  C++       Response -> SUCCESS
Mon Oct 17 12:18:08 2016 PM   tracedemo  :  Configuration ENTERING  SP       Response -> SUCCESS
Monday 17 October 2016 12:18:08 PM IST  tracedemo  :  Configuration ENTERING  C++       Response -> SUCCESS
Monday 17 October 2016 12:18:08 PM IST  tracedemo  :  Configuration CPI & LPI  C++       CPI ->"10"  LPI ->"40"   Response -> SUCCESS
Monday 17 October 2016 12:18:08 PM IST  tracedemo  :   Device Successfully Initialized  C++       Response -> SUCCESS
Mon Oct 17 12:18:09 2016 PM   tracedemo  :  Paper Status ENTERING  SP       Response -> SUCCESS
Monday 17 October 2016 12:18:09 PM IST  tracedemo  :  Paper Status  ENTERING  C++       Response -> SUCCESS
Monday 17 October 2016 12:18:09 PM IST  tracedemo  :  Paper Status EXECUTED  C++   Response -> "DOCPRESENT"  Status -> "2"
Mon Oct 17 12:18:09 2016 PM   tracedemo  :  Paper Status EXITING  SP       Response -> DOCPRESENT
Mon Oct 17 12:18:09 2016 PM   tracedemo  :  Scanning ENTERING  SP       Response -> SUCCESS
Monday 17 October 2016 12:18:09 PM IST  tracedemo  :  Scanning  ENTERING  C++       Response -> SUCCESS
Monday 17 October 2016 12:18:09 PM IST  tracedemo  :  Scanning Properties  C++       BitsPerPixel -> "8"  ScanMode ->"SCAN_FRONT_REAR" 
Monday 17 October 2016 12:18:17 PM IST  tracedemo  :  Scanning EXECUTED  C++       Response -> ONLINE
Mon Oct 17 12:18:17 2016 PM   tracedemo  :  SCanning   SP   Passbook Placed Vertically    Response -> UNSUCCESSFUL Scan
Mon Oct 17 12:18:17 2016 PM tracedemo  :  Scanning EXITING  SP       Response -> SUCCESS     Barcode Data -> IMPROPER_PASSBOOK_INSERTION
Mon Oct 17 12:23:50 2016 PM   tracedemo  :  Print ENTERING  SP       Response -> SUCCESS
Monday 17 October 2016 12:23:50 PM IST  tracedemo  :  Printing  ENTERING  C++       Response -> SUCCESS
Monday 17 October 2016 12:23:50 PM IST  tracedemo  :  Printing path  C++       Path ->  "/root/forbes/microbanker/bin/Print_Files/PrintFile.txt"
Monday 17 October 2016 12:23:59 PM IST  tracedemo  :  Printing EXECUTED  C++       Response -> ONLINE
Mon Oct 17 12:23:59 2016 PM   tracedemo  :  Print EXITING  SP       Response -> SUCCESS
Mon Oct 17 12:28:12 2016 PM   tracedemo  :  Eject ENTERING  SP       Response -> SUCCESS
Monday 17 October 2016 12:28:13 PM IST  tracedemo  :  Eject  ENTERING  C++       Response -> SUCCESS
Monday 17 October 2016 12:28:13 PM IST  tracedemo  :  Eject EXECUTED  C++       Response -> ONLINE  Error_Code -> "0"
Mon Oct 17 12:28:13 2016 PM   tracedemo  :  Eject Executed  SP       Response -> SUCCESS
Mon Oct 17 02:03:20 2016 PM   tracedemo  :  Configuration ENTERING  SP       Response -> SUCCESS
Monday 17 October 2016 02:03:20 PM IST  tracedemo  :  Configuration ENTERING  C++       Response -> SUCCESS
Monday 17 October 2016 02:03:20 PM IST  tracedemo  :  Configuration CPI & LPI  C++       CPI ->"10"  LPI ->"40"   Response -> SUCCESS
Monday 17 October 2016 02:03:26 PM IST  tracedemo  :   Device Successfully Initialized  C++       Response -> SUCCESS
Mon Oct 17 02:03:34 2016 PM   tracedemo  :  Configuration ENTERING  SP       Response -> SUCCESS
Monday 17 October 2016 02:03:34 PM IST  tracedemo  :  Configuration ENTERING  C++       Response -> SUCCESS
Monday 17 October 2016 02:03:34 PM IST  tracedemo  :  Configuration CPI & LPI  C++       CPI ->"10"  LPI ->"40"   Response -> SUCCESS
Monday 17 October 2016 02:03:34 PM IST  tracedemo  :   Device Successfully Initialized  C++       Response -> SUCCESS
Mon Oct 17 02:03:35 2016 PM   tracedemo  :  Paper Status ENTERING  SP       Response -> SUCCESS
Monday 17 October 2016 02:03:35 PM IST  tracedemo  :  Paper Status  ENTERING  C++       Response -> SUCCESS
Monday 17 October 2016 02:03:35 PM IST  tracedemo  :  Paper Status EXECUTED  C++   Response -> "DOCPRESENT"  Status -> "2"
Mon Oct 17 02:03:35 2016 PM   tracedemo  :  Paper Status EXITING  SP       Response -> DOCPRESENT
Mon Oct 17 02:03:35 2016 PM   tracedemo  :  Scanning ENTERING  SP       Response -> SUCCESS
Monday 17 October 2016 02:03:35 PM IST  tracedemo  :  Scanning  ENTERING  C++       Response -> SUCCESS
Monday 17 October 2016 02:03:35 PM IST  tracedemo  :  Scanning Properties  C++       BitsPerPixel -> "8"  ScanMode ->"SCAN_FRONT_REAR" 
Monday 17 October 2016 02:03:42 PM IST  tracedemo  :  Scanning EXECUTED  C++       Response -> ONLINE
Mon Oct 17 02:03:42 2016 PM   tracedemo  :  SCanning   SP   Passbook Placed Vertically    Response -> UNSUCCESSFUL Scan
Mon Oct 17 02:03:42 2016 PM tracedemo  :  Scanning EXITING  SP       Response -> SUCCESS     Barcode Data -> IMPROPER_PASSBOOK_INSERTION
Mon Oct 17 02:05:57 2016 PM   tracedemo  :  Print ENTERING  SP       Response -> SUCCESS
Monday 17 October 2016 02:05:57 PM IST  tracedemo  :  Printing  ENTERING  C++       Response -> SUCCESS
Monday 17 October 2016 02:05:57 PM IST  tracedemo  :  Printing path  C++       Path ->  "/root/forbes/microbanker/bin/Print_Files/PrintFile.txt"
Monday 17 October 2016 02:06:05 PM IST  tracedemo  :  Printing EXECUTED  C++       Response -> ONLINE
Mon Oct 17 02:06:05 2016 PM   tracedemo  :  Print EXITING  SP       Response -> SUCCESS
Mon Oct 17 02:08:03 2016 PM   tracedemo  :  Eject ENTERING  SP       Response -> SUCCESS
Monday 17 October 2016 02:08:05 PM IST  tracedemo  :  Eject  ENTERING  C++       Response -> SUCCESS
Monday 17 October 2016 02:08:05 PM IST  tracedemo  :  Eject EXECUTED  C++       Response -> ONLINE  Error_Code -> "0"
Mon Oct 17 02:08:05 2016 PM   tracedemo  :  Eject Executed  SP       Response -> SUCCESS
Mon Oct 17 03:12:32 2016 PM   tracedemo  :  Configuration ENTERING  SP       Response -> SUCCESS
Monday 17 October 2016 03:12:32 PM IST  tracedemo  :  Configuration ENTERING  C++       Response -> SUCCESS
Monday 17 October 2016 03:12:32 PM IST  tracedemo  :  Configuration CPI & LPI  C++       CPI ->"10"  LPI ->"40"   Response -> SUCCESS
Monday 17 October 2016 03:12:38 PM IST  tracedemo  :   Device Successfully Initialized  C++       Response -> SUCCESS
Mon Oct 17 03:13:59 2016 PM   tracedemo  :  Configuration ENTERING  SP       Response -> SUCCESS
Monday 17 October 2016 03:13:59 PM IST  tracedemo  :  Configuration ENTERING  C++       Response -> SUCCESS
Monday 17 October 2016 03:13:59 PM IST  tracedemo  :  Configuration CPI & LPI  C++       CPI ->"10"  LPI ->"40"   Response -> SUCCESS
Monday 17 October 2016 03:13:59 PM IST  tracedemo  :   Device Successfully Initialized  C++       Response -> SUCCESS
Mon Oct 17 03:14:00 2016 PM   tracedemo  :  Paper Status ENTERING  SP       Response -> SUCCESS
Monday 17 October 2016 03:14:00 PM IST  tracedemo  :  Paper Status  ENTERING  C++       Response -> SUCCESS
Monday 17 October 2016 03:14:00 PM IST  tracedemo  :  Paper Status EXECUTED  C++   Response -> "DOCABSENT"  Status -> "0"
Mon Oct 17 03:14:00 2016 PM   tracedemo  :  Paper Status EXITING  SP       Response -> DOCABSENT
Mon Oct 17 03:14:01 2016 PM   tracedemo  :  Paper Status ENTERING  SP       Response -> SUCCESS
Monday 17 October 2016 03:14:01 PM IST  tracedemo  :  Paper Status  ENTERING  C++       Response -> SUCCESS
Monday 17 October 2016 03:14:01 PM IST  tracedemo  :  Paper Status EXECUTED  C++   Response -> "DOCABSENT"  Status -> "0"
Mon Oct 17 03:14:01 2016 PM   tracedemo  :  Paper Status EXITING  SP       Response -> DOCABSENT
Mon Oct 17 03:14:02 2016 PM   tracedemo  :  Paper Status ENTERING  SP       Response -> SUCCESS
Monday 17 October 2016 03:14:02 PM IST  tracedemo  :  Paper Status  ENTERING  C++       Response -> SUCCESS
Monday 17 October 2016 03:14:02 PM IST  tracedemo  :  Paper Status EXECUTED  C++   Response -> "DOCABSENT"  Status -> "0"
Mon Oct 17 03:14:02 2016 PM   tracedemo  :  Paper Status EXITING  SP       Response -> DOCABSENT
Mon Oct 17 03:14:03 2016 PM   tracedemo  :  Paper Status ENTERING  SP       Response -> SUCCESS
Monday 17 October 2016 03:14:03 PM IST  tracedemo  :  Paper Status  ENTERING  C++       Response -> SUCCESS
Monday 17 October 2016 03:14:03 PM IST  tracedemo  :  Paper Status EXECUTED  C++   Response -> "DOCABSENT"  Status -> "0"
Mon Oct 17 03:14:03 2016 PM   tracedemo  :  Paper Status EXITING  SP       Response -> DOCABSENT
Mon Oct 17 03:14:04 2016 PM   tracedemo  :  Paper Status ENTERING  SP       Response -> SUCCESS
Monday 17 October 2016 03:14:04 PM IST  tracedemo  :  Paper Status  ENTERING  C++       Response -> SUCCESS
Monday 17 October 2016 03:14:04 PM IST  tracedemo  :  Paper Status EXECUTED  C++   Response -> "DOCABSENT"  Status -> "0"
Mon Oct 17 03:14:04 2016 PM   tracedemo  :  Paper Status EXITING  SP       Response -> DOCABSENT
Mon Oct 17 03:14:05 2016 PM   tracedemo  :  Paper Status ENTERING  SP       Response -> SUCCESS
Monday 17 October 2016 03:14:05 PM IST  tracedemo  :  Paper Status  ENTERING  C++       Response -> SUCCESS
Monday 17 October 2016 03:14:05 PM IST  tracedemo  :  Paper Status EXECUTED  C++   Response -> "DOCABSENT"  Status -> "0"
Mon Oct 17 03:14:05 2016 PM   tracedemo  :  Paper Status EXITING  SP       Response -> DOCABSENT
Mon Oct 17 03:14:06 2016 PM   tracedemo  :  Paper Status ENTERING  SP       Response -> SUCCESS
Monday 17 October 2016 03:14:06 PM IST  tracedemo  :  Paper Status  ENTERING  C++       Response -> SUCCESS
Monday 17 October 2016 03:14:06 PM IST  tracedemo  :  Paper Status EXECUTED  C++   Response -> "DOCABSENT"  Status -> "0"
Mon Oct 17 03:14:06 2016 PM   tracedemo  :  Paper Status EXITING  SP       Response -> DOCABSENT
Mon Oct 17 03:14:07 2016 PM   tracedemo  :  Paper Status ENTERING  SP       Response -> SUCCESS
Monday 17 October 2016 03:14:07 PM IST  tracedemo  :  Paper Status  ENTERING  C++       Response -> SUCCESS
Monday 17 October 2016 03:14:07 PM IST  tracedemo  :  Paper Status EXECUTED  C++   Response -> "DOCABSENT"  Status -> "0"
Mon Oct 17 03:14:07 2016 PM   tracedemo  :  Paper Status EXITING  SP       Response -> DOCABSENT
Mon Oct 17 03:14:08 2016 PM   tracedemo  :  Paper Status ENTERING  SP       Response -> SUCCESS
Monday 17 October 2016 03:14:08 PM IST  tracedemo  :  Paper Status  ENTERING  C++       Response -> SUCCESS
Monday 17 October 2016 03:14:08 PM IST  tracedemo  :  Paper Status EXECUTED  C++   Response -> "DOCABSENT"  Status -> "0"
Mon Oct 17 03:14:08 2016 PM   tracedemo  :  Paper Status EXITING  SP       Response -> DOCABSENT
Mon Oct 17 03:14:09 2016 PM   tracedemo  :  Paper Status ENTERING  SP       Response -> SUCCESS
Monday 17 October 2016 03:14:09 PM IST  tracedemo  :  Paper Status  ENTERING  C++       Response -> SUCCESS
Monday 17 October 2016 03:14:09 PM IST  tracedemo  :  Paper Status EXECUTED  C++   Response -> "DOCABSENT"  Status -> "0"
Mon Oct 17 03:14:09 2016 PM   tracedemo  :  Paper Status EXITING  SP       Response -> DOCABSENT
Mon Oct 17 03:14:10 2016 PM   tracedemo  :  Paper Status ENTERING  SP       Response -> SUCCESS
Monday 17 October 2016 03:14:10 PM IST  tracedemo  :  Paper Status  ENTERING  C++       Response -> SUCCESS
Monday 17 October 2016 03:14:10 PM IST  tracedemo  :  Paper Status EXECUTED  C++   Response -> "DOCABSENT"  Status -> "0"
Mon Oct 17 03:14:10 2016 PM   tracedemo  :  Paper Status EXITING  SP       Response -> DOCABSENT
Mon Oct 17 03:14:11 2016 PM   tracedemo  :  Paper Status ENTERING  SP       Response -> SUCCESS
Monday 17 October 2016 03:14:11 PM IST  tracedemo  :  Paper Status  ENTERING  C++       Response -> SUCCESS
Monday 17 October 2016 03:14:11 PM IST  tracedemo  :  Paper Status EXECUTED  C++   Response -> "DOCABSENT"  Status -> "0"
Mon Oct 17 03:14:11 2016 PM   tracedemo  :  Paper Status EXITING  SP       Response -> DOCABSENT
Mon Oct 17 03:14:12 2016 PM   tracedemo  :  Paper Status ENTERING  SP       Response -> SUCCESS
Monday 17 October 2016 03:14:12 PM IST  tracedemo  :  Paper Status  ENTERING  C++       Response -> SUCCESS
Monday 17 October 2016 03:14:12 PM IST  tracedemo  :  Paper Status EXECUTED  C++   Response -> "DOCABSENT"  Status -> "0"
Mon Oct 17 03:14:12 2016 PM   tracedemo  :  Paper Status EXITING  SP       Response -> DOCABSENT
Mon Oct 17 03:14:13 2016 PM   tracedemo  :  Paper Status ENTERING  SP       Response -> SUCCESS
Monday 17 October 2016 03:14:13 PM IST  tracedemo  :  Paper Status  ENTERING  C++       Response -> SUCCESS
Monday 17 October 2016 03:14:13 PM IST  tracedemo  :  Paper Status EXECUTED  C++   Response -> "DOCABSENT"  Status -> "0"
Mon Oct 17 03:14:13 2016 PM   tracedemo  :  Paper Status EXITING  SP       Response -> DOCABSENT
Mon Oct 17 03:14:14 2016 PM   tracedemo  :  Paper Status ENTERING  SP       Response -> SUCCESS
Monday 17 October 2016 03:14:14 PM IST  tracedemo  :  Paper Status  ENTERING  C++       Response -> SUCCESS
Monday 17 October 2016 03:14:14 PM IST  tracedemo  :  Paper Status EXECUTED  C++   Response -> "DOCABSENT"  Status -> "0"
Mon Oct 17 03:14:14 2016 PM   tracedemo  :  Paper Status EXITING  SP       Response -> DOCABSENT
Mon Oct 17 03:14:15 2016 PM   tracedemo  :  Paper Status ENTERING  SP       Response -> SUCCESS
Monday 17 October 2016 03:14:15 PM IST  tracedemo  :  Paper Status  ENTERING  C++       Response -> SUCCESS
Monday 17 October 2016 03:14:15 PM IST  tracedemo  :  Paper Status EXECUTED  C++   Response -> "DOCEJECTED"  Status -> "1"
Mon Oct 17 03:14:15 2016 PM   tracedemo  :  Paper Status EXITING  SP       Response -> DOCEJECTED
Mon Oct 17 03:14:16 2016 PM   tracedemo  :  Paper Status ENTERING  SP       Response -> SUCCESS
Monday 17 October 2016 03:14:16 PM IST  tracedemo  :  Paper Status  ENTERING  C++       Response -> SUCCESS
Monday 17 October 2016 03:14:16 PM IST  tracedemo  :  Paper Status EXECUTED  C++   Response -> "DOCPRESENT"  Status -> "2"
Mon Oct 17 03:14:16 2016 PM   tracedemo  :  Paper Status EXITING  SP       Response -> DOCPRESENT
Mon Oct 17 03:14:16 2016 PM   tracedemo  :  Scanning ENTERING  SP       Response -> SUCCESS
Monday 17 October 2016 03:14:16 PM IST  tracedemo  :  Scanning  ENTERING  C++       Response -> SUCCESS
Monday 17 October 2016 03:14:16 PM IST  tracedemo  :  Scanning Properties  C++       BitsPerPixel -> "8"  ScanMode ->"SCAN_FRONT_REAR" 
Monday 17 October 2016 03:14:24 PM IST  tracedemo  :  Scanning EXECUTED  C++       Response -> ONLINE
Mon Oct 17 03:14:24 2016 PM   tracedemo  :  SCanning   SP   Passbook Placed Vertically    Response -> UNSUCCESSFUL Scan
Mon Oct 17 03:14:24 2016 PM tracedemo  :  Scanning EXITING  SP       Response -> SUCCESS     Barcode Data -> IMPROPER_PASSBOOK_INSERTION
Mon Oct 17 03:14:54 2016 PM   tracedemo  :  Print ENTERING  SP       Response -> SUCCESS
Monday 17 October 2016 03:14:54 PM IST  tracedemo  :  Printing  ENTERING  C++       Response -> SUCCESS
Monday 17 October 2016 03:14:54 PM IST  tracedemo  :  Printing path  C++       Path ->  "/root/forbes/microbanker/bin/Print_Files/PrintFile.txt"
Monday 17 October 2016 03:15:03 PM IST  tracedemo  :  Printing EXECUTED  C++       Response -> ONLINE
Mon Oct 17 03:15:03 2016 PM   tracedemo  :  Print EXITING  SP       Response -> SUCCESS
Mon Oct 17 03:15:03 2016 PM   tracedemo  :  Eject ENTERING  SP       Response -> SUCCESS
Monday 17 October 2016 03:15:04 PM IST  tracedemo  :  Eject  ENTERING  C++       Response -> SUCCESS
Monday 17 October 2016 03:15:04 PM IST  tracedemo  :  Eject EXECUTED  C++       Response -> ONLINE  Error_Code -> "0"
Mon Oct 17 03:15:04 2016 PM   tracedemo  :  Eject Executed  SP       Response -> SUCCESS
Mon Oct 17 03:34:01 2016 PM   tracedemo  :  Configuration ENTERING  SP       Response -> SUCCESS
Monday 17 October 2016 03:34:01 PM IST  tracedemo  :  Configuration ENTERING  C++       Response -> SUCCESS
Monday 17 October 2016 03:34:01 PM IST  tracedemo  :  Configuration CPI & LPI  C++       CPI ->"10"  LPI ->"40"   Response -> SUCCESS
Monday 17 October 2016 03:34:07 PM IST  tracedemo  :   Device Successfully Initialized  C++       Response -> SUCCESS
Mon Oct 17 03:51:16 2016 PM   tracedemo  :  Configuration ENTERING  SP       Response -> SUCCESS
Monday 17 October 2016 03:51:16 PM IST  tracedemo  :  Configuration ENTERING  C++       Response -> SUCCESS
Monday 17 October 2016 03:51:16 PM IST  tracedemo  :  Configuration CPI & LPI  C++       CPI ->"10"  LPI ->"40"   Response -> SUCCESS
Monday 17 October 2016 03:51:17 PM IST  tracedemo  :   Device Successfully Initialized  C++       Response -> SUCCESS
Mon Oct 17 03:51:18 2016 PM   tracedemo  :  Paper Status ENTERING  SP       Response -> SUCCESS
Monday 17 October 2016 03:51:18 PM IST  tracedemo  :  Paper Status  ENTERING  C++       Response -> SUCCESS
Monday 17 October 2016 03:51:18 PM IST  tracedemo  :  Paper Status EXECUTED  C++   Response -> "DOCPRESENT"  Status -> "2"
Mon Oct 17 03:51:18 2016 PM   tracedemo  :  Paper Status EXITING  SP       Response -> DOCPRESENT
Mon Oct 17 03:51:18 2016 PM   tracedemo  :  Scanning ENTERING  SP       Response -> SUCCESS
Monday 17 October 2016 03:51:18 PM IST  tracedemo  :  Scanning  ENTERING  C++       Response -> SUCCESS
Monday 17 October 2016 03:51:18 PM IST  tracedemo  :  Scanning Properties  C++       BitsPerPixel -> "8"  ScanMode ->"SCAN_FRONT_REAR" 
Monday 17 October 2016 03:51:25 PM IST  tracedemo  :  Scanning EXECUTED  C++       Response -> ONLINE
Mon Oct 17 03:51:25 2016 PM   tracedemo  :  SCanning   SP   Passbook Placed Vertically    Response -> UNSUCCESSFUL Scan
Mon Oct 17 03:51:25 2016 PM tracedemo  :  Scanning EXITING  SP       Response -> SUCCESS     Barcode Data -> IMPROPER_PASSBOOK_INSERTION
Mon Oct 17 03:53:20 2016 PM   tracedemo  :  Print ENTERING  SP       Response -> SUCCESS
Monday 17 October 2016 03:53:20 PM IST  tracedemo  :  Printing  ENTERING  C++       Response -> SUCCESS
Monday 17 October 2016 03:53:20 PM IST  tracedemo  :  Printing path  C++       Path ->  "/root/forbes/microbanker/bin/Print_Files/PrintFile.txt"
Monday 17 October 2016 03:53:28 PM IST  tracedemo  :  Printing EXECUTED  C++       Response -> ONLINE
Mon Oct 17 03:53:29 2016 PM   tracedemo  :  Print EXITING  SP       Response -> SUCCESS
Mon Oct 17 04:03:06 2016 PM   tracedemo  :  Eject ENTERING  SP       Response -> SUCCESS
Monday 17 October 2016 04:03:07 PM IST  tracedemo  :  Eject  ENTERING  C++       Response -> SUCCESS
Monday 17 October 2016 04:03:07 PM IST  tracedemo  :  Eject EXECUTED  C++       Response -> ONLINE  Error_Code -> "0"
Mon Oct 17 04:03:07 2016 PM   tracedemo  :  Eject Executed  SP       Response -> SUCCESS
Mon Oct 17 04:04:16 2016 PM   tracedemo  :  Configuration ENTERING  SP       Response -> SUCCESS
Monday 17 October 2016 04:04:16 PM IST  tracedemo  :  Configuration ENTERING  C++       Response -> SUCCESS
Monday 17 October 2016 04:04:16 PM IST  tracedemo  :  Configuration CPI & LPI  C++       CPI ->"10"  LPI ->"40"   Response -> SUCCESS
Monday 17 October 2016 04:04:21 PM IST  tracedemo  :   Device Successfully Initialized  C++       Response -> SUCCESS
Mon Oct 17 04:05:24 2016 PM   tracedemo  :  Configuration ENTERING  SP       Response -> SUCCESS
Monday 17 October 2016 04:05:24 PM IST  tracedemo  :  Configuration ENTERING  C++       Response -> SUCCESS
Monday 17 October 2016 04:05:24 PM IST  tracedemo  :  Configuration CPI & LPI  C++       CPI ->"10"  LPI ->"40"   Response -> SUCCESS
Monday 17 October 2016 04:05:29 PM IST  tracedemo  :   Device Successfully Initialized  C++       Response -> SUCCESS
Mon Oct 17 04:05:35 2016 PM   tracedemo  :  Configuration ENTERING  SP       Response -> SUCCESS
Monday 17 October 2016 04:05:35 PM IST  tracedemo  :  Configuration ENTERING  C++       Response -> SUCCESS
Monday 17 October 2016 04:05:35 PM IST  tracedemo  :  Configuration CPI & LPI  C++       CPI ->"10"  LPI ->"40"   Response -> SUCCESS
Monday 17 October 2016 04:05:35 PM IST  tracedemo  :   Device Successfully Initialized  C++       Response -> SUCCESS
Mon Oct 17 04:05:36 2016 PM   tracedemo  :  Paper Status ENTERING  SP       Response -> SUCCESS
Monday 17 October 2016 04:05:36 PM IST  tracedemo  :  Paper Status  ENTERING  C++       Response -> SUCCESS
Monday 17 October 2016 04:05:36 PM IST  tracedemo  :  Paper Status EXECUTED  C++   Response -> "DOCPRESENT"  Status -> "2"
Mon Oct 17 04:05:36 2016 PM   tracedemo  :  Paper Status EXITING  SP       Response -> DOCPRESENT
Mon Oct 17 04:05:36 2016 PM   tracedemo  :  Scanning ENTERING  SP       Response -> SUCCESS
Monday 17 October 2016 04:05:36 PM IST  tracedemo  :  Scanning  ENTERING  C++       Response -> SUCCESS
Monday 17 October 2016 04:05:36 PM IST  tracedemo  :  Scanning Properties  C++       BitsPerPixel -> "8"  ScanMode ->"SCAN_FRONT_REAR" 
Monday 17 October 2016 04:05:43 PM IST  tracedemo  :  Scanning EXECUTED  C++       Response -> ONLINE
Mon Oct 17 04:05:44 2016 PM   tracedemo  :  SCanning   SP   Passbook Placed Vertically    Response -> UNSUCCESSFUL Scan
Mon Oct 17 04:05:44 2016 PM tracedemo  :  Scanning EXITING  SP       Response -> SUCCESS     Barcode Data -> IMPROPER_PASSBOOK_INSERTION
Mon Oct 17 04:07:40 2016 PM   tracedemo  :  Print ENTERING  SP       Response -> SUCCESS
Monday 17 October 2016 04:07:40 PM IST  tracedemo  :  Printing  ENTERING  C++       Response -> SUCCESS
Monday 17 October 2016 04:07:40 PM IST  tracedemo  :  Printing path  C++       Path ->  "/root/forbes/microbanker/bin/Print_Files/PrintFile.txt"
Monday 17 October 2016 04:07:48 PM IST  tracedemo  :  Printing EXECUTED  C++       Response -> ONLINE
Mon Oct 17 04:07:48 2016 PM   tracedemo  :  Print EXITING  SP       Response -> SUCCESS
Mon Oct 17 04:12:25 2016 PM   tracedemo  :  Configuration ENTERING  SP       Response -> SUCCESS
Monday 17 October 2016 04:12:25 PM IST  tracedemo  :  Configuration ENTERING  C++       Response -> SUCCESS
Monday 17 October 2016 04:12:25 PM IST  tracedemo  :  Configuration CPI & LPI  C++       CPI ->"10"  LPI ->"40"   Response -> SUCCESS
Monday 17 October 2016 04:12:32 PM IST  tracedemo  :   Device Successfully Initialized  C++       Response -> SUCCESS
Mon Oct 17 04:12:37 2016 PM   tracedemo  :  Configuration ENTERING  SP       Response -> SUCCESS
Monday 17 October 2016 04:12:37 PM IST  tracedemo  :  Configuration ENTERING  C++       Response -> SUCCESS
Monday 17 October 2016 04:12:37 PM IST  tracedemo  :  Configuration CPI & LPI  C++       CPI ->"10"  LPI ->"40"   Response -> SUCCESS
Monday 17 October 2016 04:12:37 PM IST  tracedemo  :   Device Successfully Initialized  C++       Response -> SUCCESS
Mon Oct 17 04:12:38 2016 PM   tracedemo  :  Paper Status ENTERING  SP       Response -> SUCCESS
Monday 17 October 2016 04:12:38 PM IST  tracedemo  :  Paper Status  ENTERING  C++       Response -> SUCCESS
Monday 17 October 2016 04:12:38 PM IST  tracedemo  :  Paper Status EXECUTED  C++   Response -> "DOCPRESENT"  Status -> "2"
Mon Oct 17 04:12:38 2016 PM   tracedemo  :  Paper Status EXITING  SP       Response -> DOCPRESENT
Mon Oct 17 04:12:38 2016 PM   tracedemo  :  Scanning ENTERING  SP       Response -> SUCCESS
Monday 17 October 2016 04:12:38 PM IST  tracedemo  :  Scanning  ENTERING  C++       Response -> SUCCESS
Monday 17 October 2016 04:12:38 PM IST  tracedemo  :  Scanning Properties  C++       BitsPerPixel -> "8"  ScanMode ->"SCAN_FRONT_REAR" 
Monday 17 October 2016 04:12:46 PM IST  tracedemo  :  Scanning EXECUTED  C++       Response -> ONLINE
Mon Oct 17 04:12:46 2016 PM   tracedemo  :  SCanning   SP   Passbook Placed Vertically    Response -> UNSUCCESSFUL Scan
Mon Oct 17 04:12:46 2016 PM tracedemo  :  Scanning EXITING  SP       Response -> SUCCESS     Barcode Data -> IMPROPER_PASSBOOK_INSERTION
Mon Oct 17 04:13:25 2016 PM   tracedemo  :  Print ENTERING  SP       Response -> SUCCESS
Monday 17 October 2016 04:13:25 PM IST  tracedemo  :  Printing  ENTERING  C++       Response -> SUCCESS
Monday 17 October 2016 04:13:25 PM IST  tracedemo  :  Printing path  C++       Path ->  "/root/forbes/microbanker/bin/Print_Files/PrintFile.txt"
Monday 17 October 2016 04:13:33 PM IST  tracedemo  :  Printing EXECUTED  C++       Response -> ONLINE
Mon Oct 17 04:13:34 2016 PM   tracedemo  :  Print EXITING  SP       Response -> SUCCESS
Mon Oct 17 04:13:53 2016 PM   tracedemo  :  Eject ENTERING  SP       Response -> SUCCESS
Monday 17 October 2016 04:13:54 PM IST  tracedemo  :  Eject  ENTERING  C++       Response -> SUCCESS
Monday 17 October 2016 04:13:54 PM IST  tracedemo  :  Eject EXECUTED  C++       Response -> ONLINE  Error_Code -> "0"
Mon Oct 17 04:13:54 2016 PM   tracedemo  :  Eject Executed  SP       Response -> SUCCESS
Mon Oct 17 04:59:58 2016 PM   tracedemo  :  Configuration ENTERING  SP       Response -> SUCCESS
Monday 17 October 2016 04:59:58 PM IST  tracedemo  :  Configuration ENTERING  C++       Response -> SUCCESS
Monday 17 October 2016 04:59:58 PM IST  tracedemo  :  Configuration CPI & LPI  C++       CPI ->"10"  LPI ->"40"   Response -> SUCCESS
Monday 17 October 2016 05:00:04 PM IST  tracedemo  :   Device Successfully Initialized  C++       Response -> SUCCESS
Mon Oct 17 05:00:07 2016 PM   tracedemo  :  Configuration ENTERING  SP       Response -> SUCCESS
Monday 17 October 2016 05:00:07 PM IST  tracedemo  :  Configuration ENTERING  C++       Response -> SUCCESS
Monday 17 October 2016 05:00:07 PM IST  tracedemo  :  Configuration CPI & LPI  C++       CPI ->"10"  LPI ->"40"   Response -> SUCCESS
Monday 17 October 2016 05:00:07 PM IST  tracedemo  :   Device Successfully Initialized  C++       Response -> SUCCESS
Mon Oct 17 05:00:08 2016 PM   tracedemo  :  Paper Status ENTERING  SP       Response -> SUCCESS
Monday 17 October 2016 05:00:08 PM IST  tracedemo  :  Paper Status  ENTERING  C++       Response -> SUCCESS
Monday 17 October 2016 05:00:08 PM IST  tracedemo  :  Paper Status EXECUTED  C++   Response -> "DOCABSENT"  Status -> "0"
Mon Oct 17 05:00:08 2016 PM   tracedemo  :  Paper Status EXITING  SP       Response -> DOCABSENT
Mon Oct 17 05:00:09 2016 PM   tracedemo  :  Paper Status ENTERING  SP       Response -> SUCCESS
Monday 17 October 2016 05:00:09 PM IST  tracedemo  :  Paper Status  ENTERING  C++       Response -> SUCCESS
Monday 17 October 2016 05:00:09 PM IST  tracedemo  :  Paper Status EXECUTED  C++   Response -> "DOCABSENT"  Status -> "0"
Mon Oct 17 05:00:09 2016 PM   tracedemo  :  Paper Status EXITING  SP       Response -> DOCABSENT
Mon Oct 17 05:00:10 2016 PM   tracedemo  :  Paper Status ENTERING  SP       Response -> SUCCESS
Monday 17 October 2016 05:00:10 PM IST  tracedemo  :  Paper Status  ENTERING  C++       Response -> SUCCESS
Monday 17 October 2016 05:00:10 PM IST  tracedemo  :  Paper Status EXECUTED  C++   Response -> "DOCABSENT"  Status -> "0"
Mon Oct 17 05:00:10 2016 PM   tracedemo  :  Paper Status EXITING  SP       Response -> DOCABSENT
Mon Oct 17 05:00:11 2016 PM   tracedemo  :  Paper Status ENTERING  SP       Response -> SUCCESS
Monday 17 October 2016 05:00:11 PM IST  tracedemo  :  Paper Status  ENTERING  C++       Response -> SUCCESS
Monday 17 October 2016 05:00:11 PM IST  tracedemo  :  Paper Status EXECUTED  C++   Response -> "DOCABSENT"  Status -> "0"
Mon Oct 17 05:00:11 2016 PM   tracedemo  :  Paper Status EXITING  SP       Response -> DOCABSENT
Mon Oct 17 05:00:12 2016 PM   tracedemo  :  Paper Status ENTERING  SP       Response -> SUCCESS
Monday 17 October 2016 05:00:12 PM IST  tracedemo  :  Paper Status  ENTERING  C++       Response -> SUCCESS
Monday 17 October 2016 05:00:12 PM IST  tracedemo  :  Paper Status EXECUTED  C++   Response -> "DOCABSENT"  Status -> "0"
Mon Oct 17 05:00:12 2016 PM   tracedemo  :  Paper Status EXITING  SP       Response -> DOCABSENT
Mon Oct 17 05:00:13 2016 PM   tracedemo  :  Paper Status ENTERING  SP       Response -> SUCCESS
Monday 17 October 2016 05:00:13 PM IST  tracedemo  :  Paper Status  ENTERING  C++       Response -> SUCCESS
Monday 17 October 2016 05:00:13 PM IST  tracedemo  :  Paper Status EXECUTED  C++   Response -> "DOCABSENT"  Status -> "0"
Mon Oct 17 05:00:13 2016 PM   tracedemo  :  Paper Status EXITING  SP       Response -> DOCABSENT
Mon Oct 17 05:00:14 2016 PM   tracedemo  :  Paper Status ENTERING  SP       Response -> SUCCESS
Monday 17 October 2016 05:00:14 PM IST  tracedemo  :  Paper Status  ENTERING  C++       Response -> SUCCESS
Monday 17 October 2016 05:00:14 PM IST  tracedemo  :  Paper Status EXECUTED  C++   Response -> "DOCABSENT"  Status -> "0"
Mon Oct 17 05:00:14 2016 PM   tracedemo  :  Paper Status EXITING  SP       Response -> DOCABSENT
Mon Oct 17 05:00:15 2016 PM   tracedemo  :  Paper Status ENTERING  SP       Response -> SUCCESS
Monday 17 October 2016 05:00:15 PM IST  tracedemo  :  Paper Status  ENTERING  C++       Response -> SUCCESS
Monday 17 October 2016 05:00:15 PM IST  tracedemo  :  Paper Status EXECUTED  C++   Response -> "DOCABSENT"  Status -> "0"
Mon Oct 17 05:00:15 2016 PM   tracedemo  :  Paper Status EXITING  SP       Response -> DOCABSENT
Mon Oct 17 05:00:16 2016 PM   tracedemo  :  Paper Status ENTERING  SP       Response -> SUCCESS
Monday 17 October 2016 05:00:16 PM IST  tracedemo  :  Paper Status  ENTERING  C++       Response -> SUCCESS
Monday 17 October 2016 05:00:16 PM IST  tracedemo  :  Paper Status EXECUTED  C++   Response -> "DOCABSENT"  Status -> "0"
Mon Oct 17 05:00:16 2016 PM   tracedemo  :  Paper Status EXITING  SP       Response -> DOCABSENT
Mon Oct 17 05:00:17 2016 PM   tracedemo  :  Paper Status ENTERING  SP       Response -> SUCCESS
Monday 17 October 2016 05:00:17 PM IST  tracedemo  :  Paper Status  ENTERING  C++       Response -> SUCCESS
Monday 17 October 2016 05:00:17 PM IST  tracedemo  :  Paper Status EXECUTED  C++   Response -> "DOCABSENT"  Status -> "0"
Mon Oct 17 05:00:17 2016 PM   tracedemo  :  Paper Status EXITING  SP       Response -> DOCABSENT
Mon Oct 17 05:00:18 2016 PM   tracedemo  :  Paper Status ENTERING  SP       Response -> SUCCESS
Monday 17 October 2016 05:00:18 PM IST  tracedemo  :  Paper Status  ENTERING  C++       Response -> SUCCESS
Monday 17 October 2016 05:00:18 PM IST  tracedemo  :  Paper Status EXECUTED  C++   Response -> "DOCABSENT"  Status -> "0"
Mon Oct 17 05:00:18 2016 PM   tracedemo  :  Paper Status EXITING  SP       Response -> DOCABSENT
Mon Oct 17 05:00:19 2016 PM   tracedemo  :  Paper Status ENTERING  SP       Response -> SUCCESS
Monday 17 October 2016 05:00:19 PM IST  tracedemo  :  Paper Status  ENTERING  C++       Response -> SUCCESS
Monday 17 October 2016 05:00:19 PM IST  tracedemo  :  Paper Status EXECUTED  C++   Response -> "DOCEJECTED"  Status -> "1"
Mon Oct 17 05:00:19 2016 PM   tracedemo  :  Paper Status EXITING  SP       Response -> DOCEJECTED
Mon Oct 17 05:00:20 2016 PM   tracedemo  :  Paper Status ENTERING  SP       Response -> SUCCESS
Monday 17 October 2016 05:00:20 PM IST  tracedemo  :  Paper Status  ENTERING  C++       Response -> SUCCESS
Monday 17 October 2016 05:00:20 PM IST  tracedemo  :  Paper Status EXECUTED  C++   Response -> "DOCPRESENT"  Status -> "2"
Mon Oct 17 05:00:20 2016 PM   tracedemo  :  Paper Status EXITING  SP       Response -> DOCPRESENT
Mon Oct 17 05:00:20 2016 PM   tracedemo  :  Scanning ENTERING  SP       Response -> SUCCESS
Monday 17 October 2016 05:00:20 PM IST  tracedemo  :  Scanning  ENTERING  C++       Response -> SUCCESS
Monday 17 October 2016 05:00:20 PM IST  tracedemo  :  Scanning Properties  C++       BitsPerPixel -> "8"  ScanMode ->"SCAN_FRONT_REAR" 
Monday 17 October 2016 05:00:28 PM IST  tracedemo  :  Scanning EXECUTED  C++       Response -> ONLINE
Mon Oct 17 05:00:28 2016 PM   tracedemo  :  SCanning   SP   Passbook Placed Vertically    Response -> UNSUCCESSFUL Scan
Mon Oct 17 05:00:28 2016 PM tracedemo  :  Scanning EXITING  SP       Response -> SUCCESS     Barcode Data -> IMPROPER_PASSBOOK_INSERTION
Mon Oct 17 05:00:38 2016 PM   tracedemo  :  Print ENTERING  SP       Response -> SUCCESS
Monday 17 October 2016 05:00:38 PM IST  tracedemo  :  Printing  ENTERING  C++       Response -> SUCCESS
Monday 17 October 2016 05:00:38 PM IST  tracedemo  :  Printing path  C++       Path ->  "/root/forbes/microbanker/bin/Print_Files/PrintFile.txt"
Monday 17 October 2016 05:00:47 PM IST  tracedemo  :  Printing EXECUTED  C++       Response -> ONLINE
Mon Oct 17 05:00:47 2016 PM   tracedemo  :  Print EXITING  SP       Response -> SUCCESS
Mon Oct 17 05:00:48 2016 PM   tracedemo  :  Eject ENTERING  SP       Response -> SUCCESS
Monday 17 October 2016 05:00:49 PM IST  tracedemo  :  Eject  ENTERING  C++       Response -> SUCCESS
Monday 17 October 2016 05:00:49 PM IST  tracedemo  :  Eject EXECUTED  C++       Response -> ONLINE  Error_Code -> "0"
Mon Oct 17 05:00:49 2016 PM   tracedemo  :  Eject Executed  SP       Response -> SUCCESS
Mon Oct 17 05:05:51 2016 PM   tracedemo  :  Configuration ENTERING  SP       Response -> SUCCESS
Monday 17 October 2016 05:05:51 PM IST  tracedemo  :  Configuration ENTERING  C++       Response -> SUCCESS
Monday 17 October 2016 05:05:51 PM IST  tracedemo  :  Configuration CPI & LPI  C++       CPI ->"10"  LPI ->"40"   Response -> SUCCESS
Monday 17 October 2016 05:05:57 PM IST  tracedemo  :   Device Successfully Initialized  C++       Response -> SUCCESS
Mon Oct 17 05:07:40 2016 PM   tracedemo  :  Configuration ENTERING  SP       Response -> SUCCESS
Monday 17 October 2016 05:07:40 PM IST  tracedemo  :  Configuration ENTERING  C++       Response -> SUCCESS
Monday 17 October 2016 05:07:40 PM IST  tracedemo  :  Configuration CPI & LPI  C++       CPI ->"10"  LPI ->"40"   Response -> SUCCESS
Monday 17 October 2016 05:07:40 PM IST  tracedemo  :   Device Successfully Initialized  C++       Response -> SUCCESS
Mon Oct 17 05:07:41 2016 PM   tracedemo  :  Paper Status ENTERING  SP       Response -> SUCCESS
Monday 17 October 2016 05:07:41 PM IST  tracedemo  :  Paper Status  ENTERING  C++       Response -> SUCCESS
Monday 17 October 2016 05:07:41 PM IST  tracedemo  :  Paper Status EXECUTED  C++   Response -> "DOCABSENT"  Status -> "0"
Mon Oct 17 05:07:41 2016 PM   tracedemo  :  Paper Status EXITING  SP       Response -> DOCABSENT
Mon Oct 17 05:07:42 2016 PM   tracedemo  :  Paper Status ENTERING  SP       Response -> SUCCESS
Monday 17 October 2016 05:07:42 PM IST  tracedemo  :  Paper Status  ENTERING  C++       Response -> SUCCESS
Monday 17 October 2016 05:07:42 PM IST  tracedemo  :  Paper Status EXECUTED  C++   Response -> "DOCABSENT"  Status -> "0"
Mon Oct 17 05:07:42 2016 PM   tracedemo  :  Paper Status EXITING  SP       Response -> DOCABSENT
Mon Oct 17 05:07:43 2016 PM   tracedemo  :  Paper Status ENTERING  SP       Response -> SUCCESS
Monday 17 October 2016 05:07:43 PM IST  tracedemo  :  Paper Status  ENTERING  C++       Response -> SUCCESS
Monday 17 October 2016 05:07:43 PM IST  tracedemo  :  Paper Status EXECUTED  C++   Response -> "DOCEJECTED"  Status -> "1"
Mon Oct 17 05:07:43 2016 PM   tracedemo  :  Paper Status EXITING  SP       Response -> DOCEJECTED
Mon Oct 17 05:07:44 2016 PM   tracedemo  :  Paper Status ENTERING  SP       Response -> SUCCESS
Monday 17 October 2016 05:07:44 PM IST  tracedemo  :  Paper Status  ENTERING  C++       Response -> SUCCESS
Monday 17 October 2016 05:07:44 PM IST  tracedemo  :  Paper Status EXECUTED  C++   Response -> "DOCPRESENT"  Status -> "2"
Mon Oct 17 05:07:44 2016 PM   tracedemo  :  Paper Status EXITING  SP       Response -> DOCPRESENT
Mon Oct 17 05:07:44 2016 PM   tracedemo  :  Scanning ENTERING  SP       Response -> SUCCESS
Monday 17 October 2016 05:07:44 PM IST  tracedemo  :  Scanning  ENTERING  C++       Response -> SUCCESS
Monday 17 October 2016 05:07:44 PM IST  tracedemo  :  Scanning Properties  C++       BitsPerPixel -> "8"  ScanMode ->"SCAN_FRONT_REAR" 
Monday 17 October 2016 05:07:51 PM IST  tracedemo  :  Scanning EXECUTED  C++       Response -> ONLINE
Mon Oct 17 05:07:51 2016 PM   tracedemo  :  SCanning   SP   Passbook Placed Vertically    Response -> UNSUCCESSFUL Scan
Mon Oct 17 05:07:51 2016 PM tracedemo  :  Scanning EXITING  SP       Response -> SUCCESS     Barcode Data -> IMPROPER_PASSBOOK_INSERTION
Mon Oct 17 05:07:57 2016 PM   tracedemo  :  Print ENTERING  SP       Response -> SUCCESS
Monday 17 October 2016 05:07:57 PM IST  tracedemo  :  Printing  ENTERING  C++       Response -> SUCCESS
Monday 17 October 2016 05:07:57 PM IST  tracedemo  :  Printing path  C++       Path ->  "/root/forbes/microbanker/bin/Print_Files/PrintFile.txt"
Monday 17 October 2016 05:08:06 PM IST  tracedemo  :  Printing EXECUTED  C++       Response -> ONLINE
Mon Oct 17 05:08:06 2016 PM   tracedemo  :  Print EXITING  SP       Response -> SUCCESS
Mon Oct 17 05:08:06 2016 PM   tracedemo  :  Eject ENTERING  SP       Response -> SUCCESS
Monday 17 October 2016 05:08:07 PM IST  tracedemo  :  Eject  ENTERING  C++       Response -> SUCCESS
Monday 17 October 2016 05:08:07 PM IST  tracedemo  :  Eject EXECUTED  C++       Response -> ONLINE  Error_Code -> "0"
Mon Oct 17 05:08:07 2016 PM   tracedemo  :  Eject Executed  SP       Response -> SUCCESS
Mon Oct 17 05:58:06 2016 PM   tracedemo  :  Configuration ENTERING  SP       Response -> SUCCESS
Monday 17 October 2016 05:58:06 PM IST  tracedemo  :  Configuration ENTERING  C++       Response -> SUCCESS
Monday 17 October 2016 05:58:06 PM IST  tracedemo  :  Configuration CPI & LPI  C++       CPI ->"10"  LPI ->"40"   Response -> SUCCESS
Monday 17 October 2016 05:58:11 PM IST  tracedemo  :   Device Successfully Initialized  C++       Response -> SUCCESS
Mon Oct 17 05:58:15 2016 PM   tracedemo  :  Configuration ENTERING  SP       Response -> SUCCESS
Monday 17 October 2016 05:58:15 PM IST  tracedemo  :  Configuration ENTERING  C++       Response -> SUCCESS
Monday 17 October 2016 05:58:15 PM IST  tracedemo  :  Configuration CPI & LPI  C++       CPI ->"10"  LPI ->"40"   Response -> SUCCESS
Monday 17 October 2016 05:58:15 PM IST  tracedemo  :   Device Successfully Initialized  C++       Response -> SUCCESS
Mon Oct 17 05:58:16 2016 PM   tracedemo  :  Paper Status ENTERING  SP       Response -> SUCCESS
Monday 17 October 2016 05:58:16 PM IST  tracedemo  :  Paper Status  ENTERING  C++       Response -> SUCCESS
Monday 17 October 2016 05:58:16 PM IST  tracedemo  :  Paper Status EXECUTED  C++   Response -> "DOCEJECTED"  Status -> "1"
Mon Oct 17 05:58:16 2016 PM   tracedemo  :  Paper Status EXITING  SP       Response -> DOCEJECTED
Mon Oct 17 05:58:17 2016 PM   tracedemo  :  Paper Status ENTERING  SP       Response -> SUCCESS
Monday 17 October 2016 05:58:17 PM IST  tracedemo  :  Paper Status  ENTERING  C++       Response -> SUCCESS
Monday 17 October 2016 05:58:17 PM IST  tracedemo  :  Paper Status EXECUTED  C++   Response -> "DOCEJECTED"  Status -> "1"
Mon Oct 17 05:58:17 2016 PM   tracedemo  :  Paper Status EXITING  SP       Response -> DOCEJECTED
Mon Oct 17 05:58:18 2016 PM   tracedemo  :  Paper Status ENTERING  SP       Response -> SUCCESS
Monday 17 October 2016 05:58:18 PM IST  tracedemo  :  Paper Status  ENTERING  C++       Response -> SUCCESS
Monday 17 October 2016 05:58:18 PM IST  tracedemo  :  Paper Status EXECUTED  C++   Response -> "DOCEJECTED"  Status -> "1"
Mon Oct 17 05:58:18 2016 PM   tracedemo  :  Paper Status EXITING  SP       Response -> DOCEJECTED
Mon Oct 17 05:58:19 2016 PM   tracedemo  :  Paper Status ENTERING  SP       Response -> SUCCESS
Monday 17 October 2016 05:58:19 PM IST  tracedemo  :  Paper Status  ENTERING  C++       Response -> SUCCESS
Monday 17 October 2016 05:58:19 PM IST  tracedemo  :  Paper Status EXECUTED  C++   Response -> "DOCEJECTED"  Status -> "1"
Mon Oct 17 05:58:19 2016 PM   tracedemo  :  Paper Status EXITING  SP       Response -> DOCEJECTED
Mon Oct 17 05:58:20 2016 PM   tracedemo  :  Paper Status ENTERING  SP       Response -> SUCCESS
Monday 17 October 2016 05:58:20 PM IST  tracedemo  :  Paper Status  ENTERING  C++       Response -> SUCCESS
Monday 17 October 2016 05:58:20 PM IST  tracedemo  :  Paper Status EXECUTED  C++   Response -> "DOCEJECTED"  Status -> "1"
Mon Oct 17 05:58:20 2016 PM   tracedemo  :  Paper Status EXITING  SP       Response -> DOCEJECTED
Mon Oct 17 05:58:21 2016 PM   tracedemo  :  Paper Status ENTERING  SP       Response -> SUCCESS
Monday 17 October 2016 05:58:21 PM IST  tracedemo  :  Paper Status  ENTERING  C++       Response -> SUCCESS
Monday 17 October 2016 05:58:21 PM IST  tracedemo  :  Paper Status EXECUTED  C++   Response -> "DOCEJECTED"  Status -> "1"
Mon Oct 17 05:58:21 2016 PM   tracedemo  :  Paper Status EXITING  SP       Response -> DOCEJECTED
Mon Oct 17 05:58:22 2016 PM   tracedemo  :  Paper Status ENTERING  SP       Response -> SUCCESS
Monday 17 October 2016 05:58:22 PM IST  tracedemo  :  Paper Status  ENTERING  C++       Response -> SUCCESS
Monday 17 October 2016 05:58:22 PM IST  tracedemo  :  Paper Status EXECUTED  C++   Response -> "DOCEJECTED"  Status -> "1"
Mon Oct 17 05:58:22 2016 PM   tracedemo  :  Paper Status EXITING  SP       Response -> DOCEJECTED
Mon Oct 17 05:58:23 2016 PM   tracedemo  :  Paper Status ENTERING  SP       Response -> SUCCESS
Monday 17 October 2016 05:58:23 PM IST  tracedemo  :  Paper Status  ENTERING  C++       Response -> SUCCESS
Monday 17 October 2016 05:58:23 PM IST  tracedemo  :  Paper Status EXECUTED  C++   Response -> "DOCEJECTED"  Status -> "1"
Mon Oct 17 05:58:23 2016 PM   tracedemo  :  Paper Status EXITING  SP       Response -> DOCEJECTED
Mon Oct 17 05:58:24 2016 PM   tracedemo  :  Paper Status ENTERING  SP       Response -> SUCCESS
Monday 17 October 2016 05:58:24 PM IST  tracedemo  :  Paper Status  ENTERING  C++       Response -> SUCCESS
Monday 17 October 2016 05:58:24 PM IST  tracedemo  :  Paper Status EXECUTED  C++   Response -> "DOCEJECTED"  Status -> "1"
Mon Oct 17 05:58:24 2016 PM   tracedemo  :  Paper Status EXITING  SP       Response -> DOCEJECTED
Mon Oct 17 05:58:25 2016 PM   tracedemo  :  Paper Status ENTERING  SP       Response -> SUCCESS
Monday 17 October 2016 05:58:25 PM IST  tracedemo  :  Paper Status  ENTERING  C++       Response -> SUCCESS
Monday 17 October 2016 05:58:25 PM IST  tracedemo  :  Paper Status EXECUTED  C++   Response -> "DOCEJECTED"  Status -> "1"
Mon Oct 17 05:58:25 2016 PM   tracedemo  :  Paper Status EXITING  SP       Response -> DOCEJECTED
Mon Oct 17 05:58:26 2016 PM   tracedemo  :  Paper Status ENTERING  SP       Response -> SUCCESS
Monday 17 October 2016 05:58:26 PM IST  tracedemo  :  Paper Status  ENTERING  C++       Response -> SUCCESS
Monday 17 October 2016 05:58:26 PM IST  tracedemo  :  Paper Status EXECUTED  C++   Response -> "DOCEJECTED"  Status -> "1"
Mon Oct 17 05:58:26 2016 PM   tracedemo  :  Paper Status EXITING  SP       Response -> DOCEJECTED
Mon Oct 17 05:58:33 2016 PM   tracedemo  :  Configuration ENTERING  SP       Response -> SUCCESS
Monday 17 October 2016 05:58:33 PM IST  tracedemo  :  Configuration ENTERING  C++       Response -> SUCCESS
Monday 17 October 2016 05:58:33 PM IST  tracedemo  :  Configuration CPI & LPI  C++       CPI ->"10"  LPI ->"40"   Response -> SUCCESS
Monday 17 October 2016 05:58:38 PM IST  tracedemo  :   Device Successfully Initialized  C++       Response -> SUCCESS
Mon Oct 17 06:00:13 2016 PM   tracedemo  :  Configuration ENTERING  SP       Response -> SUCCESS
Monday 17 October 2016 06:00:13 PM IST  tracedemo  :  Configuration ENTERING  C++       Response -> SUCCESS
Monday 17 October 2016 06:00:13 PM IST  tracedemo  :  Configuration CPI & LPI  C++       CPI ->"10"  LPI ->"40"   Response -> SUCCESS
Monday 17 October 2016 06:00:13 PM IST  tracedemo  :   Device Successfully Initialized  C++       Response -> SUCCESS
Mon Oct 17 06:00:27 2016 PM   tracedemo  :  Paper Status ENTERING  SP       Response -> SUCCESS
Monday 17 October 2016 06:00:27 PM IST  tracedemo  :  Paper Status  ENTERING  C++       Response -> SUCCESS
Monday 17 October 2016 06:00:27 PM IST  tracedemo  :  Paper Status EXECUTED  C++   Response -> "DOCPRESENT"  Status -> "2"
Mon Oct 17 06:00:27 2016 PM   tracedemo  :  Paper Status EXITING  SP       Response -> DOCPRESENT
Mon Oct 17 06:00:32 2016 PM   tracedemo  :  Scanning ENTERING  SP       Response -> SUCCESS
Monday 17 October 2016 06:00:32 PM IST  tracedemo  :  Scanning  ENTERING  C++       Response -> SUCCESS
Monday 17 October 2016 06:00:32 PM IST  tracedemo  :  Scanning Properties  C++       BitsPerPixel -> "8"  ScanMode ->"SCAN_FRONT_REAR" 
Monday 17 October 2016 06:00:40 PM IST  tracedemo  :  Scanning EXECUTED  C++       Response -> ONLINE
Mon Oct 17 06:00:40 2016 PM   tracedemo  :  SCanning   SP   Passbook Placed Vertically    Response -> UNSUCCESSFUL Scan
Mon Oct 17 06:00:40 2016 PM tracedemo  :  Scanning EXITING  SP       Response -> SUCCESS     Barcode Data -> IMPROPER_PASSBOOK_INSERTION
Mon Oct 17 06:03:11 2016 PM   tracedemo  :  Print ENTERING  SP       Response -> SUCCESS
Monday 17 October 2016 06:03:11 PM IST  tracedemo  :  Printing  ENTERING  C++       Response -> SUCCESS
Monday 17 October 2016 06:03:11 PM IST  tracedemo  :  Printing path  C++       Path ->  "/root/forbes/microbanker/bin/Print_Files/PrintFile.txt"
Monday 17 October 2016 06:03:17 PM IST  tracedemo  :  Printing EXECUTED  C++       Response -> ONLINE
Mon Oct 17 06:03:17 2016 PM   tracedemo  :  Print EXITING  SP       Response -> SUCCESS
Mon Oct 17 06:03:17 2016 PM   tracedemo  :  Eject ENTERING  SP       Response -> SUCCESS
Monday 17 October 2016 06:03:18 PM IST  tracedemo  :  Eject  ENTERING  C++       Response -> SUCCESS
Monday 17 October 2016 06:03:18 PM IST  tracedemo  :  Eject EXECUTED  C++       Response -> ONLINE  Error_Code -> "0"
Mon Oct 17 06:03:18 2016 PM   tracedemo  :  Eject Executed  SP       Response -> SUCCESS
Mon Oct 17 06:03:18 2016 PM   tracedemo  :  Paper Status ENTERING  SP       Response -> SUCCESS
Monday 17 October 2016 06:03:18 PM IST  tracedemo  :  Paper Status  ENTERING  C++       Response -> SUCCESS
Monday 17 October 2016 06:03:18 PM IST  tracedemo  :  Paper Status EXECUTED  C++   Response -> "DOCEJECTED"  Status -> "1"
Mon Oct 17 06:03:18 2016 PM   tracedemo  :  Paper Status EXITING  SP       Response -> DOCEJECTED
Mon Oct 17 06:03:18 2016 PM   tracedemo  :  Paper Status ENTERING  SP       Response -> SUCCESS
Monday 17 October 2016 06:03:18 PM IST  tracedemo  :  Paper Status  ENTERING  C++       Response -> SUCCESS
Monday 17 October 2016 06:03:18 PM IST  tracedemo  :  Paper Status EXECUTED  C++   Response -> "DOCEJECTED"  Status -> "1"
Mon Oct 17 06:03:18 2016 PM   tracedemo  :  Paper Status EXITING  SP       Response -> DOCEJECTED
Mon Oct 17 06:03:19 2016 PM   tracedemo  :  Paper Status ENTERING  SP       Response -> SUCCESS
Monday 17 October 2016 06:03:19 PM IST  tracedemo  :  Paper Status  ENTERING  C++       Response -> SUCCESS
Monday 17 October 2016 06:03:19 PM IST  tracedemo  :  Paper Status EXECUTED  C++   Response -> "DOCEJECTED"  Status -> "1"
Mon Oct 17 06:03:19 2016 PM   tracedemo  :  Paper Status EXITING  SP       Response -> DOCEJECTED
Mon Oct 17 06:03:20 2016 PM   tracedemo  :  Paper Status ENTERING  SP       Response -> SUCCESS
Monday 17 October 2016 06:03:20 PM IST  tracedemo  :  Paper Status  ENTERING  C++       Response -> SUCCESS
Monday 17 October 2016 06:03:20 PM IST  tracedemo  :  Paper Status EXECUTED  C++   Response -> "DOCEJECTED"  Status -> "1"
Mon Oct 17 06:03:20 2016 PM   tracedemo  :  Paper Status EXITING  SP       Response -> DOCEJECTED
Mon Oct 17 06:03:21 2016 PM   tracedemo  :  Paper Status ENTERING  SP       Response -> SUCCESS
Monday 17 October 2016 06:03:21 PM IST  tracedemo  :  Paper Status  ENTERING  C++       Response -> SUCCESS
Monday 17 October 2016 06:03:21 PM IST  tracedemo  :  Paper Status EXECUTED  C++   Response -> "DOCEJECTED"  Status -> "1"
Mon Oct 17 06:03:21 2016 PM   tracedemo  :  Paper Status EXITING  SP       Response -> DOCEJECTED
Mon Oct 17 06:03:22 2016 PM   tracedemo  :  Paper Status ENTERING  SP       Response -> SUCCESS
Monday 17 October 2016 06:03:22 PM IST  tracedemo  :  Paper Status  ENTERING  C++       Response -> SUCCESS
Monday 17 October 2016 06:03:22 PM IST  tracedemo  :  Paper Status EXECUTED  C++   Response -> "DOCEJECTED"  Status -> "1"
Mon Oct 17 06:03:22 2016 PM   tracedemo  :  Paper Status EXITING  SP       Response -> DOCEJECTED
Mon Oct 17 06:03:23 2016 PM   tracedemo  :  Paper Status ENTERING  SP       Response -> SUCCESS
Monday 17 October 2016 06:03:23 PM IST  tracedemo  :  Paper Status  ENTERING  C++       Response -> SUCCESS
Monday 17 October 2016 06:03:23 PM IST  tracedemo  :  Paper Status EXECUTED  C++   Response -> "DOCEJECTED"  Status -> "1"
Mon Oct 17 06:03:23 2016 PM   tracedemo  :  Paper Status EXITING  SP       Response -> DOCEJECTED
Mon Oct 17 06:03:24 2016 PM   tracedemo  :  Paper Status ENTERING  SP       Response -> SUCCESS
Monday 17 October 2016 06:03:24 PM IST  tracedemo  :  Paper Status  ENTERING  C++       Response -> SUCCESS
Monday 17 October 2016 06:03:24 PM IST  tracedemo  :  Paper Status EXECUTED  C++   Response -> "DOCEJECTED"  Status -> "1"
Mon Oct 17 06:03:24 2016 PM   tracedemo  :  Paper Status EXITING  SP       Response -> DOCEJECTED
Mon Oct 17 06:03:25 2016 PM   tracedemo  :  Paper Status ENTERING  SP       Response -> SUCCESS
Monday 17 October 2016 06:03:25 PM IST  tracedemo  :  Paper Status  ENTERING  C++       Response -> SUCCESS
Monday 17 October 2016 06:03:25 PM IST  tracedemo  :  Paper Status EXECUTED  C++   Response -> "DOCEJECTED"  Status -> "1"
Mon Oct 17 06:03:25 2016 PM   tracedemo  :  Paper Status EXITING  SP       Response -> DOCEJECTED
Mon Oct 17 06:03:26 2016 PM   tracedemo  :  Paper Status ENTERING  SP       Response -> SUCCESS
Monday 17 October 2016 06:03:26 PM IST  tracedemo  :  Paper Status  ENTERING  C++       Response -> SUCCESS
Monday 17 October 2016 06:03:26 PM IST  tracedemo  :  Paper Status EXECUTED  C++   Response -> "DOCEJECTED"  Status -> "1"
Mon Oct 17 06:03:26 2016 PM   tracedemo  :  Paper Status EXITING  SP       Response -> DOCEJECTED
Mon Oct 17 06:03:27 2016 PM   tracedemo  :  Paper Status ENTERING  SP       Response -> SUCCESS
Monday 17 October 2016 06:03:27 PM IST  tracedemo  :  Paper Status  ENTERING  C++       Response -> SUCCESS
Monday 17 October 2016 06:03:27 PM IST  tracedemo  :  Paper Status EXECUTED  C++   Response -> "DOCPRESENT"  Status -> "2"
Mon Oct 17 06:03:27 2016 PM   tracedemo  :  Paper Status EXITING  SP       Response -> DOCPRESENT
Mon Oct 17 06:03:28 2016 PM   tracedemo  :  Scanning ENTERING  SP       Response -> SUCCESS
Monday 17 October 2016 06:03:28 PM IST  tracedemo  :  Scanning  ENTERING  C++       Response -> SUCCESS
Monday 17 October 2016 06:03:29 PM IST  tracedemo  :  Scanning Properties  C++       BitsPerPixel -> "8"  ScanMode ->"SCAN_FRONT_REAR" 
Monday 17 October 2016 06:03:36 PM IST  tracedemo  :  Scanning EXECUTED  C++       Response -> ONLINE
Mon Oct 17 06:03:36 2016 PM   tracedemo  :  SCanning   SP   Passbook Placed Vertically    Response -> UNSUCCESSFUL Scan
Mon Oct 17 06:03:36 2016 PM tracedemo  :  Scanning EXITING  SP       Response -> SUCCESS     Barcode Data -> IMPROPER_PASSBOOK_INSERTION
Mon Oct 17 06:08:44 2016 PM   tracedemo  :  Eject ENTERING  SP       Response -> SUCCESS
Monday 17 October 2016 06:08:46 PM IST  tracedemo  :  Eject  ENTERING  C++       Response -> SUCCESS
Monday 17 October 2016 06:08:46 PM IST  tracedemo  :  Eject EXECUTED  C++       Response -> ONLINE  Error_Code -> "0"
Mon Oct 17 06:08:46 2016 PM   tracedemo  :  Eject Executed  SP       Response -> SUCCESS
Mon Oct 17 06:17:20 2016 PM   tracedemo  :  Configuration ENTERING  SP       Response -> SUCCESS
Monday 17 October 2016 06:17:20 PM IST  tracedemo  :  Configuration ENTERING  C++       Response -> SUCCESS
Monday 17 October 2016 06:17:20 PM IST  tracedemo  :  Configuration CPI & LPI  C++       CPI ->"10"  LPI ->"40"   Response -> SUCCESS
Monday 17 October 2016 06:17:26 PM IST  tracedemo  :   Device Successfully Initialized  C++       Response -> SUCCESS
Mon Oct 17 06:17:39 2016 PM   tracedemo  :  Configuration ENTERING  SP       Response -> SUCCESS
Monday 17 October 2016 06:17:39 PM IST  tracedemo  :  Configuration ENTERING  C++       Response -> SUCCESS
Monday 17 October 2016 06:17:39 PM IST  tracedemo  :  Configuration CPI & LPI  C++       CPI ->"10"  LPI ->"40"   Response -> SUCCESS
Monday 17 October 2016 06:17:39 PM IST  tracedemo  :   Device Successfully Initialized  C++       Response -> SUCCESS
Mon Oct 17 06:17:40 2016 PM   tracedemo  :  Paper Status ENTERING  SP       Response -> SUCCESS
Monday 17 October 2016 06:17:40 PM IST  tracedemo  :  Paper Status  ENTERING  C++       Response -> SUCCESS
Monday 17 October 2016 06:17:40 PM IST  tracedemo  :  Paper Status EXECUTED  C++   Response -> "DOCEJECTED"  Status -> "1"
Mon Oct 17 06:17:40 2016 PM   tracedemo  :  Paper Status EXITING  SP       Response -> DOCEJECTED
Mon Oct 17 06:17:41 2016 PM   tracedemo  :  Paper Status ENTERING  SP       Response -> SUCCESS
Monday 17 October 2016 06:17:41 PM IST  tracedemo  :  Paper Status  ENTERING  C++       Response -> SUCCESS
Monday 17 October 2016 06:17:41 PM IST  tracedemo  :  Paper Status EXECUTED  C++   Response -> "DOCEJECTED"  Status -> "1"
Mon Oct 17 06:17:41 2016 PM   tracedemo  :  Paper Status EXITING  SP       Response -> DOCEJECTED
Mon Oct 17 06:17:42 2016 PM   tracedemo  :  Paper Status ENTERING  SP       Response -> SUCCESS
Monday 17 October 2016 06:17:42 PM IST  tracedemo  :  Paper Status  ENTERING  C++       Response -> SUCCESS
Monday 17 October 2016 06:17:42 PM IST  tracedemo  :  Paper Status EXECUTED  C++   Response -> "DOCEJECTED"  Status -> "1"
Mon Oct 17 06:17:42 2016 PM   tracedemo  :  Paper Status EXITING  SP       Response -> DOCEJECTED
Mon Oct 17 06:17:43 2016 PM   tracedemo  :  Paper Status ENTERING  SP       Response -> SUCCESS
Monday 17 October 2016 06:17:43 PM IST  tracedemo  :  Paper Status  ENTERING  C++       Response -> SUCCESS
Monday 17 October 2016 06:17:43 PM IST  tracedemo  :  Paper Status EXECUTED  C++   Response -> "DOCEJECTED"  Status -> "1"
Mon Oct 17 06:17:43 2016 PM   tracedemo  :  Paper Status EXITING  SP       Response -> DOCEJECTED
Mon Oct 17 06:17:44 2016 PM   tracedemo  :  Paper Status ENTERING  SP       Response -> SUCCESS
Monday 17 October 2016 06:17:44 PM IST  tracedemo  :  Paper Status  ENTERING  C++       Response -> SUCCESS
Monday 17 October 2016 06:17:45 PM IST  tracedemo  :  Paper Status EXECUTED  C++   Response -> "DOCPRESENT"  Status -> "2"
Mon Oct 17 06:17:45 2016 PM   tracedemo  :  Paper Status EXITING  SP       Response -> DOCPRESENT
Mon Oct 17 06:17:45 2016 PM   tracedemo  :  Scanning ENTERING  SP       Response -> SUCCESS
Monday 17 October 2016 06:17:45 PM IST  tracedemo  :  Scanning  ENTERING  C++       Response -> SUCCESS
Monday 17 October 2016 06:17:45 PM IST  tracedemo  :  Scanning Properties  C++       BitsPerPixel -> "8"  ScanMode ->"SCAN_FRONT_REAR" 
Monday 17 October 2016 06:17:52 PM IST  tracedemo  :  Scanning EXECUTED  C++       Response -> ONLINE
Mon Oct 17 06:17:52 2016 PM   tracedemo  :  SCanning   SP   Passbook Placed Vertically    Response -> UNSUCCESSFUL Scan
Mon Oct 17 06:17:52 2016 PM tracedemo  :  Scanning EXITING  SP       Response -> SUCCESS     Barcode Data -> IMPROPER_PASSBOOK_INSERTION
Mon Oct 17 06:20:59 2016 PM   tracedemo  :  Eject ENTERING  SP       Response -> SUCCESS
Monday 17 October 2016 06:21:00 PM IST  tracedemo  :  Eject  ENTERING  C++       Response -> SUCCESS
Monday 17 October 2016 06:21:00 PM IST  tracedemo  :  Eject EXECUTED  C++       Response -> ONLINE  Error_Code -> "0"
Mon Oct 17 06:21:00 2016 PM   tracedemo  :  Eject Executed  SP       Response -> SUCCESS
Mon Oct 17 06:22:11 2016 PM   tracedemo  :  Configuration ENTERING  SP       Response -> SUCCESS
Monday 17 October 2016 06:22:11 PM IST  tracedemo  :  Configuration ENTERING  C++       Response -> SUCCESS
Monday 17 October 2016 06:22:11 PM IST  tracedemo  :  Configuration CPI & LPI  C++       CPI ->"10"  LPI ->"40"   Response -> SUCCESS
Monday 17 October 2016 06:22:16 PM IST  tracedemo  :   Device Successfully Initialized  C++       Response -> SUCCESS
Mon Oct 17 06:22:26 2016 PM   tracedemo  :  Configuration ENTERING  SP       Response -> SUCCESS
Monday 17 October 2016 06:22:26 PM IST  tracedemo  :  Configuration ENTERING  C++       Response -> SUCCESS
Monday 17 October 2016 06:22:26 PM IST  tracedemo  :  Configuration CPI & LPI  C++       CPI ->"10"  LPI ->"40"   Response -> SUCCESS
Monday 17 October 2016 06:22:26 PM IST  tracedemo  :   Device Successfully Initialized  C++       Response -> SUCCESS
Mon Oct 17 06:22:27 2016 PM   tracedemo  :  Paper Status ENTERING  SP       Response -> SUCCESS
Monday 17 October 2016 06:22:27 PM IST  tracedemo  :  Paper Status  ENTERING  C++       Response -> SUCCESS
Monday 17 October 2016 06:22:27 PM IST  tracedemo  :  Paper Status EXECUTED  C++   Response -> "DOCPRESENT"  Status -> "2"
Mon Oct 17 06:22:27 2016 PM   tracedemo  :  Paper Status EXITING  SP       Response -> DOCPRESENT
Mon Oct 17 06:22:27 2016 PM   tracedemo  :  Scanning ENTERING  SP       Response -> SUCCESS
Monday 17 October 2016 06:22:27 PM IST  tracedemo  :  Scanning  ENTERING  C++       Response -> SUCCESS
Monday 17 October 2016 06:22:27 PM IST  tracedemo  :  Scanning Properties  C++       BitsPerPixel -> "8"  ScanMode ->"SCAN_FRONT_REAR" 
Monday 17 October 2016 06:22:34 PM IST  tracedemo  :  Scanning EXECUTED  C++       Response -> ONLINE
Mon Oct 17 06:22:34 2016 PM   tracedemo  :  SCanning   SP   Passbook Placed Vertically    Response -> UNSUCCESSFUL Scan
Mon Oct 17 06:22:34 2016 PM tracedemo  :  Scanning EXITING  SP       Response -> SUCCESS     Barcode Data -> IMPROPER_PASSBOOK_INSERTION
Mon Oct 17 06:26:22 2016 PM   tracedemo  :  Print ENTERING  SP       Response -> SUCCESS
Monday 17 October 2016 06:26:22 PM IST  tracedemo  :  Printing  ENTERING  C++       Response -> SUCCESS
Monday 17 October 2016 06:26:22 PM IST  tracedemo  :  Printing path  C++       Path ->  "/root/forbes/microbanker/bin/Print_Files/PrintFile.txt"
Monday 17 October 2016 06:26:28 PM IST  tracedemo  :  Printing EXECUTED  C++       Response -> ONLINE
Mon Oct 17 06:26:28 2016 PM   tracedemo  :  Print EXITING  SP       Response -> SUCCESS
Mon Oct 17 06:26:36 2016 PM   tracedemo  :  Eject ENTERING  SP       Response -> SUCCESS
Monday 17 October 2016 06:26:37 PM IST  tracedemo  :  Eject  ENTERING  C++       Response -> SUCCESS
Monday 17 October 2016 06:26:37 PM IST  tracedemo  :  Eject EXECUTED  C++       Response -> ONLINE  Error_Code -> "0"
Mon Oct 17 06:26:37 2016 PM   tracedemo  :  Eject Executed  SP       Response -> SUCCESS
Mon Oct 17 06:26:57 2016 PM   tracedemo  :  Paper Status ENTERING  SP       Response -> SUCCESS
Monday 17 October 2016 06:26:57 PM IST  tracedemo  :  Paper Status  ENTERING  C++       Response -> SUCCESS
Monday 17 October 2016 06:26:57 PM IST  tracedemo  :  Paper Status EXECUTED  C++   Response -> "DOCPRESENT"  Status -> "2"
Mon Oct 17 06:26:57 2016 PM   tracedemo  :  Paper Status EXITING  SP       Response -> DOCPRESENT
Mon Oct 17 06:27:12 2016 PM   tracedemo  :  Scanning ENTERING  SP       Response -> SUCCESS
Monday 17 October 2016 06:27:12 PM IST  tracedemo  :  Scanning  ENTERING  C++       Response -> SUCCESS
Monday 17 October 2016 06:27:12 PM IST  tracedemo  :  Scanning Properties  C++       BitsPerPixel -> "8"  ScanMode ->"SCAN_FRONT_REAR" 
Monday 17 October 2016 06:27:19 PM IST  tracedemo  :  Scanning EXECUTED  C++       Response -> ONLINE
Mon Oct 17 06:27:19 2016 PM   tracedemo  :  SCanning   SP   Passbook Placed Vertically    Response -> UNSUCCESSFUL Scan
Mon Oct 17 06:27:19 2016 PM tracedemo  :  Scanning EXITING  SP       Response -> SUCCESS     Barcode Data -> IMPROPER_PASSBOOK_INSERTION
Mon Oct 17 06:29:20 2016 PM   tracedemo  :  Configuration ENTERING  SP       Response -> SUCCESS
Monday 17 October 2016 06:29:20 PM IST  tracedemo  :  Configuration ENTERING  C++       Response -> SUCCESS
Monday 17 October 2016 06:29:20 PM IST  tracedemo  :  Configuration CPI & LPI  C++       CPI ->"10"  LPI ->"40"   Response -> SUCCESS
Monday 17 October 2016 06:29:27 PM IST  tracedemo  :   Device Successfully Initialized  C++       Response -> SUCCESS
Mon Oct 17 06:29:33 2016 PM   tracedemo  :  Configuration ENTERING  SP       Response -> SUCCESS
Monday 17 October 2016 06:29:33 PM IST  tracedemo  :  Configuration ENTERING  C++       Response -> SUCCESS
Monday 17 October 2016 06:29:33 PM IST  tracedemo  :  Configuration CPI & LPI  C++       CPI ->"10"  LPI ->"40"   Response -> SUCCESS
Monday 17 October 2016 06:29:33 PM IST  tracedemo  :   Device Successfully Initialized  C++       Response -> SUCCESS
Mon Oct 17 06:29:34 2016 PM   tracedemo  :  Paper Status ENTERING  SP       Response -> SUCCESS
Monday 17 October 2016 06:29:34 PM IST  tracedemo  :  Paper Status  ENTERING  C++       Response -> SUCCESS
Monday 17 October 2016 06:29:34 PM IST  tracedemo  :  Paper Status EXECUTED  C++   Response -> "DOCPRESENT"  Status -> "2"
Mon Oct 17 06:29:34 2016 PM   tracedemo  :  Paper Status EXITING  SP       Response -> DOCPRESENT
Mon Oct 17 06:29:34 2016 PM   tracedemo  :  Scanning ENTERING  SP       Response -> SUCCESS
Monday 17 October 2016 06:29:34 PM IST  tracedemo  :  Scanning  ENTERING  C++       Response -> SUCCESS
Monday 17 October 2016 06:29:34 PM IST  tracedemo  :  Scanning Properties  C++       BitsPerPixel -> "8"  ScanMode ->"SCAN_FRONT_REAR" 
Monday 17 October 2016 06:29:42 PM IST  tracedemo  :  Scanning EXECUTED  C++       Response -> ONLINE
Mon Oct 17 06:29:42 2016 PM   tracedemo  :  SCanning   SP   Passbook Placed Vertically    Response -> UNSUCCESSFUL Scan
Mon Oct 17 06:29:42 2016 PM tracedemo  :  Scanning EXITING  SP       Response -> SUCCESS     Barcode Data -> IMPROPER_PASSBOOK_INSERTION
Mon Oct 17 06:30:24 2016 PM   tracedemo  :  Eject ENTERING  SP       Response -> SUCCESS
Monday 17 October 2016 06:30:26 PM IST  tracedemo  :  Eject  ENTERING  C++       Response -> SUCCESS
Monday 17 October 2016 06:30:26 PM IST  tracedemo  :  Eject EXECUTED  C++       Response -> ONLINE  Error_Code -> "0"
Mon Oct 17 06:30:26 2016 PM   tracedemo  :  Eject Executed  SP       Response -> SUCCESS
Mon Oct 17 06:33:03 2016 PM   tracedemo  :  Configuration ENTERING  SP       Response -> SUCCESS
Monday 17 October 2016 06:33:03 PM IST  tracedemo  :  Configuration ENTERING  C++       Response -> SUCCESS
Monday 17 October 2016 06:33:03 PM IST  tracedemo  :  Configuration CPI & LPI  C++       CPI ->"10"  LPI ->"40"   Response -> SUCCESS
Monday 17 October 2016 06:33:09 PM IST  tracedemo  :   Device Successfully Initialized  C++       Response -> SUCCESS
Mon Oct 17 06:33:12 2016 PM   tracedemo  :  Configuration ENTERING  SP       Response -> SUCCESS
Monday 17 October 2016 06:33:12 PM IST  tracedemo  :  Configuration ENTERING  C++       Response -> SUCCESS
Monday 17 October 2016 06:33:12 PM IST  tracedemo  :  Configuration CPI & LPI  C++       CPI ->"10"  LPI ->"40"   Response -> SUCCESS
Monday 17 October 2016 06:33:12 PM IST  tracedemo  :   Device Successfully Initialized  C++       Response -> SUCCESS
Mon Oct 17 06:33:13 2016 PM   tracedemo  :  Paper Status ENTERING  SP       Response -> SUCCESS
Monday 17 October 2016 06:33:13 PM IST  tracedemo  :  Paper Status  ENTERING  C++       Response -> SUCCESS
Monday 17 October 2016 06:33:13 PM IST  tracedemo  :  Paper Status EXECUTED  C++   Response -> "DOCPRESENT"  Status -> "2"
Mon Oct 17 06:33:13 2016 PM   tracedemo  :  Paper Status EXITING  SP       Response -> DOCPRESENT
Mon Oct 17 06:33:13 2016 PM   tracedemo  :  Scanning ENTERING  SP       Response -> SUCCESS
Monday 17 October 2016 06:33:13 PM IST  tracedemo  :  Scanning  ENTERING  C++       Response -> SUCCESS
Monday 17 October 2016 06:33:13 PM IST  tracedemo  :  Scanning Properties  C++       BitsPerPixel -> "8"  ScanMode ->"SCAN_FRONT_REAR" 
Monday 17 October 2016 06:33:20 PM IST  tracedemo  :  Scanning EXECUTED  C++       Response -> ONLINE
Mon Oct 17 06:33:20 2016 PM   tracedemo  :  SCanning   SP   Passbook Placed Vertically    Response -> UNSUCCESSFUL Scan
Mon Oct 17 06:33:20 2016 PM tracedemo  :  Scanning EXITING  SP       Response -> SUCCESS     Barcode Data -> IMPROPER_PASSBOOK_INSERTION
Mon Oct 17 06:34:10 2016 PM   tracedemo  :  Eject ENTERING  SP       Response -> SUCCESS
Monday 17 October 2016 06:34:12 PM IST  tracedemo  :  Eject  ENTERING  C++       Response -> SUCCESS
Monday 17 October 2016 06:34:12 PM IST  tracedemo  :  Eject EXECUTED  C++       Response -> ONLINE  Error_Code -> "0"
Mon Oct 17 06:34:12 2016 PM   tracedemo  :  Eject Executed  SP       Response -> SUCCESS
Mon Oct 17 06:34:29 2016 PM   tracedemo  :  Configuration ENTERING  SP       Response -> SUCCESS
Monday 17 October 2016 06:34:29 PM IST  tracedemo  :  Configuration ENTERING  C++       Response -> SUCCESS
Monday 17 October 2016 06:34:29 PM IST  tracedemo  :  Configuration CPI & LPI  C++       CPI ->"10"  LPI ->"40"   Response -> SUCCESS
Monday 17 October 2016 06:34:29 PM IST  tracedemo  :   Device Successfully Initialized  C++       Response -> SUCCESS
Mon Oct 17 06:34:30 2016 PM   tracedemo  :  Paper Status ENTERING  SP       Response -> SUCCESS
Monday 17 October 2016 06:34:30 PM IST  tracedemo  :  Paper Status  ENTERING  C++       Response -> SUCCESS
Monday 17 October 2016 06:34:30 PM IST  tracedemo  :  Paper Status EXECUTED  C++   Response -> "DOCPRESENT"  Status -> "2"
Mon Oct 17 06:34:30 2016 PM   tracedemo  :  Paper Status EXITING  SP       Response -> DOCPRESENT
Mon Oct 17 06:34:30 2016 PM   tracedemo  :  Scanning ENTERING  SP       Response -> SUCCESS
Monday 17 October 2016 06:34:30 PM IST  tracedemo  :  Scanning  ENTERING  C++       Response -> SUCCESS
Monday 17 October 2016 06:34:30 PM IST  tracedemo  :  Scanning Properties  C++       BitsPerPixel -> "8"  ScanMode ->"SCAN_FRONT_REAR" 
Monday 17 October 2016 06:34:37 PM IST  tracedemo  :  Scanning EXECUTED  C++       Response -> ONLINE
Mon Oct 17 06:34:37 2016 PM   tracedemo  :  SCanning   SP   Passbook Placed Vertically    Response -> UNSUCCESSFUL Scan
Mon Oct 17 06:34:37 2016 PM tracedemo  :  Scanning EXITING  SP       Response -> SUCCESS     Barcode Data -> IMPROPER_PASSBOOK_INSERTION
Mon Oct 17 06:40:40 2016 PM   tracedemo  :  Configuration ENTERING  SP       Response -> SUCCESS
Monday 17 October 2016 06:40:40 PM IST  tracedemo  :  Configuration ENTERING  C++       Response -> SUCCESS
Monday 17 October 2016 06:40:40 PM IST  tracedemo  :  Configuration CPI & LPI  C++       CPI ->"10"  LPI ->"40"   Response -> SUCCESS
Monday 17 October 2016 06:40:47 PM IST  tracedemo  :   Device Successfully Initialized  C++       Response -> SUCCESS
Mon Oct 17 06:40:50 2016 PM   tracedemo  :  Configuration ENTERING  SP       Response -> SUCCESS
Monday 17 October 2016 06:40:50 PM IST  tracedemo  :  Configuration ENTERING  C++       Response -> SUCCESS
Monday 17 October 2016 06:40:50 PM IST  tracedemo  :  Configuration CPI & LPI  C++       CPI ->"10"  LPI ->"40"   Response -> SUCCESS
Monday 17 October 2016 06:40:50 PM IST  tracedemo  :   Device Successfully Initialized  C++       Response -> SUCCESS
Mon Oct 17 06:40:51 2016 PM   tracedemo  :  Paper Status ENTERING  SP       Response -> SUCCESS
Monday 17 October 2016 06:40:51 PM IST  tracedemo  :  Paper Status  ENTERING  C++       Response -> SUCCESS
Monday 17 October 2016 06:40:51 PM IST  tracedemo  :  Paper Status EXECUTED  C++   Response -> "DOCABSENT"  Status -> "0"
Mon Oct 17 06:40:51 2016 PM   tracedemo  :  Paper Status EXITING  SP       Response -> DOCABSENT
Mon Oct 17 06:40:52 2016 PM   tracedemo  :  Paper Status ENTERING  SP       Response -> SUCCESS
Monday 17 October 2016 06:40:52 PM IST  tracedemo  :  Paper Status  ENTERING  C++       Response -> SUCCESS
Monday 17 October 2016 06:40:52 PM IST  tracedemo  :  Paper Status EXECUTED  C++   Response -> "DOCPRESENT"  Status -> "2"
Mon Oct 17 06:40:52 2016 PM   tracedemo  :  Paper Status EXITING  SP       Response -> DOCPRESENT
Mon Oct 17 06:40:52 2016 PM   tracedemo  :  Scanning ENTERING  SP       Response -> SUCCESS
Monday 17 October 2016 06:40:52 PM IST  tracedemo  :  Scanning  ENTERING  C++       Response -> SUCCESS
Monday 17 October 2016 06:40:52 PM IST  tracedemo  :  Scanning Properties  C++       BitsPerPixel -> "8"  ScanMode ->"SCAN_FRONT_REAR" 
Monday 17 October 2016 06:40:59 PM IST  tracedemo  :  Scanning EXECUTED  C++       Response -> ONLINE
Mon Oct 17 06:40:59 2016 PM   tracedemo  :  SCanning   SP   Passbook Placed Vertically    Response -> UNSUCCESSFUL Scan
Mon Oct 17 06:40:59 2016 PM tracedemo  :  Scanning EXITING  SP       Response -> SUCCESS     Barcode Data -> IMPROPER_PASSBOOK_INSERTION
Mon Oct 17 06:42:18 2016 PM   tracedemo  :  Print ENTERING  SP       Response -> SUCCESS
Monday 17 October 2016 06:42:18 PM IST  tracedemo  :  Printing  ENTERING  C++       Response -> SUCCESS
Monday 17 October 2016 06:42:18 PM IST  tracedemo  :  Printing path  C++       Path ->  "/root/forbes/microbanker/bin/Print_Files/PrintFile.txt"
Monday 17 October 2016 06:42:27 PM IST  tracedemo  :  Printing EXECUTED  C++       Response -> ONLINE
Mon Oct 17 06:42:27 2016 PM   tracedemo  :  Print EXITING  SP       Response -> SUCCESS
Mon Oct 17 06:43:17 2016 PM   tracedemo  :  Eject ENTERING  SP       Response -> SUCCESS
Monday 17 October 2016 06:43:18 PM IST  tracedemo  :  Eject  ENTERING  C++       Response -> SUCCESS
Monday 17 October 2016 06:43:18 PM IST  tracedemo  :  Eject EXECUTED  C++       Response -> ONLINE  Error_Code -> "0"
Mon Oct 17 06:43:18 2016 PM   tracedemo  :  Eject Executed  SP       Response -> SUCCESS
Mon Oct 17 06:43:32 2016 PM   tracedemo  :  Configuration ENTERING  SP       Response -> SUCCESS
Monday 17 October 2016 06:43:32 PM IST  tracedemo  :  Configuration ENTERING  C++       Response -> SUCCESS
Monday 17 October 2016 06:43:32 PM IST  tracedemo  :  Configuration CPI & LPI  C++       CPI ->"10"  LPI ->"40"   Response -> SUCCESS
Monday 17 October 2016 06:43:32 PM IST  tracedemo  :   Device Successfully Initialized  C++       Response -> SUCCESS
Mon Oct 17 06:43:33 2016 PM   tracedemo  :  Paper Status ENTERING  SP       Response -> SUCCESS
Monday 17 October 2016 06:43:33 PM IST  tracedemo  :  Paper Status  ENTERING  C++       Response -> SUCCESS
Monday 17 October 2016 06:43:34 PM IST  tracedemo  :  Paper Status EXECUTED  C++   Response -> "DOCPRESENT"  Status -> "2"
Mon Oct 17 06:43:34 2016 PM   tracedemo  :  Paper Status EXITING  SP       Response -> DOCPRESENT
Mon Oct 17 06:43:34 2016 PM   tracedemo  :  Scanning ENTERING  SP       Response -> SUCCESS
Monday 17 October 2016 06:43:34 PM IST  tracedemo  :  Scanning  ENTERING  C++       Response -> SUCCESS
Monday 17 October 2016 06:43:34 PM IST  tracedemo  :  Scanning Properties  C++       BitsPerPixel -> "8"  ScanMode ->"SCAN_FRONT_REAR" 
Monday 17 October 2016 06:43:41 PM IST  tracedemo  :  Scanning EXECUTED  C++       Response -> ONLINE
Mon Oct 17 06:43:41 2016 PM   tracedemo  :  SCanning   SP   Passbook Placed Vertically    Response -> UNSUCCESSFUL Scan
Mon Oct 17 06:43:41 2016 PM tracedemo  :  Scanning EXITING  SP       Response -> SUCCESS     Barcode Data -> IMPROPER_PASSBOOK_INSERTION
Mon Oct 17 06:43:41 2016 PM   tracedemo  :  Eject ENTERING  SP       Response -> SUCCESS
Monday 17 October 2016 06:43:42 PM IST  tracedemo  :  Eject  ENTERING  C++       Response -> SUCCESS
Monday 17 October 2016 06:43:42 PM IST  tracedemo  :  Eject EXECUTED  C++       Response -> ONLINE  Error_Code -> "0"
Mon Oct 17 06:43:42 2016 PM   tracedemo  :  Eject Executed  SP       Response -> SUCCESS
Mon Oct 17 06:43:53 2016 PM   tracedemo  :  Configuration ENTERING  SP       Response -> SUCCESS
Monday 17 October 2016 06:43:53 PM IST  tracedemo  :  Configuration ENTERING  C++       Response -> SUCCESS
Monday 17 October 2016 06:43:53 PM IST  tracedemo  :  Configuration CPI & LPI  C++       CPI ->"10"  LPI ->"40"   Response -> SUCCESS
Monday 17 October 2016 06:43:58 PM IST  tracedemo  :   Device Successfully Initialized  C++       Response -> SUCCESS
Mon Oct 17 06:44:02 2016 PM   tracedemo  :  Configuration ENTERING  SP       Response -> SUCCESS
Monday 17 October 2016 06:44:02 PM IST  tracedemo  :  Configuration ENTERING  C++       Response -> SUCCESS
Monday 17 October 2016 06:44:02 PM IST  tracedemo  :  Configuration CPI & LPI  C++       CPI ->"10"  LPI ->"40"   Response -> SUCCESS
Monday 17 October 2016 06:44:02 PM IST  tracedemo  :   Device Successfully Initialized  C++       Response -> SUCCESS
Mon Oct 17 06:44:03 2016 PM   tracedemo  :  Paper Status ENTERING  SP       Response -> SUCCESS
Monday 17 October 2016 06:44:03 PM IST  tracedemo  :  Paper Status  ENTERING  C++       Response -> SUCCESS
Monday 17 October 2016 06:44:03 PM IST  tracedemo  :  Paper Status EXECUTED  C++   Response -> "DOCEJECTED"  Status -> "1"
Mon Oct 17 06:44:03 2016 PM   tracedemo  :  Paper Status EXITING  SP       Response -> DOCEJECTED
Mon Oct 17 06:44:04 2016 PM   tracedemo  :  Paper Status ENTERING  SP       Response -> SUCCESS
Monday 17 October 2016 06:44:04 PM IST  tracedemo  :  Paper Status  ENTERING  C++       Response -> SUCCESS
Monday 17 October 2016 06:44:04 PM IST  tracedemo  :  Paper Status EXECUTED  C++   Response -> "DOCEJECTED"  Status -> "1"
Mon Oct 17 06:44:04 2016 PM   tracedemo  :  Paper Status EXITING  SP       Response -> DOCEJECTED
Mon Oct 17 06:44:05 2016 PM   tracedemo  :  Paper Status ENTERING  SP       Response -> SUCCESS
Monday 17 October 2016 06:44:05 PM IST  tracedemo  :  Paper Status  ENTERING  C++       Response -> SUCCESS
Monday 17 October 2016 06:44:05 PM IST  tracedemo  :  Paper Status EXECUTED  C++   Response -> "DOCEJECTED"  Status -> "1"
Mon Oct 17 06:44:05 2016 PM   tracedemo  :  Paper Status EXITING  SP       Response -> DOCEJECTED
Mon Oct 17 06:44:06 2016 PM   tracedemo  :  Paper Status ENTERING  SP       Response -> SUCCESS
Monday 17 October 2016 06:44:06 PM IST  tracedemo  :  Paper Status  ENTERING  C++       Response -> SUCCESS
Monday 17 October 2016 06:44:06 PM IST  tracedemo  :  Paper Status EXECUTED  C++   Response -> "DOCEJECTED"  Status -> "1"
Mon Oct 17 06:44:06 2016 PM   tracedemo  :  Paper Status EXITING  SP       Response -> DOCEJECTED
Mon Oct 17 06:44:07 2016 PM   tracedemo  :  Paper Status ENTERING  SP       Response -> SUCCESS
Monday 17 October 2016 06:44:07 PM IST  tracedemo  :  Paper Status  ENTERING  C++       Response -> SUCCESS
Monday 17 October 2016 06:44:07 PM IST  tracedemo  :  Paper Status EXECUTED  C++   Response -> "DOCEJECTED"  Status -> "1"
Mon Oct 17 06:44:07 2016 PM   tracedemo  :  Paper Status EXITING  SP       Response -> DOCEJECTED
Mon Oct 17 06:44:08 2016 PM   tracedemo  :  Paper Status ENTERING  SP       Response -> SUCCESS
Monday 17 October 2016 06:44:08 PM IST  tracedemo  :  Paper Status  ENTERING  C++       Response -> SUCCESS
Monday 17 October 2016 06:44:08 PM IST  tracedemo  :  Paper Status EXECUTED  C++   Response -> "DOCEJECTED"  Status -> "1"
Mon Oct 17 06:44:08 2016 PM   tracedemo  :  Paper Status EXITING  SP       Response -> DOCEJECTED
Mon Oct 17 06:44:09 2016 PM   tracedemo  :  Paper Status ENTERING  SP       Response -> SUCCESS
Monday 17 October 2016 06:44:09 PM IST  tracedemo  :  Paper Status  ENTERING  C++       Response -> SUCCESS
Monday 17 October 2016 06:44:09 PM IST  tracedemo  :  Paper Status EXECUTED  C++   Response -> "DOCEJECTED"  Status -> "1"
Mon Oct 17 06:44:09 2016 PM   tracedemo  :  Paper Status EXITING  SP       Response -> DOCEJECTED
Mon Oct 17 06:44:10 2016 PM   tracedemo  :  Paper Status ENTERING  SP       Response -> SUCCESS
Monday 17 October 2016 06:44:10 PM IST  tracedemo  :  Paper Status  ENTERING  C++       Response -> SUCCESS
Monday 17 October 2016 06:44:10 PM IST  tracedemo  :  Paper Status EXECUTED  C++   Response -> "DOCEJECTED"  Status -> "1"
Mon Oct 17 06:44:10 2016 PM   tracedemo  :  Paper Status EXITING  SP       Response -> DOCEJECTED
Mon Oct 17 06:44:11 2016 PM   tracedemo  :  Paper Status ENTERING  SP       Response -> SUCCESS
Monday 17 October 2016 06:44:11 PM IST  tracedemo  :  Paper Status  ENTERING  C++       Response -> SUCCESS
Monday 17 October 2016 06:44:11 PM IST  tracedemo  :  Paper Status EXECUTED  C++   Response -> "DOCEJECTED"  Status -> "1"
Mon Oct 17 06:44:11 2016 PM   tracedemo  :  Paper Status EXITING  SP       Response -> DOCEJECTED
Mon Oct 17 06:44:12 2016 PM   tracedemo  :  Paper Status ENTERING  SP       Response -> SUCCESS
Monday 17 October 2016 06:44:12 PM IST  tracedemo  :  Paper Status  ENTERING  C++       Response -> SUCCESS
Monday 17 October 2016 06:44:12 PM IST  tracedemo  :  Paper Status EXECUTED  C++   Response -> "DOCEJECTED"  Status -> "1"
Mon Oct 17 06:44:12 2016 PM   tracedemo  :  Paper Status EXITING  SP       Response -> DOCEJECTED
Mon Oct 17 06:44:13 2016 PM   tracedemo  :  Paper Status ENTERING  SP       Response -> SUCCESS
Monday 17 October 2016 06:44:13 PM IST  tracedemo  :  Paper Status  ENTERING  C++       Response -> SUCCESS
Monday 17 October 2016 06:44:13 PM IST  tracedemo  :  Paper Status EXECUTED  C++   Response -> "DOCEJECTED"  Status -> "1"
Mon Oct 17 06:44:13 2016 PM   tracedemo  :  Paper Status EXITING  SP       Response -> DOCEJECTED
Mon Oct 17 06:44:14 2016 PM   tracedemo  :  Paper Status ENTERING  SP       Response -> SUCCESS
Monday 17 October 2016 06:44:14 PM IST  tracedemo  :  Paper Status  ENTERING  C++       Response -> SUCCESS
Monday 17 October 2016 06:44:14 PM IST  tracedemo  :  Paper Status EXECUTED  C++   Response -> "DOCEJECTED"  Status -> "1"
Mon Oct 17 06:44:14 2016 PM   tracedemo  :  Paper Status EXITING  SP       Response -> DOCEJECTED
Mon Oct 17 06:44:15 2016 PM   tracedemo  :  Paper Status ENTERING  SP       Response -> SUCCESS
Monday 17 October 2016 06:44:15 PM IST  tracedemo  :  Paper Status  ENTERING  C++       Response -> SUCCESS
Monday 17 October 2016 06:44:15 PM IST  tracedemo  :  Paper Status EXECUTED  C++   Response -> "DOCPRESENT"  Status -> "2"
Mon Oct 17 06:44:15 2016 PM   tracedemo  :  Paper Status EXITING  SP       Response -> DOCPRESENT
Mon Oct 17 06:44:15 2016 PM   tracedemo  :  Scanning ENTERING  SP       Response -> SUCCESS
Monday 17 October 2016 06:44:15 PM IST  tracedemo  :  Scanning  ENTERING  C++       Response -> SUCCESS
Monday 17 October 2016 06:44:15 PM IST  tracedemo  :  Scanning Properties  C++       BitsPerPixel -> "8"  ScanMode ->"SCAN_FRONT_REAR" 
Monday 17 October 2016 06:44:22 PM IST  tracedemo  :  Scanning EXECUTED  C++       Response -> ONLINE
Mon Oct 17 06:44:22 2016 PM   tracedemo  :  SCanning   SP   Passbook Placed Vertically    Response -> UNSUCCESSFUL Scan
Mon Oct 17 06:44:22 2016 PM tracedemo  :  Scanning EXITING  SP       Response -> SUCCESS     Barcode Data -> IMPROPER_PASSBOOK_INSERTION
Mon Oct 17 06:44:23 2016 PM   tracedemo  :  Eject ENTERING  SP       Response -> SUCCESS
Monday 17 October 2016 06:44:24 PM IST  tracedemo  :  Eject  ENTERING  C++       Response -> SUCCESS
Monday 17 October 2016 06:44:24 PM IST  tracedemo  :  Eject EXECUTED  C++       Response -> ONLINE  Error_Code -> "0"
Mon Oct 17 06:44:24 2016 PM   tracedemo  :  Eject Executed  SP       Response -> SUCCESS
Mon Oct 17 06:44:35 2016 PM   tracedemo  :  Configuration ENTERING  SP       Response -> SUCCESS
Monday 17 October 2016 06:44:35 PM IST  tracedemo  :  Configuration ENTERING  C++       Response -> SUCCESS
Monday 17 October 2016 06:44:35 PM IST  tracedemo  :  Configuration CPI & LPI  C++       CPI ->"10"  LPI ->"40"   Response -> SUCCESS
Monday 17 October 2016 06:44:35 PM IST  tracedemo  :   Device Successfully Initialized  C++       Response -> SUCCESS
Mon Oct 17 06:44:36 2016 PM   tracedemo  :  Paper Status ENTERING  SP       Response -> SUCCESS
Monday 17 October 2016 06:44:36 PM IST  tracedemo  :  Paper Status  ENTERING  C++       Response -> SUCCESS
Monday 17 October 2016 06:44:36 PM IST  tracedemo  :  Paper Status EXECUTED  C++   Response -> "DOCPRESENT"  Status -> "2"
Mon Oct 17 06:44:36 2016 PM   tracedemo  :  Paper Status EXITING  SP       Response -> DOCPRESENT
Mon Oct 17 06:44:36 2016 PM   tracedemo  :  Scanning ENTERING  SP       Response -> SUCCESS
Monday 17 October 2016 06:44:36 PM IST  tracedemo  :  Scanning  ENTERING  C++       Response -> SUCCESS
Monday 17 October 2016 06:44:36 PM IST  tracedemo  :  Scanning Properties  C++       BitsPerPixel -> "8"  ScanMode ->"SCAN_FRONT_REAR" 
Monday 17 October 2016 06:44:44 PM IST  tracedemo  :  Scanning EXECUTED  C++       Response -> ONLINE
Mon Oct 17 06:44:44 2016 PM   tracedemo  :  SCanning   SP   Passbook Placed Vertically    Response -> UNSUCCESSFUL Scan
Mon Oct 17 06:44:44 2016 PM tracedemo  :  Scanning EXITING  SP       Response -> SUCCESS     Barcode Data -> IMPROPER_PASSBOOK_INSERTION
Mon Oct 17 06:45:20 2016 PM   tracedemo  :  Eject ENTERING  SP       Response -> SUCCESS
Monday 17 October 2016 06:45:21 PM IST  tracedemo  :  Eject  ENTERING  C++       Response -> SUCCESS
Monday 17 October 2016 06:45:21 PM IST  tracedemo  :  Eject EXECUTED  C++       Response -> ONLINE  Error_Code -> "0"
Mon Oct 17 06:45:21 2016 PM   tracedemo  :  Eject Executed  SP       Response -> SUCCESS
Mon Oct 17 06:55:04 2016 PM   tracedemo  :  Configuration ENTERING  SP       Response -> SUCCESS
Monday 17 October 2016 06:55:04 PM IST  tracedemo  :  Configuration ENTERING  C++       Response -> SUCCESS
Monday 17 October 2016 06:55:04 PM IST  tracedemo  :  Configuration CPI & LPI  C++       CPI ->"10"  LPI ->"40"   Response -> SUCCESS
Monday 17 October 2016 06:55:04 PM IST  tracedemo  :   Device Successfully Initialized  C++       Response -> SUCCESS
Mon Oct 17 06:55:05 2016 PM   tracedemo  :  Paper Status ENTERING  SP       Response -> SUCCESS
Monday 17 October 2016 06:55:05 PM IST  tracedemo  :  Paper Status  ENTERING  C++       Response -> SUCCESS
Monday 17 October 2016 06:55:05 PM IST  tracedemo  :  Paper Status EXECUTED  C++   Response -> "DOCABSENT"  Status -> "0"
Mon Oct 17 06:55:05 2016 PM   tracedemo  :  Paper Status EXITING  SP       Response -> DOCABSENT
Mon Oct 17 06:55:06 2016 PM   tracedemo  :  Paper Status ENTERING  SP       Response -> SUCCESS
Monday 17 October 2016 06:55:06 PM IST  tracedemo  :  Paper Status  ENTERING  C++       Response -> SUCCESS
Monday 17 October 2016 06:55:06 PM IST  tracedemo  :  Paper Status EXECUTED  C++   Response -> "DOCABSENT"  Status -> "0"
Mon Oct 17 06:55:06 2016 PM   tracedemo  :  Paper Status EXITING  SP       Response -> DOCABSENT
Mon Oct 17 06:55:07 2016 PM   tracedemo  :  Paper Status ENTERING  SP       Response -> SUCCESS
Monday 17 October 2016 06:55:07 PM IST  tracedemo  :  Paper Status  ENTERING  C++       Response -> SUCCESS
Monday 17 October 2016 06:55:07 PM IST  tracedemo  :  Paper Status EXECUTED  C++   Response -> "DOCABSENT"  Status -> "0"
Mon Oct 17 06:55:07 2016 PM   tracedemo  :  Paper Status EXITING  SP       Response -> DOCABSENT
Mon Oct 17 06:55:08 2016 PM   tracedemo  :  Paper Status ENTERING  SP       Response -> SUCCESS
Monday 17 October 2016 06:55:08 PM IST  tracedemo  :  Paper Status  ENTERING  C++       Response -> SUCCESS
Monday 17 October 2016 06:55:08 PM IST  tracedemo  :  Paper Status EXECUTED  C++   Response -> "DOCABSENT"  Status -> "0"
Mon Oct 17 06:55:08 2016 PM   tracedemo  :  Paper Status EXITING  SP       Response -> DOCABSENT
Mon Oct 17 06:55:09 2016 PM   tracedemo  :  Paper Status ENTERING  SP       Response -> SUCCESS
Monday 17 October 2016 06:55:09 PM IST  tracedemo  :  Paper Status  ENTERING  C++       Response -> SUCCESS
Monday 17 October 2016 06:55:09 PM IST  tracedemo  :  Paper Status EXECUTED  C++   Response -> "DOCABSENT"  Status -> "0"
Mon Oct 17 06:55:09 2016 PM   tracedemo  :  Paper Status EXITING  SP       Response -> DOCABSENT
Mon Oct 17 06:55:10 2016 PM   tracedemo  :  Paper Status ENTERING  SP       Response -> SUCCESS
Monday 17 October 2016 06:55:10 PM IST  tracedemo  :  Paper Status  ENTERING  C++       Response -> SUCCESS
Monday 17 October 2016 06:55:10 PM IST  tracedemo  :  Paper Status EXECUTED  C++   Response -> "DOCABSENT"  Status -> "0"
Mon Oct 17 06:55:10 2016 PM   tracedemo  :  Paper Status EXITING  SP       Response -> DOCABSENT
Mon Oct 17 06:55:11 2016 PM   tracedemo  :  Paper Status ENTERING  SP       Response -> SUCCESS
Monday 17 October 2016 06:55:11 PM IST  tracedemo  :  Paper Status  ENTERING  C++       Response -> SUCCESS
Monday 17 October 2016 06:55:11 PM IST  tracedemo  :  Paper Status EXECUTED  C++   Response -> "DOCABSENT"  Status -> "0"
Mon Oct 17 06:55:11 2016 PM   tracedemo  :  Paper Status EXITING  SP       Response -> DOCABSENT
Mon Oct 17 06:55:12 2016 PM   tracedemo  :  Paper Status ENTERING  SP       Response -> SUCCESS
Monday 17 October 2016 06:55:12 PM IST  tracedemo  :  Paper Status  ENTERING  C++       Response -> SUCCESS
Monday 17 October 2016 06:55:12 PM IST  tracedemo  :  Paper Status EXECUTED  C++   Response -> "DOCABSENT"  Status -> "0"
Mon Oct 17 06:55:12 2016 PM   tracedemo  :  Paper Status EXITING  SP       Response -> DOCABSENT
Mon Oct 17 06:55:13 2016 PM   tracedemo  :  Paper Status ENTERING  SP       Response -> SUCCESS
Monday 17 October 2016 06:55:13 PM IST  tracedemo  :  Paper Status  ENTERING  C++       Response -> SUCCESS
Monday 17 October 2016 06:55:13 PM IST  tracedemo  :  Paper Status EXECUTED  C++   Response -> "DOCABSENT"  Status -> "0"
Mon Oct 17 06:55:13 2016 PM   tracedemo  :  Paper Status EXITING  SP       Response -> DOCABSENT
Mon Oct 17 07:03:26 2016 PM   tracedemo  :  Configuration ENTERING  SP       Response -> SUCCESS
Monday 17 October 2016 07:03:26 PM IST  tracedemo  :  Configuration ENTERING  C++       Response -> SUCCESS
Monday 17 October 2016 07:03:26 PM IST  tracedemo  :  Configuration CPI & LPI  C++       CPI ->"10"  LPI ->"40"   Response -> SUCCESS
Mon Oct 17 07:05:10 2016 PM   tracedemo  :  Configuration ENTERING  SP       Response -> SUCCESS
Monday 17 October 2016 07:05:10 PM IST  tracedemo  :  Configuration ENTERING  C++       Response -> SUCCESS
Monday 17 October 2016 07:05:10 PM IST  tracedemo  :  Configuration CPI & LPI  C++       CPI ->"10"  LPI ->"40"   Response -> SUCCESS
Monday 17 October 2016 07:05:16 PM IST  tracedemo  :   Device Successfully Initialized  C++       Response -> SUCCESS
Mon Oct 17 07:05:18 2016 PM   tracedemo  :  Configuration ENTERING  SP       Response -> SUCCESS
Monday 17 October 2016 07:05:18 PM IST  tracedemo  :  Configuration ENTERING  C++       Response -> SUCCESS
Monday 17 October 2016 07:05:18 PM IST  tracedemo  :  Configuration CPI & LPI  C++       CPI ->"10"  LPI ->"40"   Response -> SUCCESS
Monday 17 October 2016 07:05:18 PM IST  tracedemo  :   Device Successfully Initialized  C++       Response -> SUCCESS
Mon Oct 17 07:05:19 2016 PM   tracedemo  :  Paper Status ENTERING  SP       Response -> SUCCESS
Monday 17 October 2016 07:05:19 PM IST  tracedemo  :  Paper Status  ENTERING  C++       Response -> SUCCESS
Monday 17 October 2016 07:05:19 PM IST  tracedemo  :  Paper Status EXECUTED  C++   Response -> "DOCABSENT"  Status -> "0"
Mon Oct 17 07:05:19 2016 PM   tracedemo  :  Paper Status EXITING  SP       Response -> DOCABSENT
Mon Oct 17 07:05:20 2016 PM   tracedemo  :  Paper Status ENTERING  SP       Response -> SUCCESS
Monday 17 October 2016 07:05:20 PM IST  tracedemo  :  Paper Status  ENTERING  C++       Response -> SUCCESS
Monday 17 October 2016 07:05:20 PM IST  tracedemo  :  Paper Status EXECUTED  C++   Response -> "DOCABSENT"  Status -> "0"
Mon Oct 17 07:05:20 2016 PM   tracedemo  :  Paper Status EXITING  SP       Response -> DOCABSENT
Mon Oct 17 07:05:21 2016 PM   tracedemo  :  Paper Status ENTERING  SP       Response -> SUCCESS
Monday 17 October 2016 07:05:21 PM IST  tracedemo  :  Paper Status  ENTERING  C++       Response -> SUCCESS
Monday 17 October 2016 07:05:21 PM IST  tracedemo  :  Paper Status EXECUTED  C++   Response -> "DOCABSENT"  Status -> "0"
Mon Oct 17 07:05:21 2016 PM   tracedemo  :  Paper Status EXITING  SP       Response -> DOCABSENT
Mon Oct 17 07:05:22 2016 PM   tracedemo  :  Paper Status ENTERING  SP       Response -> SUCCESS
Monday 17 October 2016 07:05:22 PM IST  tracedemo  :  Paper Status  ENTERING  C++       Response -> SUCCESS
Monday 17 October 2016 07:05:22 PM IST  tracedemo  :  Paper Status EXECUTED  C++   Response -> "DOCABSENT"  Status -> "0"
Mon Oct 17 07:05:22 2016 PM   tracedemo  :  Paper Status EXITING  SP       Response -> DOCABSENT
Mon Oct 17 07:05:23 2016 PM   tracedemo  :  Paper Status ENTERING  SP       Response -> SUCCESS
Monday 17 October 2016 07:05:23 PM IST  tracedemo  :  Paper Status  ENTERING  C++       Response -> SUCCESS
Monday 17 October 2016 07:05:23 PM IST  tracedemo  :  Paper Status EXECUTED  C++   Response -> "DOCABSENT"  Status -> "0"
Mon Oct 17 07:05:23 2016 PM   tracedemo  :  Paper Status EXITING  SP       Response -> DOCABSENT
Mon Oct 17 07:05:24 2016 PM   tracedemo  :  Paper Status ENTERING  SP       Response -> SUCCESS
Monday 17 October 2016 07:05:24 PM IST  tracedemo  :  Paper Status  ENTERING  C++       Response -> SUCCESS
Monday 17 October 2016 07:05:24 PM IST  tracedemo  :  Paper Status EXECUTED  C++   Response -> "DOCABSENT"  Status -> "0"
Mon Oct 17 07:05:24 2016 PM   tracedemo  :  Paper Status EXITING  SP       Response -> DOCABSENT
Mon Oct 17 07:05:25 2016 PM   tracedemo  :  Paper Status ENTERING  SP       Response -> SUCCESS
Monday 17 October 2016 07:05:25 PM IST  tracedemo  :  Paper Status  ENTERING  C++       Response -> SUCCESS
Monday 17 October 2016 07:05:25 PM IST  tracedemo  :  Paper Status EXECUTED  C++   Response -> "DOCABSENT"  Status -> "0"
Mon Oct 17 07:05:25 2016 PM   tracedemo  :  Paper Status EXITING  SP       Response -> DOCABSENT
Mon Oct 17 07:05:26 2016 PM   tracedemo  :  Paper Status ENTERING  SP       Response -> SUCCESS
Monday 17 October 2016 07:05:26 PM IST  tracedemo  :  Paper Status  ENTERING  C++       Response -> SUCCESS
Monday 17 October 2016 07:05:26 PM IST  tracedemo  :  Paper Status EXECUTED  C++   Response -> "DOCABSENT"  Status -> "0"
Mon Oct 17 07:05:26 2016 PM   tracedemo  :  Paper Status EXITING  SP       Response -> DOCABSENT
Mon Oct 17 07:05:27 2016 PM   tracedemo  :  Paper Status ENTERING  SP       Response -> SUCCESS
Monday 17 October 2016 07:05:27 PM IST  tracedemo  :  Paper Status  ENTERING  C++       Response -> SUCCESS
Monday 17 October 2016 07:05:27 PM IST  tracedemo  :  Paper Status EXECUTED  C++   Response -> "DOCABSENT"  Status -> "0"
Mon Oct 17 07:05:27 2016 PM   tracedemo  :  Paper Status EXITING  SP       Response -> DOCABSENT
Mon Oct 17 07:05:28 2016 PM   tracedemo  :  Paper Status ENTERING  SP       Response -> SUCCESS
Monday 17 October 2016 07:05:28 PM IST  tracedemo  :  Paper Status  ENTERING  C++       Response -> SUCCESS
Monday 17 October 2016 07:05:28 PM IST  tracedemo  :  Paper Status EXECUTED  C++   Response -> "DOCABSENT"  Status -> "0"
Mon Oct 17 07:05:28 2016 PM   tracedemo  :  Paper Status EXITING  SP       Response -> DOCABSENT
Mon Oct 17 07:05:29 2016 PM   tracedemo  :  Paper Status ENTERING  SP       Response -> SUCCESS
Monday 17 October 2016 07:05:29 PM IST  tracedemo  :  Paper Status  ENTERING  C++       Response -> SUCCESS
Monday 17 October 2016 07:05:29 PM IST  tracedemo  :  Paper Status EXECUTED  C++   Response -> "DOCABSENT"  Status -> "0"
Mon Oct 17 07:05:29 2016 PM   tracedemo  :  Paper Status EXITING  SP       Response -> DOCABSENT
Mon Oct 17 07:05:30 2016 PM   tracedemo  :  Paper Status ENTERING  SP       Response -> SUCCESS
Monday 17 October 2016 07:05:30 PM IST  tracedemo  :  Paper Status  ENTERING  C++       Response -> SUCCESS
Monday 17 October 2016 07:05:30 PM IST  tracedemo  :  Paper Status EXECUTED  C++   Response -> "DOCABSENT"  Status -> "0"
Mon Oct 17 07:05:30 2016 PM   tracedemo  :  Paper Status EXITING  SP       Response -> DOCABSENT
Mon Oct 17 07:05:31 2016 PM   tracedemo  :  Paper Status ENTERING  SP       Response -> SUCCESS
Monday 17 October 2016 07:05:31 PM IST  tracedemo  :  Paper Status  ENTERING  C++       Response -> SUCCESS
Monday 17 October 2016 07:05:32 PM IST  tracedemo  :  Paper Status EXECUTED  C++   Response -> "DOCEJECTED"  Status -> "1"
Mon Oct 17 07:05:32 2016 PM   tracedemo  :  Paper Status EXITING  SP       Response -> DOCEJECTED
Mon Oct 17 07:05:33 2016 PM   tracedemo  :  Paper Status ENTERING  SP       Response -> SUCCESS
Monday 17 October 2016 07:05:33 PM IST  tracedemo  :  Paper Status  ENTERING  C++       Response -> SUCCESS
Monday 17 October 2016 07:05:33 PM IST  tracedemo  :  Paper Status EXECUTED  C++   Response -> "DOCPRESENT"  Status -> "2"
Mon Oct 17 07:05:33 2016 PM   tracedemo  :  Paper Status EXITING  SP       Response -> DOCPRESENT
Mon Oct 17 07:05:33 2016 PM   tracedemo  :  Scanning ENTERING  SP       Response -> SUCCESS
Monday 17 October 2016 07:05:33 PM IST  tracedemo  :  Scanning  ENTERING  C++       Response -> SUCCESS
Monday 17 October 2016 07:05:33 PM IST  tracedemo  :  Scanning Properties  C++       BitsPerPixel -> "8"  ScanMode ->"SCAN_FRONT_REAR" 
Monday 17 October 2016 07:05:40 PM IST  tracedemo  :  Scanning EXECUTED  C++       Response -> ONLINE
Mon Oct 17 07:05:40 2016 PM   tracedemo  :  SCanning   SP   Passbook Placed Vertically    Response -> UNSUCCESSFUL Scan
Mon Oct 17 07:05:40 2016 PM tracedemo  :  Scanning EXITING  SP       Response -> SUCCESS     Barcode Data -> IMPROPER_PASSBOOK_INSERTION
Mon Oct 17 07:07:14 2016 PM   tracedemo  :  Eject ENTERING  SP       Response -> SUCCESS
Monday 17 October 2016 07:07:15 PM IST  tracedemo  :  Eject  ENTERING  C++       Response -> SUCCESS
Monday 17 October 2016 07:07:15 PM IST  tracedemo  :  Eject EXECUTED  C++       Response -> ONLINE  Error_Code -> "0"
Mon Oct 17 07:07:15 2016 PM   tracedemo  :  Eject Executed  SP       Response -> SUCCESS
Mon Oct 17 07:08:16 2016 PM   tracedemo  :  Configuration ENTERING  SP       Response -> SUCCESS
Monday 17 October 2016 07:08:16 PM IST  tracedemo  :  Configuration ENTERING  C++       Response -> SUCCESS
Monday 17 October 2016 07:08:16 PM IST  tracedemo  :  Configuration CPI & LPI  C++       CPI ->"10"  LPI ->"40"   Response -> SUCCESS
Monday 17 October 2016 07:08:16 PM IST  tracedemo  :   Device Successfully Initialized  C++       Response -> SUCCESS
Mon Oct 17 07:08:17 2016 PM   tracedemo  :  Paper Status ENTERING  SP       Response -> SUCCESS
Monday 17 October 2016 07:08:17 PM IST  tracedemo  :  Paper Status  ENTERING  C++       Response -> SUCCESS
Monday 17 October 2016 07:08:17 PM IST  tracedemo  :  Paper Status EXECUTED  C++   Response -> "DOCPRESENT"  Status -> "2"
Mon Oct 17 07:08:17 2016 PM   tracedemo  :  Paper Status EXITING  SP       Response -> DOCPRESENT
Mon Oct 17 07:08:17 2016 PM   tracedemo  :  Scanning ENTERING  SP       Response -> SUCCESS
Monday 17 October 2016 07:08:17 PM IST  tracedemo  :  Scanning  ENTERING  C++       Response -> SUCCESS
Monday 17 October 2016 07:08:17 PM IST  tracedemo  :  Scanning Properties  C++       BitsPerPixel -> "8"  ScanMode ->"SCAN_FRONT_REAR" 
Monday 17 October 2016 07:08:25 PM IST  tracedemo  :  Scanning EXECUTED  C++       Response -> ONLINE
Mon Oct 17 07:08:25 2016 PM   tracedemo  :  SCanning   SP   Passbook Placed Vertically    Response -> UNSUCCESSFUL Scan
Mon Oct 17 07:08:25 2016 PM tracedemo  :  Scanning EXITING  SP       Response -> SUCCESS     Barcode Data -> IMPROPER_PASSBOOK_INSERTION
