Wed May 25 04:11:39 2016 PM   tracedemo  :  Configuration ENTERING  SP       Response -> SUCCESS
Wednesday 25 May 2016 04:11:39 PM IST  tracedemo  :  Configuration ENTERING  C++       Response -> SUCCESS
Wednesday 25 May 2016 04:11:39 PM IST  tracedemo  :  Configuration CPI & LPI  C++       CPI ->"17"  LPI ->"40"   Response -> SUCCESS
Wednesday 25 May 2016 04:11:45 PM IST  tracedemo  :   Device Successfully Initialized  C++       Response -> SUCCESS
Wed May 25 04:11:52 2016 PM   tracedemo  :  Configuration ENTERING  SP       Response -> SUCCESS
Wednesday 25 May 2016 04:11:52 PM IST  tracedemo  :  Configuration ENTERING  C++       Response -> SUCCESS
Wednesday 25 May 2016 04:11:52 PM IST  tracedemo  :  Configuration CPI & LPI  C++       CPI ->"17"  LPI ->"40"   Response -> SUCCESS
Wednesday 25 May 2016 04:11:52 PM IST  tracedemo  :   Device Successfully Initialized  C++       Response -> SUCCESS
Wed May 25 04:11:53 2016 PM   tracedemo  :  Paper Status ENTERING  SP       Response -> SUCCESS
Wednesday 25 May 2016 04:11:53 PM IST  tracedemo  :  Paper Status  ENTERING  C++       Response -> SUCCESS
Wednesday 25 May 2016 04:11:53 PM IST  tracedemo  :  Paper Status EXECUTED  C++   Response -> "DOCABSENT"  Status -> "0"
Wed May 25 04:11:53 2016 PM   tracedemo  :  Paper Status EXITING  SP       Response -> DOCABSENT
Wed May 25 04:11:54 2016 PM   tracedemo  :  Paper Status ENTERING  SP       Response -> SUCCESS
Wednesday 25 May 2016 04:11:54 PM IST  tracedemo  :  Paper Status  ENTERING  C++       Response -> SUCCESS
Wednesday 25 May 2016 04:11:54 PM IST  tracedemo  :  Paper Status EXECUTED  C++   Response -> "DOCABSENT"  Status -> "0"
Wed May 25 04:11:54 2016 PM   tracedemo  :  Paper Status EXITING  SP       Response -> DOCABSENT
Wed May 25 04:11:55 2016 PM   tracedemo  :  Paper Status ENTERING  SP       Response -> SUCCESS
Wednesday 25 May 2016 04:11:55 PM IST  tracedemo  :  Paper Status  ENTERING  C++       Response -> SUCCESS
Wednesday 25 May 2016 04:11:55 PM IST  tracedemo  :  Paper Status EXECUTED  C++   Response -> "DOCABSENT"  Status -> "0"
Wed May 25 04:11:55 2016 PM   tracedemo  :  Paper Status EXITING  SP       Response -> DOCABSENT
Wed May 25 04:11:56 2016 PM   tracedemo  :  Paper Status ENTERING  SP       Response -> SUCCESS
Wednesday 25 May 2016 04:11:56 PM IST  tracedemo  :  Paper Status  ENTERING  C++       Response -> SUCCESS
Wednesday 25 May 2016 04:11:56 PM IST  tracedemo  :  Paper Status EXECUTED  C++   Response -> "DOCABSENT"  Status -> "0"
Wed May 25 04:11:56 2016 PM   tracedemo  :  Paper Status EXITING  SP       Response -> DOCABSENT
Wed May 25 04:11:57 2016 PM   tracedemo  :  Paper Status ENTERING  SP       Response -> SUCCESS
Wednesday 25 May 2016 04:11:57 PM IST  tracedemo  :  Paper Status  ENTERING  C++       Response -> SUCCESS
Wednesday 25 May 2016 04:11:57 PM IST  tracedemo  :  Paper Status EXECUTED  C++   Response -> "DOCABSENT"  Status -> "0"
Wed May 25 04:11:57 2016 PM   tracedemo  :  Paper Status EXITING  SP       Response -> DOCABSENT
Wed May 25 04:11:58 2016 PM   tracedemo  :  Paper Status ENTERING  SP       Response -> SUCCESS
Wednesday 25 May 2016 04:11:58 PM IST  tracedemo  :  Paper Status  ENTERING  C++       Response -> SUCCESS
Wednesday 25 May 2016 04:11:58 PM IST  tracedemo  :  Paper Status EXECUTED  C++   Response -> "DOCABSENT"  Status -> "0"
Wed May 25 04:11:58 2016 PM   tracedemo  :  Paper Status EXITING  SP       Response -> DOCABSENT
Wed May 25 04:14:24 2016 PM   tracedemo  :  Configuration ENTERING  SP       Response -> SUCCESS
Wednesday 25 May 2016 04:14:24 PM IST  tracedemo  :  Configuration ENTERING  C++       Response -> SUCCESS
Wednesday 25 May 2016 04:14:24 PM IST  tracedemo  :  Configuration CPI & LPI  C++       CPI ->"17"  LPI ->"40"   Response -> SUCCESS
Wednesday 25 May 2016 04:14:30 PM IST  tracedemo  :   Device Successfully Initialized  C++       Response -> SUCCESS
Wed May 25 04:17:07 2016 PM   tracedemo  :  Configuration ENTERING  SP       Response -> SUCCESS
Wednesday 25 May 2016 04:17:07 PM IST  tracedemo  :  Configuration ENTERING  C++       Response -> SUCCESS
Wednesday 25 May 2016 04:17:07 PM IST  tracedemo  :  Configuration CPI & LPI  C++       CPI ->"17"  LPI ->"40"   Response -> SUCCESS
Wednesday 25 May 2016 04:17:13 PM IST  tracedemo  :   Device Successfully Initialized  C++       Response -> SUCCESS
Wed May 25 04:17:17 2016 PM   tracedemo  :  Configuration ENTERING  SP       Response -> SUCCESS
Wednesday 25 May 2016 04:17:17 PM IST  tracedemo  :  Configuration ENTERING  C++       Response -> SUCCESS
Wednesday 25 May 2016 04:17:17 PM IST  tracedemo  :  Configuration CPI & LPI  C++       CPI ->"17"  LPI ->"40"   Response -> SUCCESS
Wednesday 25 May 2016 04:17:17 PM IST  tracedemo  :   Device Successfully Initialized  C++       Response -> SUCCESS
Wed May 25 04:17:18 2016 PM   tracedemo  :  Paper Status ENTERING  SP       Response -> SUCCESS
Wednesday 25 May 2016 04:17:18 PM IST  tracedemo  :  Paper Status  ENTERING  C++       Response -> SUCCESS
Wednesday 25 May 2016 04:17:18 PM IST  tracedemo  :  Paper Status EXECUTED  C++   Response -> "DOCABSENT"  Status -> "0"
Wed May 25 04:17:18 2016 PM   tracedemo  :  Paper Status EXITING  SP       Response -> DOCABSENT
Wed May 25 04:17:19 2016 PM   tracedemo  :  Paper Status ENTERING  SP       Response -> SUCCESS
Wednesday 25 May 2016 04:17:19 PM IST  tracedemo  :  Paper Status  ENTERING  C++       Response -> SUCCESS
Wednesday 25 May 2016 04:17:19 PM IST  tracedemo  :  Paper Status EXECUTED  C++   Response -> "DOCABSENT"  Status -> "0"
Wed May 25 04:17:19 2016 PM   tracedemo  :  Paper Status EXITING  SP       Response -> DOCABSENT
Wed May 25 04:17:20 2016 PM   tracedemo  :  Paper Status ENTERING  SP       Response -> SUCCESS
Wednesday 25 May 2016 04:17:20 PM IST  tracedemo  :  Paper Status  ENTERING  C++       Response -> SUCCESS
Wednesday 25 May 2016 04:17:20 PM IST  tracedemo  :  Paper Status EXECUTED  C++   Response -> "DOCABSENT"  Status -> "0"
Wed May 25 04:17:20 2016 PM   tracedemo  :  Paper Status EXITING  SP       Response -> DOCABSENT
Wed May 25 04:17:21 2016 PM   tracedemo  :  Paper Status ENTERING  SP       Response -> SUCCESS
Wednesday 25 May 2016 04:17:21 PM IST  tracedemo  :  Paper Status  ENTERING  C++       Response -> SUCCESS
Wednesday 25 May 2016 04:17:21 PM IST  tracedemo  :  Paper Status EXECUTED  C++   Response -> "DOCABSENT"  Status -> "0"
Wed May 25 04:17:21 2016 PM   tracedemo  :  Paper Status EXITING  SP       Response -> DOCABSENT
Wed May 25 04:17:22 2016 PM   tracedemo  :  Paper Status ENTERING  SP       Response -> SUCCESS
Wednesday 25 May 2016 04:17:22 PM IST  tracedemo  :  Paper Status  ENTERING  C++       Response -> SUCCESS
Wednesday 25 May 2016 04:17:22 PM IST  tracedemo  :  Paper Status EXECUTED  C++   Response -> "DOCABSENT"  Status -> "0"
Wed May 25 04:17:22 2016 PM   tracedemo  :  Paper Status EXITING  SP       Response -> DOCABSENT
Wed May 25 04:17:23 2016 PM   tracedemo  :  Paper Status ENTERING  SP       Response -> SUCCESS
Wednesday 25 May 2016 04:17:23 PM IST  tracedemo  :  Paper Status  ENTERING  C++       Response -> SUCCESS
Wednesday 25 May 2016 04:17:23 PM IST  tracedemo  :  Paper Status EXECUTED  C++   Response -> "DOCABSENT"  Status -> "0"
Wed May 25 04:17:23 2016 PM   tracedemo  :  Paper Status EXITING  SP       Response -> DOCABSENT
Wed May 25 04:17:24 2016 PM   tracedemo  :  Paper Status ENTERING  SP       Response -> SUCCESS
Wednesday 25 May 2016 04:17:24 PM IST  tracedemo  :  Paper Status  ENTERING  C++       Response -> SUCCESS
Wednesday 25 May 2016 04:17:24 PM IST  tracedemo  :  Paper Status EXECUTED  C++   Response -> "DOCABSENT"  Status -> "0"
Wed May 25 04:17:24 2016 PM   tracedemo  :  Paper Status EXITING  SP       Response -> DOCABSENT
Wed May 25 04:17:25 2016 PM   tracedemo  :  Paper Status ENTERING  SP       Response -> SUCCESS
Wednesday 25 May 2016 04:17:25 PM IST  tracedemo  :  Paper Status  ENTERING  C++       Response -> SUCCESS
Wednesday 25 May 2016 04:17:26 PM IST  tracedemo  :  Paper Status EXECUTED  C++   Response -> "DOCEJECTED"  Status -> "1"
Wed May 25 04:17:26 2016 PM   tracedemo  :  Paper Status EXITING  SP       Response -> DOCEJECTED
Wed May 25 04:17:27 2016 PM   tracedemo  :  Paper Status ENTERING  SP       Response -> SUCCESS
Wednesday 25 May 2016 04:17:27 PM IST  tracedemo  :  Paper Status  ENTERING  C++       Response -> SUCCESS
Wednesday 25 May 2016 04:17:27 PM IST  tracedemo  :  Paper Status EXECUTED  C++   Response -> "DOCPRESENT"  Status -> "2"
Wed May 25 04:17:27 2016 PM   tracedemo  :  Paper Status EXITING  SP       Response -> DOCPRESENT
Wed May 25 04:17:27 2016 PM   tracedemo  :  Scanning ENTERING  SP       Response -> SUCCESS
Wednesday 25 May 2016 04:17:27 PM IST  tracedemo  :  Scanning  ENTERING  C++       Response -> SUCCESS
Wednesday 25 May 2016 04:17:27 PM IST  tracedemo  :  Scanning Properties  C++       BitsPerPixel -> "8"  ScanMode ->"SCAN_FRONT_REAR" 
Wednesday 25 May 2016 04:17:32 PM IST  tracedemo  :  Scanning EXECUTED  C++       Response -> ONLINE
Wed May 25 04:17:32 2016 PM tracedemo  :  Scanning EXITING  SP       Response -> SUCCESS     Barcode Data -> null
Wed May 25 04:17:32 2016 PM   tracedemo  :  Eject ENTERING  SP       Response -> SUCCESS
Wednesday 25 May 2016 04:17:33 PM IST  tracedemo  :  Eject  ENTERING  C++       Response -> SUCCESS
Wednesday 25 May 2016 04:17:33 PM IST  tracedemo  :  Eject EXECUTED  C++       Response -> ONLINE  Error_Code -> "0"
Wed May 25 04:17:33 2016 PM   tracedemo  :  Eject Executed  SP       Response -> SUCCESS
Wed May 25 04:18:25 2016 PM   tracedemo  :  Configuration ENTERING  SP       Response -> SUCCESS
Wednesday 25 May 2016 04:18:25 PM IST  tracedemo  :  Configuration ENTERING  C++       Response -> SUCCESS
Wednesday 25 May 2016 04:18:25 PM IST  tracedemo  :  Configuration CPI & LPI  C++       CPI ->"17"  LPI ->"40"   Response -> SUCCESS
Wednesday 25 May 2016 04:18:31 PM IST  tracedemo  :   Device Successfully Initialized  C++       Response -> SUCCESS
Wed May 25 04:18:35 2016 PM   tracedemo  :  Configuration ENTERING  SP       Response -> SUCCESS
Wednesday 25 May 2016 04:18:35 PM IST  tracedemo  :  Configuration ENTERING  C++       Response -> SUCCESS
Wednesday 25 May 2016 04:18:35 PM IST  tracedemo  :  Configuration CPI & LPI  C++       CPI ->"17"  LPI ->"40"   Response -> SUCCESS
Wednesday 25 May 2016 04:18:35 PM IST  tracedemo  :   Device Successfully Initialized  C++       Response -> SUCCESS
Wed May 25 04:18:36 2016 PM   tracedemo  :  Paper Status ENTERING  SP       Response -> SUCCESS
Wednesday 25 May 2016 04:18:36 PM IST  tracedemo  :  Paper Status  ENTERING  C++       Response -> SUCCESS
Wednesday 25 May 2016 04:18:36 PM IST  tracedemo  :  Paper Status EXECUTED  C++   Response -> "DOCPRESENT"  Status -> "2"
Wed May 25 04:18:36 2016 PM   tracedemo  :  Paper Status EXITING  SP       Response -> DOCPRESENT
Wed May 25 04:18:36 2016 PM   tracedemo  :  Scanning ENTERING  SP       Response -> SUCCESS
Wednesday 25 May 2016 04:18:36 PM IST  tracedemo  :  Scanning  ENTERING  C++       Response -> SUCCESS
Wednesday 25 May 2016 04:18:36 PM IST  tracedemo  :  Scanning Properties  C++       BitsPerPixel -> "8"  ScanMode ->"SCAN_FRONT_REAR" 
Wednesday 25 May 2016 04:18:41 PM IST  tracedemo  :  Scanning EXECUTED  C++       Response -> ONLINE
Wed May 25 04:18:41 2016 PM tracedemo  :  Scanning EXITING  SP       Response -> SUCCESS     Barcode Data -> null
Wed May 25 04:18:41 2016 PM   tracedemo  :  Eject ENTERING  SP       Response -> SUCCESS
Wednesday 25 May 2016 04:18:42 PM IST  tracedemo  :  Eject  ENTERING  C++       Response -> SUCCESS
Wednesday 25 May 2016 04:18:42 PM IST  tracedemo  :  Eject EXECUTED  C++       Response -> ONLINE  Error_Code -> "0"
Wed May 25 04:18:42 2016 PM   tracedemo  :  Eject Executed  SP       Response -> SUCCESS
Wed May 25 04:59:33 2016 PM   tracedemo  :  Configuration ENTERING  SP       Response -> SUCCESS
Wednesday 25 May 2016 04:59:33 PM IST  tracedemo  :  Configuration ENTERING  C++       Response -> SUCCESS
Wednesday 25 May 2016 04:59:33 PM IST  tracedemo  :  Configuration CPI & LPI  C++       CPI ->"17"  LPI ->"40"   Response -> SUCCESS
Wednesday 25 May 2016 04:59:40 PM IST  tracedemo  :   Device Successfully Initialized  C++       Response -> SUCCESS
Wed May 25 04:59:42 2016 PM   tracedemo  :  Configuration ENTERING  SP       Response -> SUCCESS
Wednesday 25 May 2016 04:59:42 PM IST  tracedemo  :  Configuration ENTERING  C++       Response -> SUCCESS
Wednesday 25 May 2016 04:59:42 PM IST  tracedemo  :  Configuration CPI & LPI  C++       CPI ->"17"  LPI ->"40"   Response -> SUCCESS
Wednesday 25 May 2016 04:59:42 PM IST  tracedemo  :   Device Successfully Initialized  C++       Response -> SUCCESS
Wed May 25 04:59:43 2016 PM   tracedemo  :  Paper Status ENTERING  SP       Response -> SUCCESS
Wednesday 25 May 2016 04:59:43 PM IST  tracedemo  :  Paper Status  ENTERING  C++       Response -> SUCCESS
Wednesday 25 May 2016 04:59:43 PM IST  tracedemo  :  Paper Status EXECUTED  C++   Response -> "DOCPRESENT"  Status -> "2"
Wed May 25 04:59:43 2016 PM   tracedemo  :  Paper Status EXITING  SP       Response -> DOCPRESENT
Wed May 25 04:59:43 2016 PM   tracedemo  :  Scanning ENTERING  SP       Response -> SUCCESS
Wednesday 25 May 2016 04:59:43 PM IST  tracedemo  :  Scanning  ENTERING  C++       Response -> SUCCESS
Wednesday 25 May 2016 04:59:43 PM IST  tracedemo  :  Scanning Properties  C++       BitsPerPixel -> "8"  ScanMode ->"SCAN_FRONT_REAR" 
Wednesday 25 May 2016 04:59:47 PM IST  tracedemo  :  Scanning EXECUTED  C++       Response -> ONLINE
Wed May 25 04:59:48 2016 PM tracedemo  :  Scanning EXITING  SP       Response -> SUCCESS     Barcode Data -> null
Wed May 25 04:59:48 2016 PM   tracedemo  :  Eject ENTERING  SP       Response -> SUCCESS
Wednesday 25 May 2016 04:59:49 PM IST  tracedemo  :  Eject  ENTERING  C++       Response -> SUCCESS
Wednesday 25 May 2016 04:59:49 PM IST  tracedemo  :  Eject EXECUTED  C++       Response -> ONLINE  Error_Code -> "0"
Wed May 25 04:59:49 2016 PM   tracedemo  :  Eject Executed  SP       Response -> SUCCESS
Wed May 25 05:10:28 2016 PM   tracedemo  :  Configuration ENTERING  SP       Response -> SUCCESS
Wednesday 25 May 2016 05:10:28 PM IST  tracedemo  :  Configuration ENTERING  C++       Response -> SUCCESS
Wednesday 25 May 2016 05:10:28 PM IST  tracedemo  :  Configuration CPI & LPI  C++       CPI ->"17"  LPI ->"40"   Response -> SUCCESS
Wednesday 25 May 2016 05:10:33 PM IST  tracedemo  :   Device Successfully Initialized  C++       Response -> SUCCESS
Wed May 25 05:10:35 2016 PM   tracedemo  :  Configuration ENTERING  SP       Response -> SUCCESS
Wednesday 25 May 2016 05:10:35 PM IST  tracedemo  :  Configuration ENTERING  C++       Response -> SUCCESS
Wednesday 25 May 2016 05:10:35 PM IST  tracedemo  :  Configuration CPI & LPI  C++       CPI ->"17"  LPI ->"40"   Response -> SUCCESS
Wednesday 25 May 2016 05:10:35 PM IST  tracedemo  :   Device Successfully Initialized  C++       Response -> SUCCESS
Wed May 25 05:10:36 2016 PM   tracedemo  :  Paper Status ENTERING  SP       Response -> SUCCESS
Wednesday 25 May 2016 05:10:36 PM IST  tracedemo  :  Paper Status  ENTERING  C++       Response -> SUCCESS
Wednesday 25 May 2016 05:10:36 PM IST  tracedemo  :  Paper Status EXECUTED  C++   Response -> "DOCPRESENT"  Status -> "2"
Wed May 25 05:10:36 2016 PM   tracedemo  :  Paper Status EXITING  SP       Response -> DOCPRESENT
Wed May 25 05:10:36 2016 PM   tracedemo  :  Scanning ENTERING  SP       Response -> SUCCESS
Wednesday 25 May 2016 05:10:36 PM IST  tracedemo  :  Scanning  ENTERING  C++       Response -> SUCCESS
Wednesday 25 May 2016 05:10:36 PM IST  tracedemo  :  Scanning Properties  C++       BitsPerPixel -> "8"  ScanMode ->"SCAN_FRONT_REAR" 
Wednesday 25 May 2016 05:10:41 PM IST  tracedemo  :  Scanning EXECUTED  C++       Response -> ONLINE
Wed May 25 05:10:42 2016 PM   tracedemo  :   Barcode Range specified Min->9  Max->16SP       
Wed May 25 05:10:42 2016 PM   tracedemo  :   Length of barcode retrieved ->16  SP       
Wed May 25 05:10:42 2016 PM   tracedemo  :  Barcode scanning successfully executed  SP       Response -> SUCCESSFULL	Barcode Data ->	0241301000021111
Wed May 25 05:10:42 2016 PM   tracedemo  :  SCanning   SP   LOWER REGION specified for scanning
Wed May 25 05:10:42 2016 PM tracedemo  :  Scanning EXITING  SP       Response -> SUCCESS     Barcode Data -> 0241301000021111
Wed May 25 05:11:44 2016 PM   tracedemo  :  Configuration ENTERING  SP       Response -> SUCCESS
Wednesday 25 May 2016 05:11:44 PM IST  tracedemo  :  Configuration ENTERING  C++       Response -> SUCCESS
Wednesday 25 May 2016 05:11:44 PM IST  tracedemo  :  Configuration CPI & LPI  C++       CPI ->"17"  LPI ->"40"   Response -> SUCCESS
Wednesday 25 May 2016 05:11:51 PM IST  tracedemo  :   Device Successfully Initialized  C++       Response -> SUCCESS
Wed May 25 05:11:53 2016 PM   tracedemo  :  Configuration ENTERING  SP       Response -> SUCCESS
Wednesday 25 May 2016 05:11:53 PM IST  tracedemo  :  Configuration ENTERING  C++       Response -> SUCCESS
Wednesday 25 May 2016 05:11:53 PM IST  tracedemo  :  Configuration CPI & LPI  C++       CPI ->"17"  LPI ->"40"   Response -> SUCCESS
Wednesday 25 May 2016 05:11:53 PM IST  tracedemo  :   Device Successfully Initialized  C++       Response -> SUCCESS
Wed May 25 05:11:54 2016 PM   tracedemo  :  Paper Status ENTERING  SP       Response -> SUCCESS
Wednesday 25 May 2016 05:11:54 PM IST  tracedemo  :  Paper Status  ENTERING  C++       Response -> SUCCESS
Wednesday 25 May 2016 05:11:54 PM IST  tracedemo  :  Paper Status EXECUTED  C++   Response -> "DOCPRESENT"  Status -> "2"
Wed May 25 05:11:54 2016 PM   tracedemo  :  Paper Status EXITING  SP       Response -> DOCPRESENT
Wed May 25 05:11:54 2016 PM   tracedemo  :  Scanning ENTERING  SP       Response -> SUCCESS
Wednesday 25 May 2016 05:11:54 PM IST  tracedemo  :  Scanning  ENTERING  C++       Response -> SUCCESS
Wednesday 25 May 2016 05:11:54 PM IST  tracedemo  :  Scanning Properties  C++       BitsPerPixel -> "8"  ScanMode ->"SCAN_FRONT_REAR" 
Wednesday 25 May 2016 05:11:59 PM IST  tracedemo  :  Scanning EXECUTED  C++       Response -> ONLINE
Wed May 25 05:12:00 2016 PM   tracedemo  :   Barcode Range specified Min->9  Max->16SP       
Wed May 25 05:12:00 2016 PM   tracedemo  :   Length of barcode retrieved ->16  SP       
Wed May 25 05:12:00 2016 PM   tracedemo  :  Barcode scanning successfully executed  SP       Response -> SUCCESSFULL	Barcode Data ->	0241301000021111
Wed May 25 05:12:00 2016 PM   tracedemo  :  SCanning   SP   LOWER REGION specified for scanning
Wed May 25 05:12:00 2016 PM tracedemo  :  Scanning EXITING  SP       Response -> SUCCESS     Barcode Data -> 0241301000021111
Wed May 25 05:12:15 2016 PM   tracedemo  :  Print ENTERING  SP       Response -> SUCCESS
Wednesday 25 May 2016 05:12:15 PM IST  tracedemo  :  Printing  ENTERING  C++       Response -> SUCCESS
Wednesday 25 May 2016 05:12:15 PM IST  tracedemo  :  Printing path  C++       Path ->  "/root/forbes/microbanker/bin/Print_Files/PrintFile.txt"
Wednesday 25 May 2016 05:12:22 PM IST  tracedemo  :  Printing EXECUTED  C++       Response -> ONLINE
Wed May 25 05:12:22 2016 PM   tracedemo  :  Print EXITING  SP       Response -> SUCCESS
Wed May 25 05:12:22 2016 PM   tracedemo  :  Eject ENTERING  SP       Response -> SUCCESS
Wednesday 25 May 2016 05:12:24 PM IST  tracedemo  :  Eject  ENTERING  C++       Response -> SUCCESS
Wednesday 25 May 2016 05:12:24 PM IST  tracedemo  :  Eject EXECUTED  C++       Response -> ONLINE  Error_Code -> "0"
Wed May 25 05:12:24 2016 PM   tracedemo  :  Eject Executed  SP       Response -> SUCCESS
Wed May 25 06:04:06 2016 PM   tracedemo  :  Configuration ENTERING  SP       Response -> SUCCESS
Wednesday 25 May 2016 06:04:06 PM IST  tracedemo  :  Configuration ENTERING  C++       Response -> SUCCESS
Wednesday 25 May 2016 06:04:06 PM IST  tracedemo  :  Configuration CPI & LPI  C++       CPI ->"17"  LPI ->"40"   Response -> SUCCESS
Wednesday 25 May 2016 06:04:12 PM IST  tracedemo  :   Device Successfully Initialized  C++       Response -> SUCCESS
