Mon Apr 18 10:45:11 2016 AM   tracedemo  :  Configuration ENTERING  SP       Response -> SUCCESS
Monday 18 April 2016 10:45:11 AM IST  tracedemo  :  Configuration ENTERING  C++       Response -> SUCCESS
Monday 18 April 2016 10:45:11 AM IST  tracedemo  :  Configuration CPI & LPI  C++       CPI ->"17"  LPI ->"40"   Response -> SUCCESS
Monday 18 April 2016 10:45:17 AM IST  tracedemo  :   Device Successfully Initialized  C++       Response -> SUCCESS
Mon Apr 18 10:45:41 2016 AM   tracedemo  :  Configuration ENTERING  SP       Response -> SUCCESS
Monday 18 April 2016 10:45:41 AM IST  tracedemo  :  Configuration ENTERING  C++       Response -> SUCCESS
Monday 18 April 2016 10:45:41 AM IST  tracedemo  :  Configuration CPI & LPI  C++       CPI ->"17"  LPI ->"40"   Response -> SUCCESS
Monday 18 April 2016 10:45:41 AM IST  tracedemo  :   Device Successfully Initialized  C++       Response -> SUCCESS
Mon Apr 18 10:45:42 2016 AM   tracedemo  :  Paper Status ENTERING  SP       Response -> SUCCESS
Monday 18 April 2016 10:45:42 AM IST  tracedemo  :  Paper Status  ENTERING  C++       Response -> SUCCESS
Monday 18 April 2016 10:45:42 AM IST  tracedemo  :  Paper Status EXECUTED  C++   Response -> "DOCABSENT"  Status -> "0"
Mon Apr 18 10:45:42 2016 AM   tracedemo  :  Paper Status EXITING  SP       Response -> DOCABSENT
Mon Apr 18 10:45:42 2016 AM   tracedemo  :  Scanning ENTERING  SP       Response -> SUCCESS
Monday 18 April 2016 10:45:42 AM IST  tracedemo  :  Scanning  ENTERING  C++       Response -> SUCCESS
Monday 18 April 2016 10:45:42 AM IST  tracedemo  :  Scanning Properties  C++       BitsPerPixel -> "8"  ScanMode ->"SCAN_FRONT_REAR" 
Monday 18 April 2016 10:46:08 AM IST  tracedemo  :  "Scanning could not be executed"   C++       Response -> NO_DOC_FOUND  Error_Code -> "815"
Mon Apr 18 10:46:08 2016 AM tracedemo  :  Scanning EXITING  SP       Response -> MISC_ERROR     Barcode Data -> SCAN_ERROR
Mon Apr 18 11:43:10 2016 AM   tracedemo  :  Print ENTERING  SP       Response -> SUCCESS
Monday 18 April 2016 11:43:10 AM IST  tracedemo  :  Printing  ENTERING  C++       Response -> SUCCESS
Monday 18 April 2016 11:43:10 AM IST  tracedemo  :  Printing path  C++       Path ->  "/root/forbes/microbanker/bin/Print_Files/PrintFile.txt"
Monday 18 April 2016 11:43:18 AM IST  tracedemo  :  Printing EXECUTED  C++       Response -> ONLINE
Mon Apr 18 11:43:18 2016 AM   tracedemo  :  Print EXITING  SP       Response -> SUCCESS
Mon Apr 18 11:49:28 2016 AM   tracedemo  :  Print ENTERING  SP       Response -> SUCCESS
Monday 18 April 2016 11:49:28 AM IST  tracedemo  :  Printing  ENTERING  C++       Response -> SUCCESS
Monday 18 April 2016 11:49:28 AM IST  tracedemo  :  Printing path  C++       Path ->  "/root/forbes/microbanker/bin/Print_Files/PrintFile.txt"
Monday 18 April 2016 11:49:34 AM IST  tracedemo  :  "Printing could not be executed"  C++       Response -> END_OF_DOC  Error_Code -> "814"
Mon Apr 18 11:49:34 2016 AM   tracedemo  :  Print EXITING  SP       Response -> END_OF_DOC
Mon Apr 18 11:53:52 2016 AM   tracedemo  :  Eject ENTERING  SP       Response -> SUCCESS
Monday 18 April 2016 11:53:54 AM IST  tracedemo  :  Eject  ENTERING  C++       Response -> SUCCESS
Monday 18 April 2016 11:53:54 AM IST  tracedemo  :  Eject EXECUTED  C++       Response -> ONLINE  Error_Code -> "0"
Mon Apr 18 11:53:54 2016 AM   tracedemo  :  Eject Executed  SP       Response -> SUCCESS
Mon Apr 18 11:56:13 2016 AM   tracedemo  :  Configuration ENTERING  SP       Response -> SUCCESS
Monday 18 April 2016 11:56:13 AM IST  tracedemo  :  Configuration ENTERING  C++       Response -> SUCCESS
Monday 18 April 2016 11:56:13 AM IST  tracedemo  :  Configuration CPI & LPI  C++       CPI ->"17"  LPI ->"40"   Response -> SUCCESS
Monday 18 April 2016 11:56:13 AM IST  tracedemo  :   Device Successfully Initialized  C++       Response -> SUCCESS
Mon Apr 18 11:56:14 2016 AM   tracedemo  :  Paper Status ENTERING  SP       Response -> SUCCESS
Monday 18 April 2016 11:56:14 AM IST  tracedemo  :  Paper Status  ENTERING  C++       Response -> SUCCESS
Monday 18 April 2016 11:56:14 AM IST  tracedemo  :  Paper Status EXECUTED  C++   Response -> "DOCABSENT"  Status -> "0"
Mon Apr 18 11:56:14 2016 AM   tracedemo  :  Paper Status EXITING  SP       Response -> DOCABSENT
Mon Apr 18 11:56:14 2016 AM   tracedemo  :  Scanning ENTERING  SP       Response -> SUCCESS
Monday 18 April 2016 11:56:14 AM IST  tracedemo  :  Scanning  ENTERING  C++       Response -> SUCCESS
Monday 18 April 2016 11:56:14 AM IST  tracedemo  :  Scanning Properties  C++       BitsPerPixel -> "8"  ScanMode ->"SCAN_FRONT_REAR" 
Mon Apr 18 12:05:03 2016 PM   tracedemo  :  Configuration ENTERING  SP       Response -> SUCCESS
Monday 18 April 2016 12:05:03 PM IST  tracedemo  :  Configuration ENTERING  C++       Response -> SUCCESS
Monday 18 April 2016 12:05:03 PM IST  tracedemo  :  Configuration CPI & LPI  C++       CPI ->"17"  LPI ->"40"   Response -> SUCCESS
Monday 18 April 2016 12:05:09 PM IST  tracedemo  :   Device Successfully Initialized  C++       Response -> SUCCESS
Mon Apr 18 12:05:17 2016 PM   tracedemo  :  Configuration ENTERING  SP       Response -> SUCCESS
Monday 18 April 2016 12:05:17 PM IST  tracedemo  :  Configuration ENTERING  C++       Response -> SUCCESS
Monday 18 April 2016 12:05:17 PM IST  tracedemo  :  Configuration CPI & LPI  C++       CPI ->"17"  LPI ->"40"   Response -> SUCCESS
Monday 18 April 2016 12:05:17 PM IST  tracedemo  :   Device Successfully Initialized  C++       Response -> SUCCESS
Mon Apr 18 12:05:18 2016 PM   tracedemo  :  Paper Status ENTERING  SP       Response -> SUCCESS
Monday 18 April 2016 12:05:18 PM IST  tracedemo  :  Paper Status  ENTERING  C++       Response -> SUCCESS
Monday 18 April 2016 12:05:18 PM IST  tracedemo  :  Paper Status EXECUTED  C++   Response -> "DOCABSENT"  Status -> "0"
Mon Apr 18 12:05:18 2016 PM   tracedemo  :  Paper Status EXITING  SP       Response -> DOCABSENT
Mon Apr 18 12:05:19 2016 PM   tracedemo  :  Paper Status ENTERING  SP       Response -> SUCCESS
Monday 18 April 2016 12:05:19 PM IST  tracedemo  :  Paper Status  ENTERING  C++       Response -> SUCCESS
Monday 18 April 2016 12:05:19 PM IST  tracedemo  :  Paper Status EXECUTED  C++   Response -> "DOCABSENT"  Status -> "0"
Mon Apr 18 12:05:19 2016 PM   tracedemo  :  Paper Status EXITING  SP       Response -> DOCABSENT
Mon Apr 18 12:05:20 2016 PM   tracedemo  :  Paper Status ENTERING  SP       Response -> SUCCESS
Monday 18 April 2016 12:05:20 PM IST  tracedemo  :  Paper Status  ENTERING  C++       Response -> SUCCESS
Monday 18 April 2016 12:05:20 PM IST  tracedemo  :  Paper Status EXECUTED  C++   Response -> "DOCABSENT"  Status -> "0"
Mon Apr 18 12:05:20 2016 PM   tracedemo  :  Paper Status EXITING  SP       Response -> DOCABSENT
Mon Apr 18 12:05:21 2016 PM   tracedemo  :  Paper Status ENTERING  SP       Response -> SUCCESS
Monday 18 April 2016 12:05:21 PM IST  tracedemo  :  Paper Status  ENTERING  C++       Response -> SUCCESS
Monday 18 April 2016 12:05:22 PM IST  tracedemo  :  Paper Status EXECUTED  C++   Response -> "DOCEJECTED"  Status -> "1"
Mon Apr 18 12:05:22 2016 PM   tracedemo  :  Paper Status EXITING  SP       Response -> DOCEJECTED
Mon Apr 18 12:05:23 2016 PM   tracedemo  :  Paper Status ENTERING  SP       Response -> SUCCESS
Monday 18 April 2016 12:05:23 PM IST  tracedemo  :  Paper Status  ENTERING  C++       Response -> SUCCESS
Monday 18 April 2016 12:05:23 PM IST  tracedemo  :  Paper Status EXECUTED  C++   Response -> "DOCPRESENT"  Status -> "2"
Mon Apr 18 12:05:23 2016 PM   tracedemo  :  Paper Status EXITING  SP       Response -> DOCPRESENT
Mon Apr 18 12:05:23 2016 PM   tracedemo  :  Scanning ENTERING  SP       Response -> SUCCESS
Monday 18 April 2016 12:05:23 PM IST  tracedemo  :  Scanning  ENTERING  C++       Response -> SUCCESS
Monday 18 April 2016 12:05:23 PM IST  tracedemo  :  Scanning Properties  C++       BitsPerPixel -> "8"  ScanMode ->"SCAN_FRONT_REAR" 
Monday 18 April 2016 12:05:27 PM IST  tracedemo  :  Scanning EXECUTED  C++       Response -> ONLINE
Mon Apr 18 12:05:28 2016 PM   tracedemo  :   Barcode Range specified Min->9  Max->16SP       
Mon Apr 18 12:05:28 2016 PM   tracedemo  :   Length of barcode retrieved ->15  SP       
Mon Apr 18 12:05:28 2016 PM   tracedemo  :  Barcode scanning successfully executed  SP       Response -> SUCCESSFULL	Barcode Data ->	914010006330142
Mon Apr 18 12:05:28 2016 PM   tracedemo  :  SCanning   SP   LOWER REGION specified for scanning
Mon Apr 18 12:05:28 2016 PM tracedemo  :  Scanning EXITING  SP       Response -> SUCCESS     Barcode Data -> 914010006330142
Mon Apr 18 12:05:38 2016 PM   tracedemo  :  Print ENTERING  SP       Response -> SUCCESS
Monday 18 April 2016 12:05:38 PM IST  tracedemo  :  Printing  ENTERING  C++       Response -> SUCCESS
Monday 18 April 2016 12:05:38 PM IST  tracedemo  :  Printing path  C++       Path ->  "/root/forbes/microbanker/bin/Print_Files/PrintFile.txt"
Monday 18 April 2016 12:05:45 PM IST  tracedemo  :  Printing EXECUTED  C++       Response -> ONLINE
Mon Apr 18 12:05:45 2016 PM   tracedemo  :  Print EXITING  SP       Response -> SUCCESS
Mon Apr 18 12:06:10 2016 PM   tracedemo  :  Print ENTERING  SP       Response -> SUCCESS
Monday 18 April 2016 12:06:10 PM IST  tracedemo  :  Printing  ENTERING  C++       Response -> SUCCESS
Monday 18 April 2016 12:06:10 PM IST  tracedemo  :  Printing path  C++       Path ->  "/root/forbes/microbanker/bin/Print_Files/PrintFile.txt"
Monday 18 April 2016 12:06:17 PM IST  tracedemo  :  Printing EXECUTED  C++       Response -> ONLINE
Mon Apr 18 12:06:17 2016 PM   tracedemo  :  Print EXITING  SP       Response -> SUCCESS
Mon Apr 18 12:07:16 2016 PM   tracedemo  :  Eject ENTERING  SP       Response -> SUCCESS
Monday 18 April 2016 12:07:17 PM IST  tracedemo  :  Eject  ENTERING  C++       Response -> SUCCESS
Monday 18 April 2016 12:07:17 PM IST  tracedemo  :  Eject EXECUTED  C++       Response -> ONLINE  Error_Code -> "0"
Mon Apr 18 12:07:17 2016 PM   tracedemo  :  Eject Executed  SP       Response -> SUCCESS
Mon Apr 18 12:07:18 2016 PM   tracedemo  :  Paper Status ENTERING  SP       Response -> SUCCESS
Monday 18 April 2016 12:07:18 PM IST  tracedemo  :  Paper Status  ENTERING  C++       Response -> SUCCESS
Monday 18 April 2016 12:07:18 PM IST  tracedemo  :  Paper Status EXECUTED  C++   Response -> "DOCEJECTED"  Status -> "1"
Mon Apr 18 12:07:18 2016 PM   tracedemo  :  Paper Status EXITING  SP       Response -> DOCEJECTED
Mon Apr 18 12:07:18 2016 PM   tracedemo  :  Paper Status ENTERING  SP       Response -> SUCCESS
Monday 18 April 2016 12:07:18 PM IST  tracedemo  :  Paper Status  ENTERING  C++       Response -> SUCCESS
Monday 18 April 2016 12:07:18 PM IST  tracedemo  :  Paper Status EXECUTED  C++   Response -> "DOCEJECTED"  Status -> "1"
Mon Apr 18 12:07:18 2016 PM   tracedemo  :  Paper Status EXITING  SP       Response -> DOCEJECTED
Mon Apr 18 12:07:42 2016 PM   tracedemo  :  Scanning ENTERING  SP       Response -> SUCCESS
Monday 18 April 2016 12:07:42 PM IST  tracedemo  :  Scanning  ENTERING  C++       Response -> SUCCESS
Monday 18 April 2016 12:07:42 PM IST  tracedemo  :  Scanning Properties  C++       BitsPerPixel -> "8"  ScanMode ->"SCAN_FRONT_REAR" 
Monday 18 April 2016 12:07:47 PM IST  tracedemo  :  Scanning EXECUTED  C++       Response -> ONLINE
Mon Apr 18 12:07:48 2016 PM   tracedemo  :   Barcode Range specified Min->9  Max->16SP       
Mon Apr 18 12:07:48 2016 PM   tracedemo  :   Length of barcode retrieved ->15  SP       
Mon Apr 18 12:07:48 2016 PM   tracedemo  :  Barcode scanning successfully executed  SP       Response -> SUCCESSFULL	Barcode Data ->	914010006330142
Mon Apr 18 12:07:48 2016 PM   tracedemo  :  SCanning   SP   LOWER REGION specified for scanning
Mon Apr 18 12:07:48 2016 PM tracedemo  :  Scanning EXITING  SP       Response -> SUCCESS     Barcode Data -> 914010006330142
Mon Apr 18 12:08:08 2016 PM   tracedemo  :  Print ENTERING  SP       Response -> SUCCESS
Monday 18 April 2016 12:08:08 PM IST  tracedemo  :  Printing  ENTERING  C++       Response -> SUCCESS
Monday 18 April 2016 12:08:08 PM IST  tracedemo  :  Printing path  C++       Path ->  "/root/forbes/microbanker/bin/Print_Files/PrintFile.txt"
Monday 18 April 2016 12:08:16 PM IST  tracedemo  :  Printing EXECUTED  C++       Response -> ONLINE
Mon Apr 18 12:08:16 2016 PM   tracedemo  :  Print EXITING  SP       Response -> SUCCESS
Mon Apr 18 12:11:39 2016 PM   tracedemo  :  Configuration ENTERING  SP       Response -> SUCCESS
Monday 18 April 2016 12:11:39 PM IST  tracedemo  :  Configuration ENTERING  C++       Response -> SUCCESS
Monday 18 April 2016 12:11:39 PM IST  tracedemo  :  Configuration CPI & LPI  C++       CPI ->"17"  LPI ->"40"   Response -> SUCCESS
Monday 18 April 2016 12:11:45 PM IST  tracedemo  :   Device Successfully Initialized  C++       Response -> SUCCESS
Mon Apr 18 12:12:59 2016 PM   tracedemo  :  Configuration ENTERING  SP       Response -> SUCCESS
Monday 18 April 2016 12:12:59 PM IST  tracedemo  :  Configuration ENTERING  C++       Response -> SUCCESS
Monday 18 April 2016 12:12:59 PM IST  tracedemo  :  Configuration CPI & LPI  C++       CPI ->"17"  LPI ->"40"   Response -> SUCCESS
Monday 18 April 2016 12:12:59 PM IST  tracedemo  :   Device Successfully Initialized  C++       Response -> SUCCESS
Mon Apr 18 12:13:00 2016 PM   tracedemo  :  Paper Status ENTERING  SP       Response -> SUCCESS
Monday 18 April 2016 12:13:00 PM IST  tracedemo  :  Paper Status  ENTERING  C++       Response -> SUCCESS
Monday 18 April 2016 12:13:00 PM IST  tracedemo  :  Paper Status EXECUTED  C++   Response -> "DOCEJECTED"  Status -> "1"
Mon Apr 18 12:13:00 2016 PM   tracedemo  :  Paper Status EXITING  SP       Response -> DOCEJECTED
Mon Apr 18 12:13:01 2016 PM   tracedemo  :  Paper Status ENTERING  SP       Response -> SUCCESS
Monday 18 April 2016 12:13:01 PM IST  tracedemo  :  Paper Status  ENTERING  C++       Response -> SUCCESS
Monday 18 April 2016 12:13:01 PM IST  tracedemo  :  Paper Status EXECUTED  C++   Response -> "DOCPRESENT"  Status -> "2"
Mon Apr 18 12:13:01 2016 PM   tracedemo  :  Paper Status EXITING  SP       Response -> DOCPRESENT
Mon Apr 18 12:13:01 2016 PM   tracedemo  :  Scanning ENTERING  SP       Response -> SUCCESS
Monday 18 April 2016 12:13:01 PM IST  tracedemo  :  Scanning  ENTERING  C++       Response -> SUCCESS
Monday 18 April 2016 12:13:01 PM IST  tracedemo  :  Scanning Properties  C++       BitsPerPixel -> "8"  ScanMode ->"SCAN_FRONT_REAR" 
Monday 18 April 2016 12:13:06 PM IST  tracedemo  :  Scanning EXECUTED  C++       Response -> ONLINE
Mon Apr 18 12:13:07 2016 PM   tracedemo  :   Barcode Range specified Min->9  Max->16SP       
Mon Apr 18 12:13:07 2016 PM   tracedemo  :   Length of barcode retrieved ->15  SP       
Mon Apr 18 12:13:07 2016 PM   tracedemo  :  Barcode scanning successfully executed  SP       Response -> SUCCESSFULL	Barcode Data ->	914010006330142
Mon Apr 18 12:13:07 2016 PM   tracedemo  :  SCanning   SP   LOWER REGION specified for scanning
Mon Apr 18 12:13:07 2016 PM tracedemo  :  Scanning EXITING  SP       Response -> SUCCESS     Barcode Data -> 914010006330142
Mon Apr 18 12:13:26 2016 PM   tracedemo  :  Print ENTERING  SP       Response -> SUCCESS
Monday 18 April 2016 12:13:26 PM IST  tracedemo  :  Printing  ENTERING  C++       Response -> SUCCESS
Monday 18 April 2016 12:13:26 PM IST  tracedemo  :  Printing path  C++       Path ->  "/root/forbes/microbanker/bin/Print_Files/PrintFile.txt"
Monday 18 April 2016 12:13:34 PM IST  tracedemo  :  Printing EXECUTED  C++       Response -> ONLINE
Mon Apr 18 12:13:34 2016 PM   tracedemo  :  Print EXITING  SP       Response -> SUCCESS
Mon Apr 18 12:15:27 2016 PM   tracedemo  :  Print ENTERING  SP       Response -> SUCCESS
Monday 18 April 2016 12:15:27 PM IST  tracedemo  :  Printing  ENTERING  C++       Response -> SUCCESS
Monday 18 April 2016 12:15:27 PM IST  tracedemo  :  Printing path  C++       Path ->  "/root/forbes/microbanker/bin/Print_Files/PrintFile.txt"
Monday 18 April 2016 12:15:33 PM IST  tracedemo  :  Printing EXECUTED  C++       Response -> ONLINE
Mon Apr 18 12:15:33 2016 PM   tracedemo  :  Print EXITING  SP       Response -> SUCCESS
Mon Apr 18 12:15:43 2016 PM   tracedemo  :  Eject ENTERING  SP       Response -> SUCCESS
Monday 18 April 2016 12:15:44 PM IST  tracedemo  :  Eject  ENTERING  C++       Response -> SUCCESS
Monday 18 April 2016 12:15:44 PM IST  tracedemo  :  Eject EXECUTED  C++       Response -> ONLINE  Error_Code -> "0"
Mon Apr 18 12:15:44 2016 PM   tracedemo  :  Eject Executed  SP       Response -> SUCCESS
Mon Apr 18 12:15:44 2016 PM   tracedemo  :  Paper Status ENTERING  SP       Response -> SUCCESS
Monday 18 April 2016 12:15:44 PM IST  tracedemo  :  Paper Status  ENTERING  C++       Response -> SUCCESS
Monday 18 April 2016 12:15:44 PM IST  tracedemo  :  Paper Status EXECUTED  C++   Response -> "DOCEJECTED"  Status -> "1"
Mon Apr 18 12:15:44 2016 PM   tracedemo  :  Paper Status EXITING  SP       Response -> DOCEJECTED
Mon Apr 18 12:15:44 2016 PM   tracedemo  :  Paper Status ENTERING  SP       Response -> SUCCESS
Monday 18 April 2016 12:15:44 PM IST  tracedemo  :  Paper Status  ENTERING  C++       Response -> SUCCESS
Monday 18 April 2016 12:15:44 PM IST  tracedemo  :  Paper Status EXECUTED  C++   Response -> "DOCEJECTED"  Status -> "1"
Mon Apr 18 12:15:44 2016 PM   tracedemo  :  Paper Status EXITING  SP       Response -> DOCEJECTED
Mon Apr 18 12:18:02 2016 PM   tracedemo  :  Scanning ENTERING  SP       Response -> SUCCESS
Monday 18 April 2016 12:18:02 PM IST  tracedemo  :  Scanning  ENTERING  C++       Response -> SUCCESS
Monday 18 April 2016 12:18:02 PM IST  tracedemo  :  Scanning Properties  C++       BitsPerPixel -> "8"  ScanMode ->"SCAN_FRONT_REAR" 
Monday 18 April 2016 12:18:07 PM IST  tracedemo  :  Scanning EXECUTED  C++       Response -> ONLINE
Mon Apr 18 12:18:08 2016 PM   tracedemo  :   Barcode Range specified Min->9  Max->16SP       
Mon Apr 18 12:18:08 2016 PM   tracedemo  :   Length of barcode retrieved ->15  SP       
Mon Apr 18 12:18:08 2016 PM   tracedemo  :  Barcode scanning successfully executed  SP       Response -> SUCCESSFULL	Barcode Data ->	914010006330142
Mon Apr 18 12:18:08 2016 PM   tracedemo  :  SCanning   SP   LOWER REGION specified for scanning
Mon Apr 18 12:18:08 2016 PM tracedemo  :  Scanning EXITING  SP       Response -> SUCCESS     Barcode Data -> 914010006330142
Mon Apr 18 12:20:09 2016 PM   tracedemo  :  Print ENTERING  SP       Response -> SUCCESS
Monday 18 April 2016 12:20:09 PM IST  tracedemo  :  Printing  ENTERING  C++       Response -> SUCCESS
Monday 18 April 2016 12:20:09 PM IST  tracedemo  :  Printing path  C++       Path ->  "/root/forbes/microbanker/bin/Print_Files/PrintFile.txt"
Monday 18 April 2016 12:20:17 PM IST  tracedemo  :  Printing EXECUTED  C++       Response -> ONLINE
Mon Apr 18 12:20:17 2016 PM   tracedemo  :  Print EXITING  SP       Response -> SUCCESS
Mon Apr 18 12:20:56 2016 PM   tracedemo  :  Print ENTERING  SP       Response -> SUCCESS
Monday 18 April 2016 12:20:56 PM IST  tracedemo  :  Printing  ENTERING  C++       Response -> SUCCESS
Monday 18 April 2016 12:20:56 PM IST  tracedemo  :  Printing path  C++       Path ->  "/root/forbes/microbanker/bin/Print_Files/PrintFile.txt"
Monday 18 April 2016 12:21:03 PM IST  tracedemo  :  Printing EXECUTED  C++       Response -> ONLINE
Mon Apr 18 12:21:03 2016 PM   tracedemo  :  Print EXITING  SP       Response -> SUCCESS
Mon Apr 18 12:21:38 2016 PM   tracedemo  :  Configuration ENTERING  SP       Response -> SUCCESS
Monday 18 April 2016 12:21:38 PM IST  tracedemo  :  Configuration ENTERING  C++       Response -> SUCCESS
Monday 18 April 2016 12:21:38 PM IST  tracedemo  :  Configuration CPI & LPI  C++       CPI ->"17"  LPI ->"40"   Response -> SUCCESS
Monday 18 April 2016 12:21:44 PM IST  tracedemo  :   Device Successfully Initialized  C++       Response -> SUCCESS
Mon Apr 18 12:22:06 2016 PM   tracedemo  :  Configuration ENTERING  SP       Response -> SUCCESS
Monday 18 April 2016 12:22:06 PM IST  tracedemo  :  Configuration ENTERING  C++       Response -> SUCCESS
Monday 18 April 2016 12:22:06 PM IST  tracedemo  :  Configuration CPI & LPI  C++       CPI ->"17"  LPI ->"40"   Response -> SUCCESS
Monday 18 April 2016 12:22:06 PM IST  tracedemo  :   Device Successfully Initialized  C++       Response -> SUCCESS
Mon Apr 18 12:22:07 2016 PM   tracedemo  :  Paper Status ENTERING  SP       Response -> SUCCESS
Monday 18 April 2016 12:22:07 PM IST  tracedemo  :  Paper Status  ENTERING  C++       Response -> SUCCESS
Monday 18 April 2016 12:22:07 PM IST  tracedemo  :  Paper Status EXECUTED  C++   Response -> "DOCPRESENT"  Status -> "2"
Mon Apr 18 12:22:07 2016 PM   tracedemo  :  Paper Status EXITING  SP       Response -> DOCPRESENT
Mon Apr 18 12:22:07 2016 PM   tracedemo  :  Scanning ENTERING  SP       Response -> SUCCESS
Monday 18 April 2016 12:22:07 PM IST  tracedemo  :  Scanning  ENTERING  C++       Response -> SUCCESS
Monday 18 April 2016 12:22:07 PM IST  tracedemo  :  Scanning Properties  C++       BitsPerPixel -> "8"  ScanMode ->"SCAN_FRONT_REAR" 
Monday 18 April 2016 12:22:12 PM IST  tracedemo  :  Scanning EXECUTED  C++       Response -> ONLINE
Mon Apr 18 12:22:12 2016 PM   tracedemo  :   Barcode Range specified Min->9  Max->16SP       
Mon Apr 18 12:22:12 2016 PM   tracedemo  :   Length of barcode retrieved ->15  SP       
Mon Apr 18 12:22:12 2016 PM   tracedemo  :  Barcode scanning successfully executed  SP       Response -> SUCCESSFULL	Barcode Data ->	914010006330142
Mon Apr 18 12:22:12 2016 PM   tracedemo  :  SCanning   SP   LOWER REGION specified for scanning
Mon Apr 18 12:22:12 2016 PM tracedemo  :  Scanning EXITING  SP       Response -> SUCCESS     Barcode Data -> 914010006330142
Mon Apr 18 12:35:10 2016 PM   tracedemo  :  Configuration ENTERING  SP       Response -> SUCCESS
Monday 18 April 2016 12:35:10 PM IST  tracedemo  :  Configuration ENTERING  C++       Response -> SUCCESS
Monday 18 April 2016 12:35:10 PM IST  tracedemo  :  Configuration CPI & LPI  C++       CPI ->"17"  LPI ->"40"   Response -> SUCCESS
Monday 18 April 2016 12:35:17 PM IST  tracedemo  :   Device Successfully Initialized  C++       Response -> SUCCESS
Mon Apr 18 12:35:31 2016 PM   tracedemo  :  Configuration ENTERING  SP       Response -> SUCCESS
Monday 18 April 2016 12:35:31 PM IST  tracedemo  :  Configuration ENTERING  C++       Response -> SUCCESS
Monday 18 April 2016 12:35:31 PM IST  tracedemo  :  Configuration CPI & LPI  C++       CPI ->"17"  LPI ->"40"   Response -> SUCCESS
Monday 18 April 2016 12:35:31 PM IST  tracedemo  :   Device Successfully Initialized  C++       Response -> SUCCESS
Mon Apr 18 12:35:32 2016 PM   tracedemo  :  Paper Status ENTERING  SP       Response -> SUCCESS
Monday 18 April 2016 12:35:32 PM IST  tracedemo  :  Paper Status  ENTERING  C++       Response -> SUCCESS
Monday 18 April 2016 12:35:32 PM IST  tracedemo  :  Paper Status EXECUTED  C++   Response -> "DOCPRESENT"  Status -> "2"
Mon Apr 18 12:35:32 2016 PM   tracedemo  :  Paper Status EXITING  SP       Response -> DOCPRESENT
Mon Apr 18 12:35:32 2016 PM   tracedemo  :  Scanning ENTERING  SP       Response -> SUCCESS
Monday 18 April 2016 12:35:32 PM IST  tracedemo  :  Scanning  ENTERING  C++       Response -> SUCCESS
Monday 18 April 2016 12:35:32 PM IST  tracedemo  :  Scanning Properties  C++       BitsPerPixel -> "8"  ScanMode ->"SCAN_FRONT_REAR" 
Monday 18 April 2016 12:35:36 PM IST  tracedemo  :  Scanning EXECUTED  C++       Response -> ONLINE
Mon Apr 18 12:35:37 2016 PM   tracedemo  :   Barcode Range specified Min->9  Max->16SP       
Mon Apr 18 12:35:37 2016 PM   tracedemo  :   Length of barcode retrieved ->15  SP       
Mon Apr 18 12:35:37 2016 PM   tracedemo  :  Barcode scanning successfully executed  SP       Response -> SUCCESSFULL	Barcode Data ->	914010006330142
Mon Apr 18 12:35:37 2016 PM   tracedemo  :  SCanning   SP   LOWER REGION specified for scanning
Mon Apr 18 12:35:37 2016 PM tracedemo  :  Scanning EXITING  SP       Response -> SUCCESS     Barcode Data -> 914010006330142
Mon Apr 18 12:37:01 2016 PM   tracedemo  :  Print ENTERING  SP       Response -> SUCCESS
Monday 18 April 2016 12:37:01 PM IST  tracedemo  :  Printing  ENTERING  C++       Response -> SUCCESS
Monday 18 April 2016 12:37:01 PM IST  tracedemo  :  Printing path  C++       Path ->  "/root/forbes/microbanker/bin/Print_Files/PrintFile.txt"
Monday 18 April 2016 12:37:04 PM IST  tracedemo  :  Printing EXECUTED  C++       Response -> ONLINE
Mon Apr 18 12:37:04 2016 PM   tracedemo  :  Print EXITING  SP       Response -> SUCCESS
Mon Apr 18 12:37:11 2016 PM   tracedemo  :  Eject ENTERING  SP       Response -> SUCCESS
Monday 18 April 2016 12:37:12 PM IST  tracedemo  :  Eject  ENTERING  C++       Response -> SUCCESS
Monday 18 April 2016 12:37:12 PM IST  tracedemo  :  Eject EXECUTED  C++       Response -> ONLINE  Error_Code -> "0"
Mon Apr 18 12:37:12 2016 PM   tracedemo  :  Eject Executed  SP       Response -> SUCCESS
Mon Apr 18 12:42:41 2016 PM   tracedemo  :  Configuration ENTERING  SP       Response -> SUCCESS
Monday 18 April 2016 12:42:41 PM IST  tracedemo  :  Configuration ENTERING  C++       Response -> SUCCESS
Monday 18 April 2016 12:42:41 PM IST  tracedemo  :  Configuration CPI & LPI  C++       CPI ->"17"  LPI ->"40"   Response -> SUCCESS
Monday 18 April 2016 12:42:47 PM IST  tracedemo  :   Device Successfully Initialized  C++       Response -> SUCCESS
Mon Apr 18 12:42:50 2016 PM   tracedemo  :  Configuration ENTERING  SP       Response -> SUCCESS
Monday 18 April 2016 12:42:50 PM IST  tracedemo  :  Configuration ENTERING  C++       Response -> SUCCESS
Monday 18 April 2016 12:42:50 PM IST  tracedemo  :  Configuration CPI & LPI  C++       CPI ->"17"  LPI ->"40"   Response -> SUCCESS
Monday 18 April 2016 12:42:50 PM IST  tracedemo  :   Device Successfully Initialized  C++       Response -> SUCCESS
Mon Apr 18 12:42:51 2016 PM   tracedemo  :  Paper Status ENTERING  SP       Response -> SUCCESS
Monday 18 April 2016 12:42:51 PM IST  tracedemo  :  Paper Status  ENTERING  C++       Response -> SUCCESS
Monday 18 April 2016 12:42:51 PM IST  tracedemo  :  Paper Status EXECUTED  C++   Response -> "DOCABSENT"  Status -> "0"
Mon Apr 18 12:42:51 2016 PM   tracedemo  :  Paper Status EXITING  SP       Response -> DOCABSENT
Mon Apr 18 12:42:52 2016 PM   tracedemo  :  Paper Status ENTERING  SP       Response -> SUCCESS
Monday 18 April 2016 12:42:52 PM IST  tracedemo  :  Paper Status  ENTERING  C++       Response -> SUCCESS
Monday 18 April 2016 12:42:52 PM IST  tracedemo  :  Paper Status EXECUTED  C++   Response -> "DOCABSENT"  Status -> "0"
Mon Apr 18 12:42:52 2016 PM   tracedemo  :  Paper Status EXITING  SP       Response -> DOCABSENT
Mon Apr 18 12:42:53 2016 PM   tracedemo  :  Paper Status ENTERING  SP       Response -> SUCCESS
Monday 18 April 2016 12:42:53 PM IST  tracedemo  :  Paper Status  ENTERING  C++       Response -> SUCCESS
Monday 18 April 2016 12:42:53 PM IST  tracedemo  :  Paper Status EXECUTED  C++   Response -> "DOCABSENT"  Status -> "0"
Mon Apr 18 12:42:53 2016 PM   tracedemo  :  Paper Status EXITING  SP       Response -> DOCABSENT
Mon Apr 18 12:42:54 2016 PM   tracedemo  :  Paper Status ENTERING  SP       Response -> SUCCESS
Monday 18 April 2016 12:42:54 PM IST  tracedemo  :  Paper Status  ENTERING  C++       Response -> SUCCESS
Monday 18 April 2016 12:42:54 PM IST  tracedemo  :  Paper Status EXECUTED  C++   Response -> "DOCABSENT"  Status -> "0"
Mon Apr 18 12:42:54 2016 PM   tracedemo  :  Paper Status EXITING  SP       Response -> DOCABSENT
Mon Apr 18 12:42:55 2016 PM   tracedemo  :  Paper Status ENTERING  SP       Response -> SUCCESS
Monday 18 April 2016 12:42:55 PM IST  tracedemo  :  Paper Status  ENTERING  C++       Response -> SUCCESS
Monday 18 April 2016 12:42:56 PM IST  tracedemo  :  Paper Status EXECUTED  C++   Response -> "DOCPRESENT"  Status -> "2"
Mon Apr 18 12:42:56 2016 PM   tracedemo  :  Paper Status EXITING  SP       Response -> DOCPRESENT
Mon Apr 18 12:42:56 2016 PM   tracedemo  :  Scanning ENTERING  SP       Response -> SUCCESS
Monday 18 April 2016 12:42:56 PM IST  tracedemo  :  Scanning  ENTERING  C++       Response -> SUCCESS
Monday 18 April 2016 12:42:56 PM IST  tracedemo  :  Scanning Properties  C++       BitsPerPixel -> "8"  ScanMode ->"SCAN_FRONT_REAR" 
Monday 18 April 2016 12:43:01 PM IST  tracedemo  :  Scanning EXECUTED  C++       Response -> ONLINE
Mon Apr 18 12:43:01 2016 PM   tracedemo  :   Barcode Range specified Min->9  Max->16SP       
Mon Apr 18 12:43:01 2016 PM   tracedemo  :   Length of barcode retrieved ->15  SP       
Mon Apr 18 12:43:01 2016 PM   tracedemo  :  Barcode scanning successfully executed  SP       Response -> SUCCESSFULL	Barcode Data ->	914010006330142
Mon Apr 18 12:43:01 2016 PM   tracedemo  :  SCanning   SP   LOWER REGION specified for scanning
Mon Apr 18 12:43:01 2016 PM tracedemo  :  Scanning EXITING  SP       Response -> SUCCESS     Barcode Data -> 914010006330142
Mon Apr 18 12:43:59 2016 PM   tracedemo  :  Print ENTERING  SP       Response -> SUCCESS
Monday 18 April 2016 12:43:59 PM IST  tracedemo  :  Printing  ENTERING  C++       Response -> SUCCESS
Monday 18 April 2016 12:43:59 PM IST  tracedemo  :  Printing path  C++       Path ->  "/root/forbes/microbanker/bin/Print_Files/PrintFile.txt"
Monday 18 April 2016 12:44:02 PM IST  tracedemo  :  Printing EXECUTED  C++       Response -> ONLINE
Mon Apr 18 12:44:02 2016 PM   tracedemo  :  Print EXITING  SP       Response -> SUCCESS
Mon Apr 18 12:45:46 2016 PM   tracedemo  :  Configuration ENTERING  SP       Response -> SUCCESS
Monday 18 April 2016 12:45:46 PM IST  tracedemo  :  Configuration ENTERING  C++       Response -> SUCCESS
Monday 18 April 2016 12:45:46 PM IST  tracedemo  :  Configuration CPI & LPI  C++       CPI ->"17"  LPI ->"40"   Response -> SUCCESS
Monday 18 April 2016 12:45:53 PM IST  tracedemo  :   Device Successfully Initialized  C++       Response -> SUCCESS
Mon Apr 18 12:45:57 2016 PM   tracedemo  :  Configuration ENTERING  SP       Response -> SUCCESS
Monday 18 April 2016 12:45:57 PM IST  tracedemo  :  Configuration ENTERING  C++       Response -> SUCCESS
Monday 18 April 2016 12:45:57 PM IST  tracedemo  :  Configuration CPI & LPI  C++       CPI ->"17"  LPI ->"40"   Response -> SUCCESS
Monday 18 April 2016 12:45:57 PM IST  tracedemo  :   Device Successfully Initialized  C++       Response -> SUCCESS
Mon Apr 18 12:45:58 2016 PM   tracedemo  :  Paper Status ENTERING  SP       Response -> SUCCESS
Monday 18 April 2016 12:45:58 PM IST  tracedemo  :  Paper Status  ENTERING  C++       Response -> SUCCESS
Monday 18 April 2016 12:45:58 PM IST  tracedemo  :  Paper Status EXECUTED  C++   Response -> "DOCPRESENT"  Status -> "2"
Mon Apr 18 12:45:58 2016 PM   tracedemo  :  Paper Status EXITING  SP       Response -> DOCPRESENT
Mon Apr 18 12:45:58 2016 PM   tracedemo  :  Scanning ENTERING  SP       Response -> SUCCESS
Monday 18 April 2016 12:45:58 PM IST  tracedemo  :  Scanning  ENTERING  C++       Response -> SUCCESS
Monday 18 April 2016 12:45:58 PM IST  tracedemo  :  Scanning Properties  C++       BitsPerPixel -> "8"  ScanMode ->"SCAN_FRONT_REAR" 
Monday 18 April 2016 12:46:03 PM IST  tracedemo  :  Scanning EXECUTED  C++       Response -> ONLINE
Mon Apr 18 12:46:03 2016 PM   tracedemo  :   Barcode Range specified Min->9  Max->16SP       
Mon Apr 18 12:46:03 2016 PM   tracedemo  :   Length of barcode retrieved ->15  SP       
Mon Apr 18 12:46:03 2016 PM   tracedemo  :  Barcode scanning successfully executed  SP       Response -> SUCCESSFULL	Barcode Data ->	914010006330142
Mon Apr 18 12:46:03 2016 PM   tracedemo  :  SCanning   SP   LOWER REGION specified for scanning
Mon Apr 18 12:46:03 2016 PM tracedemo  :  Scanning EXITING  SP       Response -> SUCCESS     Barcode Data -> 914010006330142
Mon Apr 18 12:46:26 2016 PM   tracedemo  :  Print ENTERING  SP       Response -> SUCCESS
Monday 18 April 2016 12:46:26 PM IST  tracedemo  :  Printing  ENTERING  C++       Response -> SUCCESS
Monday 18 April 2016 12:46:26 PM IST  tracedemo  :  Printing path  C++       Path ->  "/root/forbes/microbanker/bin/Print_Files/PrintFile.txt"
Monday 18 April 2016 12:46:29 PM IST  tracedemo  :  Printing EXECUTED  C++       Response -> ONLINE
Mon Apr 18 12:46:29 2016 PM   tracedemo  :  Print EXITING  SP       Response -> SUCCESS
Mon Apr 18 12:46:35 2016 PM   tracedemo  :  Eject ENTERING  SP       Response -> SUCCESS
Monday 18 April 2016 12:46:36 PM IST  tracedemo  :  Eject  ENTERING  C++       Response -> SUCCESS
Monday 18 April 2016 12:46:36 PM IST  tracedemo  :  Eject EXECUTED  C++       Response -> ONLINE  Error_Code -> "0"
Mon Apr 18 12:46:36 2016 PM   tracedemo  :  Eject Executed  SP       Response -> SUCCESS
Mon Apr 18 12:47:51 2016 PM   tracedemo  :  Print ENTERING  SP       Response -> SUCCESS
Monday 18 April 2016 12:47:51 PM IST  tracedemo  :  Printing  ENTERING  C++       Response -> SUCCESS
Monday 18 April 2016 12:47:51 PM IST  tracedemo  :  Printing path  C++       Path ->  "/root/forbes/microbanker/bin/Print_Files/PrintFile.txt"
Monday 18 April 2016 12:48:01 PM IST  tracedemo  :  Printing EXECUTED  C++       Response -> ONLINE
Mon Apr 18 12:48:01 2016 PM   tracedemo  :  Print EXITING  SP       Response -> SUCCESS
Mon Apr 18 12:48:01 2016 PM   tracedemo  :  Eject ENTERING  SP       Response -> SUCCESS
Monday 18 April 2016 12:48:01 PM IST  tracedemo  :  Eject  ENTERING  C++       Response -> SUCCESS
Monday 18 April 2016 12:48:01 PM IST  tracedemo  :  Eject EXECUTED  C++       Response -> ONLINE  Error_Code -> "0"
Mon Apr 18 12:48:02 2016 PM   tracedemo  :  Eject Executed  SP       Response -> SUCCESS
Mon Apr 18 02:21:13 2016 PM   tracedemo  :  Configuration ENTERING  SP       Response -> SUCCESS
Monday 18 April 2016 02:21:13 PM IST  tracedemo  :  Configuration ENTERING  C++       Response -> SUCCESS
Monday 18 April 2016 02:21:13 PM IST  tracedemo  :  Configuration CPI & LPI  C++       CPI ->"17"  LPI ->"40"   Response -> SUCCESS
Monday 18 April 2016 02:21:18 PM IST  tracedemo  :   Device Successfully Initialized  C++       Response -> SUCCESS
Mon Apr 18 02:21:26 2016 PM   tracedemo  :  Configuration ENTERING  SP       Response -> SUCCESS
Monday 18 April 2016 02:21:26 PM IST  tracedemo  :  Configuration ENTERING  C++       Response -> SUCCESS
Monday 18 April 2016 02:21:26 PM IST  tracedemo  :  Configuration CPI & LPI  C++       CPI ->"17"  LPI ->"40"   Response -> SUCCESS
Monday 18 April 2016 02:21:26 PM IST  tracedemo  :   Device Successfully Initialized  C++       Response -> SUCCESS
Mon Apr 18 02:21:27 2016 PM   tracedemo  :  Paper Status ENTERING  SP       Response -> SUCCESS
Monday 18 April 2016 02:21:27 PM IST  tracedemo  :  Paper Status  ENTERING  C++       Response -> SUCCESS
Monday 18 April 2016 02:21:27 PM IST  tracedemo  :  Paper Status EXECUTED  C++   Response -> "DOCEJECTED"  Status -> "1"
Mon Apr 18 02:21:27 2016 PM   tracedemo  :  Paper Status EXITING  SP       Response -> DOCEJECTED
Mon Apr 18 02:21:28 2016 PM   tracedemo  :  Paper Status ENTERING  SP       Response -> SUCCESS
Monday 18 April 2016 02:21:28 PM IST  tracedemo  :  Paper Status  ENTERING  C++       Response -> SUCCESS
Monday 18 April 2016 02:21:28 PM IST  tracedemo  :  Paper Status EXECUTED  C++   Response -> "DOCEJECTED"  Status -> "1"
Mon Apr 18 02:21:28 2016 PM   tracedemo  :  Paper Status EXITING  SP       Response -> DOCEJECTED
Mon Apr 18 02:21:29 2016 PM   tracedemo  :  Paper Status ENTERING  SP       Response -> SUCCESS
Monday 18 April 2016 02:21:29 PM IST  tracedemo  :  Paper Status  ENTERING  C++       Response -> SUCCESS
Monday 18 April 2016 02:21:29 PM IST  tracedemo  :  Paper Status EXECUTED  C++   Response -> "DOCPRESENT"  Status -> "2"
Mon Apr 18 02:21:29 2016 PM   tracedemo  :  Paper Status EXITING  SP       Response -> DOCPRESENT
Mon Apr 18 02:21:29 2016 PM   tracedemo  :  Scanning ENTERING  SP       Response -> SUCCESS
Monday 18 April 2016 02:21:29 PM IST  tracedemo  :  Scanning  ENTERING  C++       Response -> SUCCESS
Monday 18 April 2016 02:21:29 PM IST  tracedemo  :  Scanning Properties  C++       BitsPerPixel -> "8"  ScanMode ->"SCAN_FRONT_REAR" 
Monday 18 April 2016 02:21:34 PM IST  tracedemo  :  Scanning EXECUTED  C++       Response -> ONLINE
Mon Apr 18 02:21:34 2016 PM   tracedemo  :   Barcode Range specified Min->9  Max->16SP       
Mon Apr 18 02:21:34 2016 PM   tracedemo  :   Length of barcode retrieved ->15  SP       
Mon Apr 18 02:21:34 2016 PM   tracedemo  :  Barcode scanning successfully executed  SP       Response -> SUCCESSFULL	Barcode Data ->	914010006330142
Mon Apr 18 02:21:34 2016 PM   tracedemo  :  SCanning   SP   LOWER REGION specified for scanning
Mon Apr 18 02:21:34 2016 PM tracedemo  :  Scanning EXITING  SP       Response -> SUCCESS     Barcode Data -> 914010006330142
Mon Apr 18 02:26:27 2016 PM   tracedemo  :  Configuration ENTERING  SP       Response -> SUCCESS
Monday 18 April 2016 02:26:27 PM IST  tracedemo  :  Configuration ENTERING  C++       Response -> SUCCESS
Monday 18 April 2016 02:26:27 PM IST  tracedemo  :  Configuration CPI & LPI  C++       CPI ->"17"  LPI ->"40"   Response -> SUCCESS
Monday 18 April 2016 02:26:34 PM IST  tracedemo  :   Device Successfully Initialized  C++       Response -> SUCCESS
Mon Apr 18 02:26:39 2016 PM   tracedemo  :  Configuration ENTERING  SP       Response -> SUCCESS
Monday 18 April 2016 02:26:39 PM IST  tracedemo  :  Configuration ENTERING  C++       Response -> SUCCESS
Monday 18 April 2016 02:26:39 PM IST  tracedemo  :  Configuration CPI & LPI  C++       CPI ->"17"  LPI ->"40"   Response -> SUCCESS
Monday 18 April 2016 02:26:39 PM IST  tracedemo  :   Device Successfully Initialized  C++       Response -> SUCCESS
Mon Apr 18 02:26:40 2016 PM   tracedemo  :  Paper Status ENTERING  SP       Response -> SUCCESS
Monday 18 April 2016 02:26:40 PM IST  tracedemo  :  Paper Status  ENTERING  C++       Response -> SUCCESS
Monday 18 April 2016 02:26:40 PM IST  tracedemo  :  Paper Status EXECUTED  C++   Response -> "DOCPRESENT"  Status -> "2"
Mon Apr 18 02:26:40 2016 PM   tracedemo  :  Paper Status EXITING  SP       Response -> DOCPRESENT
Mon Apr 18 02:26:40 2016 PM   tracedemo  :  Scanning ENTERING  SP       Response -> SUCCESS
Monday 18 April 2016 02:26:40 PM IST  tracedemo  :  Scanning  ENTERING  C++       Response -> SUCCESS
Monday 18 April 2016 02:26:40 PM IST  tracedemo  :  Scanning Properties  C++       BitsPerPixel -> "8"  ScanMode ->"SCAN_FRONT_REAR" 
Monday 18 April 2016 02:26:45 PM IST  tracedemo  :  Scanning EXECUTED  C++       Response -> ONLINE
Mon Apr 18 02:26:46 2016 PM   tracedemo  :   Barcode Range specified Min->9  Max->16SP       
Mon Apr 18 02:26:46 2016 PM   tracedemo  :   Length of barcode retrieved ->15  SP       
Mon Apr 18 02:26:46 2016 PM   tracedemo  :  Barcode scanning successfully executed  SP       Response -> SUCCESSFULL	Barcode Data ->	914010006330142
Mon Apr 18 02:26:46 2016 PM   tracedemo  :  SCanning   SP   LOWER REGION specified for scanning
Mon Apr 18 02:26:46 2016 PM tracedemo  :  Scanning EXITING  SP       Response -> SUCCESS     Barcode Data -> 914010006330142
Mon Apr 18 02:27:23 2016 PM   tracedemo  :  Print ENTERING  SP       Response -> SUCCESS
Monday 18 April 2016 02:27:23 PM IST  tracedemo  :  Printing  ENTERING  C++       Response -> SUCCESS
Monday 18 April 2016 02:27:23 PM IST  tracedemo  :  Printing path  C++       Path ->  "/root/forbes/microbanker/bin/Print_Files/PrintFile.txt"
Monday 18 April 2016 02:27:26 PM IST  tracedemo  :  Printing EXECUTED  C++       Response -> ONLINE
Mon Apr 18 02:27:26 2016 PM   tracedemo  :  Print EXITING  SP       Response -> SUCCESS
Mon Apr 18 02:27:26 2016 PM   tracedemo  :  Eject ENTERING  SP       Response -> SUCCESS
Monday 18 April 2016 02:27:27 PM IST  tracedemo  :  Eject  ENTERING  C++       Response -> SUCCESS
Monday 18 April 2016 02:27:27 PM IST  tracedemo  :  Eject EXECUTED  C++       Response -> ONLINE  Error_Code -> "0"
Mon Apr 18 02:27:27 2016 PM   tracedemo  :  Eject Executed  SP       Response -> SUCCESS
Mon Apr 18 02:27:48 2016 PM   tracedemo  :  Print ENTERING  SP       Response -> SUCCESS
Monday 18 April 2016 02:27:48 PM IST  tracedemo  :  Printing  ENTERING  C++       Response -> SUCCESS
Monday 18 April 2016 02:27:48 PM IST  tracedemo  :  Printing path  C++       Path ->  "/root/forbes/microbanker/bin/Print_Files/PrintFile.txt"
Monday 18 April 2016 02:27:48 PM IST  tracedemo  :  "Printing could not be executed"  C++       Response -> NO_DOC  Error_Code -> "800"
Mon Apr 18 02:27:48 2016 PM   tracedemo  :  Print EXITING  SP       Response -> NO_DATA_TO_PRINT
Mon Apr 18 02:27:54 2016 PM   tracedemo  :  Eject ENTERING  SP       Response -> SUCCESS
Monday 18 April 2016 02:27:54 PM IST  tracedemo  :  Eject  ENTERING  C++       Response -> SUCCESS
Monday 18 April 2016 02:27:54 PM IST  tracedemo  :  Eject EXECUTED  C++       Response -> ONLINE  Error_Code -> "0"
Mon Apr 18 02:27:54 2016 PM   tracedemo  :  Eject Executed  SP       Response -> SUCCESS
Mon Apr 18 02:28:02 2016 PM   tracedemo  :  Configuration ENTERING  SP       Response -> SUCCESS
Monday 18 April 2016 02:28:02 PM IST  tracedemo  :  Configuration ENTERING  C++       Response -> SUCCESS
Monday 18 April 2016 02:28:02 PM IST  tracedemo  :  Configuration CPI & LPI  C++       CPI ->"17"  LPI ->"40"   Response -> SUCCESS
Monday 18 April 2016 02:28:07 PM IST  tracedemo  :   Device Successfully Initialized  C++       Response -> SUCCESS
Mon Apr 18 02:28:12 2016 PM   tracedemo  :  Configuration ENTERING  SP       Response -> SUCCESS
Monday 18 April 2016 02:28:12 PM IST  tracedemo  :  Configuration ENTERING  C++       Response -> SUCCESS
Monday 18 April 2016 02:28:12 PM IST  tracedemo  :  Configuration CPI & LPI  C++       CPI ->"17"  LPI ->"40"   Response -> SUCCESS
Monday 18 April 2016 02:28:12 PM IST  tracedemo  :   Device Successfully Initialized  C++       Response -> SUCCESS
Mon Apr 18 02:28:13 2016 PM   tracedemo  :  Paper Status ENTERING  SP       Response -> SUCCESS
Monday 18 April 2016 02:28:13 PM IST  tracedemo  :  Paper Status  ENTERING  C++       Response -> SUCCESS
Monday 18 April 2016 02:28:13 PM IST  tracedemo  :  Paper Status EXECUTED  C++   Response -> "DOCABSENT"  Status -> "0"
Mon Apr 18 02:28:13 2016 PM   tracedemo  :  Paper Status EXITING  SP       Response -> DOCABSENT
Mon Apr 18 02:28:14 2016 PM   tracedemo  :  Paper Status ENTERING  SP       Response -> SUCCESS
Monday 18 April 2016 02:28:14 PM IST  tracedemo  :  Paper Status  ENTERING  C++       Response -> SUCCESS
Monday 18 April 2016 02:28:14 PM IST  tracedemo  :  Paper Status EXECUTED  C++   Response -> "DOCABSENT"  Status -> "0"
Mon Apr 18 02:28:14 2016 PM   tracedemo  :  Paper Status EXITING  SP       Response -> DOCABSENT
Mon Apr 18 02:28:15 2016 PM   tracedemo  :  Paper Status ENTERING  SP       Response -> SUCCESS
Monday 18 April 2016 02:28:15 PM IST  tracedemo  :  Paper Status  ENTERING  C++       Response -> SUCCESS
Monday 18 April 2016 02:28:15 PM IST  tracedemo  :  Paper Status EXECUTED  C++   Response -> "DOCABSENT"  Status -> "0"
Mon Apr 18 02:28:15 2016 PM   tracedemo  :  Paper Status EXITING  SP       Response -> DOCABSENT
Mon Apr 18 02:28:16 2016 PM   tracedemo  :  Paper Status ENTERING  SP       Response -> SUCCESS
Monday 18 April 2016 02:28:16 PM IST  tracedemo  :  Paper Status  ENTERING  C++       Response -> SUCCESS
Monday 18 April 2016 02:28:16 PM IST  tracedemo  :  Paper Status EXECUTED  C++   Response -> "DOCABSENT"  Status -> "0"
Mon Apr 18 02:28:16 2016 PM   tracedemo  :  Paper Status EXITING  SP       Response -> DOCABSENT
Mon Apr 18 02:28:17 2016 PM   tracedemo  :  Paper Status ENTERING  SP       Response -> SUCCESS
Monday 18 April 2016 02:28:17 PM IST  tracedemo  :  Paper Status  ENTERING  C++       Response -> SUCCESS
Monday 18 April 2016 02:28:17 PM IST  tracedemo  :  Paper Status EXECUTED  C++   Response -> "DOCABSENT"  Status -> "0"
Mon Apr 18 02:28:17 2016 PM   tracedemo  :  Paper Status EXITING  SP       Response -> DOCABSENT
Mon Apr 18 02:28:18 2016 PM   tracedemo  :  Paper Status ENTERING  SP       Response -> SUCCESS
Monday 18 April 2016 02:28:18 PM IST  tracedemo  :  Paper Status  ENTERING  C++       Response -> SUCCESS
Monday 18 April 2016 02:28:18 PM IST  tracedemo  :  Paper Status EXECUTED  C++   Response -> "DOCABSENT"  Status -> "0"
Mon Apr 18 02:28:18 2016 PM   tracedemo  :  Paper Status EXITING  SP       Response -> DOCABSENT
Mon Apr 18 02:28:19 2016 PM   tracedemo  :  Paper Status ENTERING  SP       Response -> SUCCESS
Monday 18 April 2016 02:28:19 PM IST  tracedemo  :  Paper Status  ENTERING  C++       Response -> SUCCESS
Monday 18 April 2016 02:28:19 PM IST  tracedemo  :  Paper Status EXECUTED  C++   Response -> "DOCABSENT"  Status -> "0"
Mon Apr 18 02:28:19 2016 PM   tracedemo  :  Paper Status EXITING  SP       Response -> DOCABSENT
Mon Apr 18 02:28:20 2016 PM   tracedemo  :  Paper Status ENTERING  SP       Response -> SUCCESS
Monday 18 April 2016 02:28:20 PM IST  tracedemo  :  Paper Status  ENTERING  C++       Response -> SUCCESS
Monday 18 April 2016 02:28:20 PM IST  tracedemo  :  Paper Status EXECUTED  C++   Response -> "DOCABSENT"  Status -> "0"
Mon Apr 18 02:28:20 2016 PM   tracedemo  :  Paper Status EXITING  SP       Response -> DOCABSENT
Mon Apr 18 02:28:21 2016 PM   tracedemo  :  Paper Status ENTERING  SP       Response -> SUCCESS
Monday 18 April 2016 02:28:21 PM IST  tracedemo  :  Paper Status  ENTERING  C++       Response -> SUCCESS
Monday 18 April 2016 02:28:21 PM IST  tracedemo  :  Paper Status EXECUTED  C++   Response -> "DOCABSENT"  Status -> "0"
Mon Apr 18 02:28:21 2016 PM   tracedemo  :  Paper Status EXITING  SP       Response -> DOCABSENT
Mon Apr 18 02:28:22 2016 PM   tracedemo  :  Paper Status ENTERING  SP       Response -> SUCCESS
Monday 18 April 2016 02:28:22 PM IST  tracedemo  :  Paper Status  ENTERING  C++       Response -> SUCCESS
Monday 18 April 2016 02:28:22 PM IST  tracedemo  :  Paper Status EXECUTED  C++   Response -> "DOCABSENT"  Status -> "0"
Mon Apr 18 02:28:22 2016 PM   tracedemo  :  Paper Status EXITING  SP       Response -> DOCABSENT
Mon Apr 18 02:28:23 2016 PM   tracedemo  :  Paper Status ENTERING  SP       Response -> SUCCESS
Monday 18 April 2016 02:28:23 PM IST  tracedemo  :  Paper Status  ENTERING  C++       Response -> SUCCESS
Monday 18 April 2016 02:28:23 PM IST  tracedemo  :  Paper Status EXECUTED  C++   Response -> "DOCABSENT"  Status -> "0"
Mon Apr 18 02:28:23 2016 PM   tracedemo  :  Paper Status EXITING  SP       Response -> DOCABSENT
Mon Apr 18 02:28:24 2016 PM   tracedemo  :  Paper Status ENTERING  SP       Response -> SUCCESS
Monday 18 April 2016 02:28:24 PM IST  tracedemo  :  Paper Status  ENTERING  C++       Response -> SUCCESS
Monday 18 April 2016 02:28:24 PM IST  tracedemo  :  Paper Status EXECUTED  C++   Response -> "DOCABSENT"  Status -> "0"
Mon Apr 18 02:28:24 2016 PM   tracedemo  :  Paper Status EXITING  SP       Response -> DOCABSENT
Mon Apr 18 02:28:25 2016 PM   tracedemo  :  Paper Status ENTERING  SP       Response -> SUCCESS
Monday 18 April 2016 02:28:25 PM IST  tracedemo  :  Paper Status  ENTERING  C++       Response -> SUCCESS
Monday 18 April 2016 02:28:25 PM IST  tracedemo  :  Paper Status EXECUTED  C++   Response -> "DOCABSENT"  Status -> "0"
Mon Apr 18 02:28:25 2016 PM   tracedemo  :  Paper Status EXITING  SP       Response -> DOCABSENT
Mon Apr 18 02:28:26 2016 PM   tracedemo  :  Paper Status ENTERING  SP       Response -> SUCCESS
Monday 18 April 2016 02:28:26 PM IST  tracedemo  :  Paper Status  ENTERING  C++       Response -> SUCCESS
Monday 18 April 2016 02:28:26 PM IST  tracedemo  :  Paper Status EXECUTED  C++   Response -> "DOCABSENT"  Status -> "0"
Mon Apr 18 02:28:26 2016 PM   tracedemo  :  Paper Status EXITING  SP       Response -> DOCABSENT
Mon Apr 18 02:28:27 2016 PM   tracedemo  :  Paper Status ENTERING  SP       Response -> SUCCESS
Monday 18 April 2016 02:28:27 PM IST  tracedemo  :  Paper Status  ENTERING  C++       Response -> SUCCESS
Monday 18 April 2016 02:28:27 PM IST  tracedemo  :  Paper Status EXECUTED  C++   Response -> "DOCABSENT"  Status -> "0"
Mon Apr 18 02:28:27 2016 PM   tracedemo  :  Paper Status EXITING  SP       Response -> DOCABSENT
Mon Apr 18 02:28:28 2016 PM   tracedemo  :  Paper Status ENTERING  SP       Response -> SUCCESS
Monday 18 April 2016 02:28:28 PM IST  tracedemo  :  Paper Status  ENTERING  C++       Response -> SUCCESS
Monday 18 April 2016 02:28:28 PM IST  tracedemo  :  Paper Status EXECUTED  C++   Response -> "DOCABSENT"  Status -> "0"
Mon Apr 18 02:28:28 2016 PM   tracedemo  :  Paper Status EXITING  SP       Response -> DOCABSENT
Mon Apr 18 02:28:29 2016 PM   tracedemo  :  Paper Status ENTERING  SP       Response -> SUCCESS
Monday 18 April 2016 02:28:29 PM IST  tracedemo  :  Paper Status  ENTERING  C++       Response -> SUCCESS
Monday 18 April 2016 02:28:29 PM IST  tracedemo  :  Paper Status EXECUTED  C++   Response -> "DOCABSENT"  Status -> "0"
Mon Apr 18 02:28:29 2016 PM   tracedemo  :  Paper Status EXITING  SP       Response -> DOCABSENT
Mon Apr 18 02:28:30 2016 PM   tracedemo  :  Paper Status ENTERING  SP       Response -> SUCCESS
Monday 18 April 2016 02:28:30 PM IST  tracedemo  :  Paper Status  ENTERING  C++       Response -> SUCCESS
Monday 18 April 2016 02:28:30 PM IST  tracedemo  :  Paper Status EXECUTED  C++   Response -> "DOCABSENT"  Status -> "0"
Mon Apr 18 02:28:30 2016 PM   tracedemo  :  Paper Status EXITING  SP       Response -> DOCABSENT
Mon Apr 18 02:28:31 2016 PM   tracedemo  :  Paper Status ENTERING  SP       Response -> SUCCESS
Monday 18 April 2016 02:28:31 PM IST  tracedemo  :  Paper Status  ENTERING  C++       Response -> SUCCESS
Monday 18 April 2016 02:28:31 PM IST  tracedemo  :  Paper Status EXECUTED  C++   Response -> "DOCABSENT"  Status -> "0"
Mon Apr 18 02:28:31 2016 PM   tracedemo  :  Paper Status EXITING  SP       Response -> DOCABSENT
Mon Apr 18 02:28:32 2016 PM   tracedemo  :  Paper Status ENTERING  SP       Response -> SUCCESS
Monday 18 April 2016 02:28:32 PM IST  tracedemo  :  Paper Status  ENTERING  C++       Response -> SUCCESS
Monday 18 April 2016 02:28:32 PM IST  tracedemo  :  Paper Status EXECUTED  C++   Response -> "DOCABSENT"  Status -> "0"
Mon Apr 18 02:28:32 2016 PM   tracedemo  :  Paper Status EXITING  SP       Response -> DOCABSENT
Mon Apr 18 02:28:33 2016 PM   tracedemo  :  Paper Status ENTERING  SP       Response -> SUCCESS
Monday 18 April 2016 02:28:33 PM IST  tracedemo  :  Paper Status  ENTERING  C++       Response -> SUCCESS
Monday 18 April 2016 02:28:33 PM IST  tracedemo  :  Paper Status EXECUTED  C++   Response -> "DOCABSENT"  Status -> "0"
Mon Apr 18 02:28:33 2016 PM   tracedemo  :  Paper Status EXITING  SP       Response -> DOCABSENT
Mon Apr 18 02:28:33 2016 PM   tracedemo  :  Eject ENTERING  SP       Response -> SUCCESS
Monday 18 April 2016 02:28:34 PM IST  tracedemo  :  Eject  ENTERING  C++       Response -> SUCCESS
Monday 18 April 2016 02:28:34 PM IST  tracedemo  :  Eject EXECUTED  C++       Response -> ONLINE  Error_Code -> "0"
Mon Apr 18 02:28:34 2016 PM   tracedemo  :  Eject Executed  SP       Response -> SUCCESS
Mon Apr 18 02:28:43 2016 PM   tracedemo  :  Configuration ENTERING  SP       Response -> SUCCESS
Monday 18 April 2016 02:28:43 PM IST  tracedemo  :  Configuration ENTERING  C++       Response -> SUCCESS
Monday 18 April 2016 02:28:43 PM IST  tracedemo  :  Configuration CPI & LPI  C++       CPI ->"17"  LPI ->"40"   Response -> SUCCESS
Monday 18 April 2016 02:28:43 PM IST  tracedemo  :   Device Successfully Initialized  C++       Response -> SUCCESS
Mon Apr 18 02:28:44 2016 PM   tracedemo  :  Paper Status ENTERING  SP       Response -> SUCCESS
Monday 18 April 2016 02:28:44 PM IST  tracedemo  :  Paper Status  ENTERING  C++       Response -> SUCCESS
Monday 18 April 2016 02:28:44 PM IST  tracedemo  :  Paper Status EXECUTED  C++   Response -> "DOCEJECTED"  Status -> "1"
Mon Apr 18 02:28:44 2016 PM   tracedemo  :  Paper Status EXITING  SP       Response -> DOCEJECTED
Mon Apr 18 02:28:45 2016 PM   tracedemo  :  Paper Status ENTERING  SP       Response -> SUCCESS
Monday 18 April 2016 02:28:45 PM IST  tracedemo  :  Paper Status  ENTERING  C++       Response -> SUCCESS
Monday 18 April 2016 02:28:46 PM IST  tracedemo  :  Paper Status EXECUTED  C++   Response -> "DOCEJECTED"  Status -> "1"
Mon Apr 18 02:28:46 2016 PM   tracedemo  :  Paper Status EXITING  SP       Response -> DOCEJECTED
Mon Apr 18 02:28:47 2016 PM   tracedemo  :  Paper Status ENTERING  SP       Response -> SUCCESS
Monday 18 April 2016 02:28:47 PM IST  tracedemo  :  Paper Status  ENTERING  C++       Response -> SUCCESS
Monday 18 April 2016 02:28:47 PM IST  tracedemo  :  Paper Status EXECUTED  C++   Response -> "DOCPRESENT"  Status -> "2"
Mon Apr 18 02:28:47 2016 PM   tracedemo  :  Paper Status EXITING  SP       Response -> DOCPRESENT
Mon Apr 18 02:28:47 2016 PM   tracedemo  :  Scanning ENTERING  SP       Response -> SUCCESS
Monday 18 April 2016 02:28:47 PM IST  tracedemo  :  Scanning  ENTERING  C++       Response -> SUCCESS
Monday 18 April 2016 02:28:47 PM IST  tracedemo  :  Scanning Properties  C++       BitsPerPixel -> "8"  ScanMode ->"SCAN_FRONT_REAR" 
Monday 18 April 2016 02:28:52 PM IST  tracedemo  :  Scanning EXECUTED  C++       Response -> ONLINE
Mon Apr 18 02:28:52 2016 PM   tracedemo  :   Barcode Range specified Min->9  Max->16SP       
Mon Apr 18 02:28:52 2016 PM   tracedemo  :   Length of barcode retrieved ->15  SP       
Mon Apr 18 02:28:52 2016 PM   tracedemo  :  Barcode scanning successfully executed  SP       Response -> SUCCESSFULL	Barcode Data ->	914010006330142
Mon Apr 18 02:28:52 2016 PM   tracedemo  :  SCanning   SP   LOWER REGION specified for scanning
Mon Apr 18 02:28:52 2016 PM tracedemo  :  Scanning EXITING  SP       Response -> SUCCESS     Barcode Data -> 914010006330142
Mon Apr 18 02:36:58 2016 PM   tracedemo  :  Print ENTERING  SP       Response -> SUCCESS
Monday 18 April 2016 02:36:58 PM IST  tracedemo  :  Printing  ENTERING  C++       Response -> SUCCESS
Monday 18 April 2016 02:36:58 PM IST  tracedemo  :  Printing path  C++       Path ->  "/root/forbes/microbanker/bin/Print_Files/PrintFile.txt"
Monday 18 April 2016 02:37:01 PM IST  tracedemo  :  Printing EXECUTED  C++       Response -> ONLINE
Mon Apr 18 02:37:01 2016 PM   tracedemo  :  Print EXITING  SP       Response -> SUCCESS
Mon Apr 18 02:37:03 2016 PM   tracedemo  :  Eject ENTERING  SP       Response -> SUCCESS
Monday 18 April 2016 02:37:04 PM IST  tracedemo  :  Eject  ENTERING  C++       Response -> SUCCESS
Monday 18 April 2016 02:37:04 PM IST  tracedemo  :  Eject EXECUTED  C++       Response -> ONLINE  Error_Code -> "0"
Mon Apr 18 02:37:04 2016 PM   tracedemo  :  Eject Executed  SP       Response -> SUCCESS
Mon Apr 18 03:05:40 2016 PM   tracedemo  :  Configuration ENTERING  SP       Response -> SUCCESS
Monday 18 April 2016 03:05:40 PM IST  tracedemo  :  Configuration ENTERING  C++       Response -> SUCCESS
Monday 18 April 2016 03:05:40 PM IST  tracedemo  :  Configuration CPI & LPI  C++       CPI ->"17"  LPI ->"40"   Response -> SUCCESS
Monday 18 April 2016 03:05:45 PM IST  tracedemo  :   Device Successfully Initialized  C++       Response -> SUCCESS
Mon Apr 18 03:05:50 2016 PM   tracedemo  :  Configuration ENTERING  SP       Response -> SUCCESS
Monday 18 April 2016 03:05:50 PM IST  tracedemo  :  Configuration ENTERING  C++       Response -> SUCCESS
Monday 18 April 2016 03:05:50 PM IST  tracedemo  :  Configuration CPI & LPI  C++       CPI ->"17"  LPI ->"40"   Response -> SUCCESS
Monday 18 April 2016 03:05:50 PM IST  tracedemo  :   Device Successfully Initialized  C++       Response -> SUCCESS
Mon Apr 18 03:05:51 2016 PM   tracedemo  :  Paper Status ENTERING  SP       Response -> SUCCESS
Monday 18 April 2016 03:05:51 PM IST  tracedemo  :  Paper Status  ENTERING  C++       Response -> SUCCESS
Monday 18 April 2016 03:05:51 PM IST  tracedemo  :  Paper Status EXECUTED  C++   Response -> "DOCPRESENT"  Status -> "2"
Mon Apr 18 03:05:51 2016 PM   tracedemo  :  Paper Status EXITING  SP       Response -> DOCPRESENT
Mon Apr 18 03:05:51 2016 PM   tracedemo  :  Scanning ENTERING  SP       Response -> SUCCESS
Monday 18 April 2016 03:05:51 PM IST  tracedemo  :  Scanning  ENTERING  C++       Response -> SUCCESS
Monday 18 April 2016 03:05:51 PM IST  tracedemo  :  Scanning Properties  C++       BitsPerPixel -> "8"  ScanMode ->"SCAN_FRONT_REAR" 
Monday 18 April 2016 03:05:55 PM IST  tracedemo  :  Scanning EXECUTED  C++       Response -> ONLINE
Mon Apr 18 03:05:56 2016 PM   tracedemo  :   Barcode Range specified Min->9  Max->16SP       
Mon Apr 18 03:05:56 2016 PM   tracedemo  :   Length of barcode retrieved ->15  SP       
Mon Apr 18 03:05:56 2016 PM   tracedemo  :  Barcode scanning successfully executed  SP       Response -> SUCCESSFULL	Barcode Data ->	914010006330142
Mon Apr 18 03:05:56 2016 PM   tracedemo  :  SCanning   SP   LOWER REGION specified for scanning
Mon Apr 18 03:05:56 2016 PM tracedemo  :  Scanning EXITING  SP       Response -> SUCCESS     Barcode Data -> 914010006330142
Mon Apr 18 03:07:14 2016 PM   tracedemo  :  Print ENTERING  SP       Response -> SUCCESS
Monday 18 April 2016 03:07:14 PM IST  tracedemo  :  Printing  ENTERING  C++       Response -> SUCCESS
Monday 18 April 2016 03:07:14 PM IST  tracedemo  :  Printing path  C++       Path ->  "/root/forbes/microbanker/bin/Print_Files/PrintFile.txt"
Monday 18 April 2016 03:07:17 PM IST  tracedemo  :  Printing EXECUTED  C++       Response -> ONLINE
Mon Apr 18 03:07:17 2016 PM   tracedemo  :  Print EXITING  SP       Response -> SUCCESS
Mon Apr 18 03:07:17 2016 PM   tracedemo  :  Eject ENTERING  SP       Response -> SUCCESS
Monday 18 April 2016 03:07:19 PM IST  tracedemo  :  Eject  ENTERING  C++       Response -> SUCCESS
Monday 18 April 2016 03:07:19 PM IST  tracedemo  :  Eject EXECUTED  C++       Response -> ONLINE  Error_Code -> "0"
Mon Apr 18 03:07:19 2016 PM   tracedemo  :  Eject Executed  SP       Response -> SUCCESS
Mon Apr 18 03:40:25 2016 PM   tracedemo  :  Print ENTERING  SP       Response -> SUCCESS
Monday 18 April 2016 03:40:25 PM IST  tracedemo  :  Printing  ENTERING  C++       Response -> SUCCESS
Monday 18 April 2016 03:40:25 PM IST  tracedemo  :  Printing path  C++       Path ->  "/root/forbes/microbanker/bin/Print_Files/PrintFile.txt"
Monday 18 April 2016 03:40:32 PM IST  tracedemo  :  Printing EXECUTED  C++       Response -> ONLINE
Mon Apr 18 03:40:32 2016 PM   tracedemo  :  Print EXITING  SP       Response -> SUCCESS
Mon Apr 18 04:08:24 2016 PM   tracedemo  :  Configuration ENTERING  SP       Response -> SUCCESS
Monday 18 April 2016 04:08:24 PM IST  tracedemo  :  Configuration ENTERING  C++       Response -> SUCCESS
Monday 18 April 2016 04:08:24 PM IST  tracedemo  :  Configuration CPI & LPI  C++       CPI ->"17"  LPI ->"40"   Response -> SUCCESS
Monday 18 April 2016 04:08:30 PM IST  tracedemo  :   Device Successfully Initialized  C++       Response -> SUCCESS
Mon Apr 18 04:08:49 2016 PM   tracedemo  :  Configuration ENTERING  SP       Response -> SUCCESS
Monday 18 April 2016 04:08:49 PM IST  tracedemo  :  Configuration ENTERING  C++       Response -> SUCCESS
Monday 18 April 2016 04:08:49 PM IST  tracedemo  :  Configuration CPI & LPI  C++       CPI ->"17"  LPI ->"40"   Response -> SUCCESS
Monday 18 April 2016 04:08:55 PM IST  tracedemo  :   Device Successfully Initialized  C++       Response -> SUCCESS
Mon Apr 18 04:08:58 2016 PM   tracedemo  :  Configuration ENTERING  SP       Response -> SUCCESS
Monday 18 April 2016 04:08:58 PM IST  tracedemo  :  Configuration ENTERING  C++       Response -> SUCCESS
Monday 18 April 2016 04:08:58 PM IST  tracedemo  :  Configuration CPI & LPI  C++       CPI ->"17"  LPI ->"40"   Response -> SUCCESS
Monday 18 April 2016 04:08:58 PM IST  tracedemo  :   Device Successfully Initialized  C++       Response -> SUCCESS
Mon Apr 18 04:08:59 2016 PM   tracedemo  :  Paper Status ENTERING  SP       Response -> SUCCESS
Monday 18 April 2016 04:08:59 PM IST  tracedemo  :  Paper Status  ENTERING  C++       Response -> SUCCESS
Monday 18 April 2016 04:08:59 PM IST  tracedemo  :  Paper Status EXECUTED  C++   Response -> "DOCPRESENT"  Status -> "2"
Mon Apr 18 04:08:59 2016 PM   tracedemo  :  Paper Status EXITING  SP       Response -> DOCPRESENT
Mon Apr 18 04:08:59 2016 PM   tracedemo  :  Scanning ENTERING  SP       Response -> SUCCESS
Monday 18 April 2016 04:08:59 PM IST  tracedemo  :  Scanning  ENTERING  C++       Response -> SUCCESS
Monday 18 April 2016 04:08:59 PM IST  tracedemo  :  Scanning Properties  C++       BitsPerPixel -> "8"  ScanMode ->"SCAN_FRONT_REAR" 
Monday 18 April 2016 04:09:04 PM IST  tracedemo  :  Scanning EXECUTED  C++       Response -> ONLINE
Mon Apr 18 04:09:04 2016 PM   tracedemo  :   Barcode Range specified Min->9  Max->16SP       
Mon Apr 18 04:09:04 2016 PM   tracedemo  :   Length of barcode retrieved ->15  SP       
Mon Apr 18 04:09:04 2016 PM   tracedemo  :  Barcode scanning successfully executed  SP       Response -> SUCCESSFULL	Barcode Data ->	914010006330142
Mon Apr 18 04:09:04 2016 PM   tracedemo  :  SCanning   SP   LOWER REGION specified for scanning
Mon Apr 18 04:09:04 2016 PM tracedemo  :  Scanning EXITING  SP       Response -> SUCCESS     Barcode Data -> 914010006330142
Mon Apr 18 04:20:44 2016 PM   tracedemo  :  Print ENTERING  SP       Response -> SUCCESS
Monday 18 April 2016 04:20:44 PM IST  tracedemo  :  Printing  ENTERING  C++       Response -> SUCCESS
Monday 18 April 2016 04:20:44 PM IST  tracedemo  :  Printing path  C++       Path ->  "/root/forbes/microbanker/bin/Print_Files/PrintFile.txt"
Monday 18 April 2016 04:20:47 PM IST  tracedemo  :  "Printing could not be executed"  C++       Response -> END_OF_DOC  Error_Code -> "814"
Mon Apr 18 04:20:47 2016 PM   tracedemo  :  Print EXITING  SP       Response -> END_OF_DOC
Mon Apr 18 04:22:26 2016 PM   tracedemo  :  Configuration ENTERING  SP       Response -> SUCCESS
Monday 18 April 2016 04:22:26 PM IST  tracedemo  :  Configuration ENTERING  C++       Response -> SUCCESS
Monday 18 April 2016 04:22:26 PM IST  tracedemo  :  Configuration CPI & LPI  C++       CPI ->"17"  LPI ->"40"   Response -> SUCCESS
Monday 18 April 2016 04:22:33 PM IST  tracedemo  :   Device Successfully Initialized  C++       Response -> SUCCESS
Mon Apr 18 04:22:36 2016 PM   tracedemo  :  Configuration ENTERING  SP       Response -> SUCCESS
Monday 18 April 2016 04:22:36 PM IST  tracedemo  :  Configuration ENTERING  C++       Response -> SUCCESS
Monday 18 April 2016 04:22:36 PM IST  tracedemo  :  Configuration CPI & LPI  C++       CPI ->"17"  LPI ->"40"   Response -> SUCCESS
Monday 18 April 2016 04:22:36 PM IST  tracedemo  :   Device Successfully Initialized  C++       Response -> SUCCESS
Mon Apr 18 04:22:37 2016 PM   tracedemo  :  Paper Status ENTERING  SP       Response -> SUCCESS
Monday 18 April 2016 04:22:37 PM IST  tracedemo  :  Paper Status  ENTERING  C++       Response -> SUCCESS
Monday 18 April 2016 04:22:37 PM IST  tracedemo  :  Paper Status EXECUTED  C++   Response -> "DOCPRESENT"  Status -> "2"
Mon Apr 18 04:22:37 2016 PM   tracedemo  :  Paper Status EXITING  SP       Response -> DOCPRESENT
Mon Apr 18 04:22:37 2016 PM   tracedemo  :  Scanning ENTERING  SP       Response -> SUCCESS
Monday 18 April 2016 04:22:37 PM IST  tracedemo  :  Scanning  ENTERING  C++       Response -> SUCCESS
Monday 18 April 2016 04:22:37 PM IST  tracedemo  :  Scanning Properties  C++       BitsPerPixel -> "8"  ScanMode ->"SCAN_FRONT_REAR" 
Monday 18 April 2016 04:22:42 PM IST  tracedemo  :  Scanning EXECUTED  C++       Response -> ONLINE
Mon Apr 18 04:22:42 2016 PM   tracedemo  :   Barcode Range specified Min->9  Max->16SP       
Mon Apr 18 04:22:42 2016 PM   tracedemo  :   Length of barcode retrieved ->15  SP       
Mon Apr 18 04:22:42 2016 PM   tracedemo  :  Barcode scanning successfully executed  SP       Response -> SUCCESSFULL	Barcode Data ->	914010006330142
Mon Apr 18 04:22:42 2016 PM   tracedemo  :  SCanning   SP   LOWER REGION specified for scanning
Mon Apr 18 04:22:42 2016 PM tracedemo  :  Scanning EXITING  SP       Response -> SUCCESS     Barcode Data -> 914010006330142
Mon Apr 18 04:23:03 2016 PM   tracedemo  :  Print ENTERING  SP       Response -> SUCCESS
Monday 18 April 2016 04:23:03 PM IST  tracedemo  :  Printing  ENTERING  C++       Response -> SUCCESS
Monday 18 April 2016 04:23:03 PM IST  tracedemo  :  Printing path  C++       Path ->  "/root/forbes/microbanker/bin/Print_Files/PrintFile.txt"
Monday 18 April 2016 04:23:06 PM IST  tracedemo  :  Printing EXECUTED  C++       Response -> ONLINE
Mon Apr 18 04:23:06 2016 PM   tracedemo  :  Print EXITING  SP       Response -> SUCCESS
Mon Apr 18 04:23:06 2016 PM   tracedemo  :  Eject ENTERING  SP       Response -> SUCCESS
Monday 18 April 2016 04:23:08 PM IST  tracedemo  :  Eject  ENTERING  C++       Response -> SUCCESS
Monday 18 April 2016 04:23:08 PM IST  tracedemo  :  Eject EXECUTED  C++       Response -> ONLINE  Error_Code -> "0"
Mon Apr 18 04:23:08 2016 PM   tracedemo  :  Eject Executed  SP       Response -> SUCCESS
Mon Apr 18 04:24:34 2016 PM   tracedemo  :  Print ENTERING  SP       Response -> SUCCESS
Monday 18 April 2016 04:24:34 PM IST  tracedemo  :  Printing  ENTERING  C++       Response -> SUCCESS
Monday 18 April 2016 04:24:34 PM IST  tracedemo  :  Printing path  C++       Path ->  "/root/forbes/microbanker/bin/Print_Files/PrintFile.txt"
Monday 18 April 2016 04:24:42 PM IST  tracedemo  :  Printing EXECUTED  C++       Response -> ONLINE
Mon Apr 18 04:24:42 2016 PM   tracedemo  :  Print EXITING  SP       Response -> SUCCESS
Mon Apr 18 04:29:34 2016 PM   tracedemo  :  Configuration ENTERING  SP       Response -> SUCCESS
Monday 18 April 2016 04:29:34 PM IST  tracedemo  :  Configuration ENTERING  C++       Response -> SUCCESS
Monday 18 April 2016 04:29:34 PM IST  tracedemo  :  Configuration CPI & LPI  C++       CPI ->"17"  LPI ->"40"   Response -> SUCCESS
Monday 18 April 2016 04:29:40 PM IST  tracedemo  :   Device Successfully Initialized  C++       Response -> SUCCESS
Mon Apr 18 04:29:42 2016 PM   tracedemo  :  Configuration ENTERING  SP       Response -> SUCCESS
Monday 18 April 2016 04:29:42 PM IST  tracedemo  :  Configuration ENTERING  C++       Response -> SUCCESS
Monday 18 April 2016 04:29:42 PM IST  tracedemo  :  Configuration CPI & LPI  C++       CPI ->"17"  LPI ->"40"   Response -> SUCCESS
Monday 18 April 2016 04:29:42 PM IST  tracedemo  :   Device Successfully Initialized  C++       Response -> SUCCESS
Mon Apr 18 04:29:43 2016 PM   tracedemo  :  Paper Status ENTERING  SP       Response -> SUCCESS
Monday 18 April 2016 04:29:43 PM IST  tracedemo  :  Paper Status  ENTERING  C++       Response -> SUCCESS
Monday 18 April 2016 04:29:43 PM IST  tracedemo  :  Paper Status EXECUTED  C++   Response -> "DOCABSENT"  Status -> "0"
Mon Apr 18 04:29:43 2016 PM   tracedemo  :  Paper Status EXITING  SP       Response -> DOCABSENT
Mon Apr 18 04:29:44 2016 PM   tracedemo  :  Paper Status ENTERING  SP       Response -> SUCCESS
Monday 18 April 2016 04:29:44 PM IST  tracedemo  :  Paper Status  ENTERING  C++       Response -> SUCCESS
Monday 18 April 2016 04:29:44 PM IST  tracedemo  :  Paper Status EXECUTED  C++   Response -> "DOCABSENT"  Status -> "0"
Mon Apr 18 04:29:45 2016 PM   tracedemo  :  Paper Status EXITING  SP       Response -> DOCABSENT
Mon Apr 18 04:29:46 2016 PM   tracedemo  :  Paper Status ENTERING  SP       Response -> SUCCESS
Monday 18 April 2016 04:29:46 PM IST  tracedemo  :  Paper Status  ENTERING  C++       Response -> SUCCESS
Monday 18 April 2016 04:29:46 PM IST  tracedemo  :  Paper Status EXECUTED  C++   Response -> "DOCABSENT"  Status -> "0"
Mon Apr 18 04:29:46 2016 PM   tracedemo  :  Paper Status EXITING  SP       Response -> DOCABSENT
Mon Apr 18 04:29:47 2016 PM   tracedemo  :  Paper Status ENTERING  SP       Response -> SUCCESS
Monday 18 April 2016 04:29:47 PM IST  tracedemo  :  Paper Status  ENTERING  C++       Response -> SUCCESS
Monday 18 April 2016 04:29:47 PM IST  tracedemo  :  Paper Status EXECUTED  C++   Response -> "DOCABSENT"  Status -> "0"
Mon Apr 18 04:29:47 2016 PM   tracedemo  :  Paper Status EXITING  SP       Response -> DOCABSENT
Mon Apr 18 04:29:48 2016 PM   tracedemo  :  Paper Status ENTERING  SP       Response -> SUCCESS
Monday 18 April 2016 04:29:48 PM IST  tracedemo  :  Paper Status  ENTERING  C++       Response -> SUCCESS
Monday 18 April 2016 04:29:48 PM IST  tracedemo  :  Paper Status EXECUTED  C++   Response -> "DOCPRESENT"  Status -> "2"
Mon Apr 18 04:29:48 2016 PM   tracedemo  :  Paper Status EXITING  SP       Response -> DOCPRESENT
Mon Apr 18 04:29:48 2016 PM   tracedemo  :  Scanning ENTERING  SP       Response -> SUCCESS
Monday 18 April 2016 04:29:48 PM IST  tracedemo  :  Scanning  ENTERING  C++       Response -> SUCCESS
Monday 18 April 2016 04:29:48 PM IST  tracedemo  :  Scanning Properties  C++       BitsPerPixel -> "8"  ScanMode ->"SCAN_FRONT_REAR" 
Monday 18 April 2016 04:29:52 PM IST  tracedemo  :  Scanning EXECUTED  C++       Response -> ONLINE
Mon Apr 18 04:29:53 2016 PM   tracedemo  :   Barcode Range specified Min->9  Max->16SP       
Mon Apr 18 04:29:53 2016 PM   tracedemo  :   Length of barcode retrieved ->15  SP       
Mon Apr 18 04:29:53 2016 PM   tracedemo  :  Barcode scanning successfully executed  SP       Response -> SUCCESSFULL	Barcode Data ->	914010006330142
Mon Apr 18 04:29:53 2016 PM   tracedemo  :  SCanning   SP   LOWER REGION specified for scanning
Mon Apr 18 04:29:53 2016 PM tracedemo  :  Scanning EXITING  SP       Response -> SUCCESS     Barcode Data -> 914010006330142
Mon Apr 18 04:30:26 2016 PM   tracedemo  :  Print ENTERING  SP       Response -> SUCCESS
Monday 18 April 2016 04:30:26 PM IST  tracedemo  :  Printing  ENTERING  C++       Response -> SUCCESS
Monday 18 April 2016 04:30:26 PM IST  tracedemo  :  Printing path  C++       Path ->  "/root/forbes/microbanker/bin/Print_Files/PrintFile.txt"
Monday 18 April 2016 04:30:29 PM IST  tracedemo  :  Printing EXECUTED  C++       Response -> ONLINE
Mon Apr 18 04:30:29 2016 PM   tracedemo  :  Print EXITING  SP       Response -> SUCCESS
Mon Apr 18 04:30:33 2016 PM   tracedemo  :  Eject ENTERING  SP       Response -> SUCCESS
Monday 18 April 2016 04:30:35 PM IST  tracedemo  :  Eject  ENTERING  C++       Response -> SUCCESS
Monday 18 April 2016 04:30:35 PM IST  tracedemo  :  Eject EXECUTED  C++       Response -> ONLINE  Error_Code -> "0"
Mon Apr 18 04:30:35 2016 PM   tracedemo  :  Eject Executed  SP       Response -> SUCCESS
Mon Apr 18 04:30:35 2016 PM   tracedemo  :  Paper Status ENTERING  SP       Response -> SUCCESS
Monday 18 April 2016 04:30:35 PM IST  tracedemo  :  Paper Status  ENTERING  C++       Response -> SUCCESS
Monday 18 April 2016 04:30:35 PM IST  tracedemo  :  Paper Status EXECUTED  C++   Response -> "DOCEJECTED"  Status -> "1"
Mon Apr 18 04:30:35 2016 PM   tracedemo  :  Paper Status EXITING  SP       Response -> DOCEJECTED
Mon Apr 18 04:30:35 2016 PM   tracedemo  :  Paper Status ENTERING  SP       Response -> SUCCESS
Monday 18 April 2016 04:30:35 PM IST  tracedemo  :  Paper Status  ENTERING  C++       Response -> SUCCESS
Monday 18 April 2016 04:30:35 PM IST  tracedemo  :  Paper Status EXECUTED  C++   Response -> "DOCEJECTED"  Status -> "1"
Mon Apr 18 04:30:35 2016 PM   tracedemo  :  Paper Status EXITING  SP       Response -> DOCEJECTED
Mon Apr 18 04:30:36 2016 PM   tracedemo  :  Paper Status ENTERING  SP       Response -> SUCCESS
Monday 18 April 2016 04:30:36 PM IST  tracedemo  :  Paper Status  ENTERING  C++       Response -> SUCCESS
Monday 18 April 2016 04:30:36 PM IST  tracedemo  :  Paper Status EXECUTED  C++   Response -> "DOCEJECTED"  Status -> "1"
Mon Apr 18 04:30:36 2016 PM   tracedemo  :  Paper Status EXITING  SP       Response -> DOCEJECTED
Mon Apr 18 04:30:37 2016 PM   tracedemo  :  Paper Status ENTERING  SP       Response -> SUCCESS
Monday 18 April 2016 04:30:37 PM IST  tracedemo  :  Paper Status  ENTERING  C++       Response -> SUCCESS
Monday 18 April 2016 04:30:37 PM IST  tracedemo  :  Paper Status EXECUTED  C++   Response -> "DOCEJECTED"  Status -> "1"
Mon Apr 18 04:30:37 2016 PM   tracedemo  :  Paper Status EXITING  SP       Response -> DOCEJECTED
Mon Apr 18 04:30:38 2016 PM   tracedemo  :  Paper Status ENTERING  SP       Response -> SUCCESS
Monday 18 April 2016 04:30:38 PM IST  tracedemo  :  Paper Status  ENTERING  C++       Response -> SUCCESS
Monday 18 April 2016 04:30:38 PM IST  tracedemo  :  Paper Status EXECUTED  C++   Response -> "DOCEJECTED"  Status -> "1"
Mon Apr 18 04:30:38 2016 PM   tracedemo  :  Paper Status EXITING  SP       Response -> DOCEJECTED
Mon Apr 18 04:30:39 2016 PM   tracedemo  :  Paper Status ENTERING  SP       Response -> SUCCESS
Monday 18 April 2016 04:30:39 PM IST  tracedemo  :  Paper Status  ENTERING  C++       Response -> SUCCESS
Monday 18 April 2016 04:30:39 PM IST  tracedemo  :  Paper Status EXECUTED  C++   Response -> "DOCEJECTED"  Status -> "1"
Mon Apr 18 04:30:39 2016 PM   tracedemo  :  Paper Status EXITING  SP       Response -> DOCEJECTED
Mon Apr 18 04:30:40 2016 PM   tracedemo  :  Paper Status ENTERING  SP       Response -> SUCCESS
Monday 18 April 2016 04:30:40 PM IST  tracedemo  :  Paper Status  ENTERING  C++       Response -> SUCCESS
Monday 18 April 2016 04:30:40 PM IST  tracedemo  :  Paper Status EXECUTED  C++   Response -> "DOCEJECTED"  Status -> "1"
Mon Apr 18 04:30:40 2016 PM   tracedemo  :  Paper Status EXITING  SP       Response -> DOCEJECTED
Mon Apr 18 04:30:41 2016 PM   tracedemo  :  Paper Status ENTERING  SP       Response -> SUCCESS
Monday 18 April 2016 04:30:41 PM IST  tracedemo  :  Paper Status  ENTERING  C++       Response -> SUCCESS
Monday 18 April 2016 04:30:41 PM IST  tracedemo  :  Paper Status EXECUTED  C++   Response -> "DOCEJECTED"  Status -> "1"
Mon Apr 18 04:30:41 2016 PM   tracedemo  :  Paper Status EXITING  SP       Response -> DOCEJECTED
Mon Apr 18 04:30:42 2016 PM   tracedemo  :  Paper Status ENTERING  SP       Response -> SUCCESS
Monday 18 April 2016 04:30:42 PM IST  tracedemo  :  Paper Status  ENTERING  C++       Response -> SUCCESS
Monday 18 April 2016 04:30:42 PM IST  tracedemo  :  Paper Status EXECUTED  C++   Response -> "DOCABSENT"  Status -> "0"
Mon Apr 18 04:30:42 2016 PM   tracedemo  :  Paper Status EXITING  SP       Response -> DOCABSENT
Mon Apr 18 04:30:43 2016 PM   tracedemo  :  Paper Status ENTERING  SP       Response -> SUCCESS
Monday 18 April 2016 04:30:43 PM IST  tracedemo  :  Paper Status  ENTERING  C++       Response -> SUCCESS
Monday 18 April 2016 04:30:43 PM IST  tracedemo  :  Paper Status EXECUTED  C++   Response -> "DOCPRESENT"  Status -> "2"
Mon Apr 18 04:30:43 2016 PM   tracedemo  :  Paper Status EXITING  SP       Response -> DOCPRESENT
Mon Apr 18 04:30:44 2016 PM   tracedemo  :  Scanning ENTERING  SP       Response -> SUCCESS
Monday 18 April 2016 04:30:44 PM IST  tracedemo  :  Scanning  ENTERING  C++       Response -> SUCCESS
Monday 18 April 2016 04:30:44 PM IST  tracedemo  :  Scanning Properties  C++       BitsPerPixel -> "8"  ScanMode ->"SCAN_FRONT_REAR" 
Monday 18 April 2016 04:30:48 PM IST  tracedemo  :  Scanning EXECUTED  C++       Response -> ONLINE
Mon Apr 18 04:30:49 2016 PM   tracedemo  :   Barcode Range specified Min->9  Max->16SP       
Mon Apr 18 04:30:49 2016 PM   tracedemo  :   Length of barcode retrieved ->15  SP       
Mon Apr 18 04:30:49 2016 PM   tracedemo  :  Barcode scanning successfully executed  SP       Response -> SUCCESSFULL	Barcode Data ->	914010006330142
Mon Apr 18 04:30:49 2016 PM   tracedemo  :  SCanning   SP   LOWER REGION specified for scanning
Mon Apr 18 04:30:49 2016 PM tracedemo  :  Scanning EXITING  SP       Response -> SUCCESS     Barcode Data -> 914010006330142
Mon Apr 18 04:34:07 2016 PM   tracedemo  :  Configuration ENTERING  SP       Response -> SUCCESS
Monday 18 April 2016 04:34:07 PM IST  tracedemo  :  Configuration ENTERING  C++       Response -> SUCCESS
Monday 18 April 2016 04:34:07 PM IST  tracedemo  :  Configuration CPI & LPI  C++       CPI ->"17"  LPI ->"40"   Response -> SUCCESS
Monday 18 April 2016 04:34:14 PM IST  tracedemo  :   Device Successfully Initialized  C++       Response -> SUCCESS
Mon Apr 18 04:34:28 2016 PM   tracedemo  :  Configuration ENTERING  SP       Response -> SUCCESS
Monday 18 April 2016 04:34:28 PM IST  tracedemo  :  Configuration ENTERING  C++       Response -> SUCCESS
Monday 18 April 2016 04:34:28 PM IST  tracedemo  :  Configuration CPI & LPI  C++       CPI ->"17"  LPI ->"40"   Response -> SUCCESS
Monday 18 April 2016 04:34:28 PM IST  tracedemo  :   Device Successfully Initialized  C++       Response -> SUCCESS
Mon Apr 18 04:34:29 2016 PM   tracedemo  :  Paper Status ENTERING  SP       Response -> SUCCESS
Monday 18 April 2016 04:34:29 PM IST  tracedemo  :  Paper Status  ENTERING  C++       Response -> SUCCESS
Monday 18 April 2016 04:34:29 PM IST  tracedemo  :  Paper Status EXECUTED  C++   Response -> "DOCPRESENT"  Status -> "2"
Mon Apr 18 04:34:29 2016 PM   tracedemo  :  Paper Status EXITING  SP       Response -> DOCPRESENT
Mon Apr 18 04:34:29 2016 PM   tracedemo  :  Scanning ENTERING  SP       Response -> SUCCESS
Monday 18 April 2016 04:34:29 PM IST  tracedemo  :  Scanning  ENTERING  C++       Response -> SUCCESS
Monday 18 April 2016 04:34:29 PM IST  tracedemo  :  Scanning Properties  C++       BitsPerPixel -> "8"  ScanMode ->"SCAN_FRONT_REAR" 
Monday 18 April 2016 04:34:34 PM IST  tracedemo  :  Scanning EXECUTED  C++       Response -> ONLINE
Mon Apr 18 04:34:34 2016 PM   tracedemo  :   Barcode Range specified Min->9  Max->16SP       
Mon Apr 18 04:34:34 2016 PM   tracedemo  :   Length of barcode retrieved ->15  SP       
Mon Apr 18 04:34:34 2016 PM   tracedemo  :  Barcode scanning successfully executed  SP       Response -> SUCCESSFULL	Barcode Data ->	914010006330142
Mon Apr 18 04:34:34 2016 PM   tracedemo  :  SCanning   SP   LOWER REGION specified for scanning
Mon Apr 18 04:34:34 2016 PM tracedemo  :  Scanning EXITING  SP       Response -> SUCCESS     Barcode Data -> 914010006330142
Mon Apr 18 04:37:55 2016 PM   tracedemo  :  Print ENTERING  SP       Response -> SUCCESS
Monday 18 April 2016 04:37:55 PM IST  tracedemo  :  Printing  ENTERING  C++       Response -> SUCCESS
Monday 18 April 2016 04:37:55 PM IST  tracedemo  :  Printing path  C++       Path ->  "/root/forbes/microbanker/bin/Print_Files/PrintFile.txt"
Monday 18 April 2016 04:37:58 PM IST  tracedemo  :  Printing EXECUTED  C++       Response -> ONLINE
Mon Apr 18 04:37:58 2016 PM   tracedemo  :  Print EXITING  SP       Response -> SUCCESS
Mon Apr 18 04:38:03 2016 PM   tracedemo  :  Eject ENTERING  SP       Response -> SUCCESS
Monday 18 April 2016 04:38:04 PM IST  tracedemo  :  Eject  ENTERING  C++       Response -> SUCCESS
Monday 18 April 2016 04:38:04 PM IST  tracedemo  :  Eject EXECUTED  C++       Response -> ONLINE  Error_Code -> "0"
Mon Apr 18 04:38:04 2016 PM   tracedemo  :  Eject Executed  SP       Response -> SUCCESS
Mon Apr 18 04:38:04 2016 PM   tracedemo  :  Paper Status ENTERING  SP       Response -> SUCCESS
Monday 18 April 2016 04:38:04 PM IST  tracedemo  :  Paper Status  ENTERING  C++       Response -> SUCCESS
Monday 18 April 2016 04:38:04 PM IST  tracedemo  :  Paper Status EXECUTED  C++   Response -> "DOCEJECTED"  Status -> "1"
Mon Apr 18 04:38:04 2016 PM   tracedemo  :  Paper Status EXITING  SP       Response -> DOCEJECTED
Mon Apr 18 04:38:04 2016 PM   tracedemo  :  Paper Status ENTERING  SP       Response -> SUCCESS
Monday 18 April 2016 04:38:04 PM IST  tracedemo  :  Paper Status  ENTERING  C++       Response -> SUCCESS
Monday 18 April 2016 04:38:04 PM IST  tracedemo  :  Paper Status EXECUTED  C++   Response -> "DOCEJECTED"  Status -> "1"
Mon Apr 18 04:38:04 2016 PM   tracedemo  :  Paper Status EXITING  SP       Response -> DOCEJECTED
Mon Apr 18 04:38:05 2016 PM   tracedemo  :  Paper Status ENTERING  SP       Response -> SUCCESS
Monday 18 April 2016 04:38:05 PM IST  tracedemo  :  Paper Status  ENTERING  C++       Response -> SUCCESS
Monday 18 April 2016 04:38:05 PM IST  tracedemo  :  Paper Status EXECUTED  C++   Response -> "DOCEJECTED"  Status -> "1"
Mon Apr 18 04:38:05 2016 PM   tracedemo  :  Paper Status EXITING  SP       Response -> DOCEJECTED
Mon Apr 18 04:38:06 2016 PM   tracedemo  :  Paper Status ENTERING  SP       Response -> SUCCESS
Monday 18 April 2016 04:38:06 PM IST  tracedemo  :  Paper Status  ENTERING  C++       Response -> SUCCESS
Monday 18 April 2016 04:38:06 PM IST  tracedemo  :  Paper Status EXECUTED  C++   Response -> "DOCEJECTED"  Status -> "1"
Mon Apr 18 04:38:06 2016 PM   tracedemo  :  Paper Status EXITING  SP       Response -> DOCEJECTED
Mon Apr 18 04:38:07 2016 PM   tracedemo  :  Paper Status ENTERING  SP       Response -> SUCCESS
Monday 18 April 2016 04:38:07 PM IST  tracedemo  :  Paper Status  ENTERING  C++       Response -> SUCCESS
Monday 18 April 2016 04:38:07 PM IST  tracedemo  :  Paper Status EXECUTED  C++   Response -> "DOCABSENT"  Status -> "0"
Mon Apr 18 04:38:07 2016 PM   tracedemo  :  Paper Status EXITING  SP       Response -> DOCABSENT
Mon Apr 18 04:38:08 2016 PM   tracedemo  :  Paper Status ENTERING  SP       Response -> SUCCESS
Monday 18 April 2016 04:38:08 PM IST  tracedemo  :  Paper Status  ENTERING  C++       Response -> SUCCESS
Monday 18 April 2016 04:38:08 PM IST  tracedemo  :  Paper Status EXECUTED  C++   Response -> "DOCPRESENT"  Status -> "2"
Mon Apr 18 04:38:08 2016 PM   tracedemo  :  Paper Status EXITING  SP       Response -> DOCPRESENT
Mon Apr 18 04:38:09 2016 PM   tracedemo  :  Scanning ENTERING  SP       Response -> SUCCESS
Monday 18 April 2016 04:38:09 PM IST  tracedemo  :  Scanning  ENTERING  C++       Response -> SUCCESS
Monday 18 April 2016 04:38:09 PM IST  tracedemo  :  Scanning Properties  C++       BitsPerPixel -> "8"  ScanMode ->"SCAN_FRONT_REAR" 
Monday 18 April 2016 04:38:14 PM IST  tracedemo  :  Scanning EXECUTED  C++       Response -> ONLINE
Mon Apr 18 04:38:14 2016 PM   tracedemo  :   Barcode Range specified Min->9  Max->16SP       
Mon Apr 18 04:38:14 2016 PM   tracedemo  :   Length of barcode retrieved ->15  SP       
Mon Apr 18 04:38:14 2016 PM   tracedemo  :  Barcode scanning successfully executed  SP       Response -> SUCCESSFULL	Barcode Data ->	914010006330142
Mon Apr 18 04:38:14 2016 PM   tracedemo  :  SCanning   SP   LOWER REGION specified for scanning
Mon Apr 18 04:38:14 2016 PM tracedemo  :  Scanning EXITING  SP       Response -> SUCCESS     Barcode Data -> 914010006330142
Mon Apr 18 04:39:20 2016 PM   tracedemo  :  Configuration ENTERING  SP       Response -> SUCCESS
Monday 18 April 2016 04:39:20 PM IST  tracedemo  :  Configuration ENTERING  C++       Response -> SUCCESS
Monday 18 April 2016 04:39:20 PM IST  tracedemo  :  Configuration CPI & LPI  C++       CPI ->"17"  LPI ->"40"   Response -> SUCCESS
Monday 18 April 2016 04:39:27 PM IST  tracedemo  :   Device Successfully Initialized  C++       Response -> SUCCESS
Mon Apr 18 04:39:29 2016 PM   tracedemo  :  Configuration ENTERING  SP       Response -> SUCCESS
Monday 18 April 2016 04:39:29 PM IST  tracedemo  :  Configuration ENTERING  C++       Response -> SUCCESS
Monday 18 April 2016 04:39:29 PM IST  tracedemo  :  Configuration CPI & LPI  C++       CPI ->"17"  LPI ->"40"   Response -> SUCCESS
Monday 18 April 2016 04:39:29 PM IST  tracedemo  :   Device Successfully Initialized  C++       Response -> SUCCESS
Mon Apr 18 04:39:30 2016 PM   tracedemo  :  Paper Status ENTERING  SP       Response -> SUCCESS
Monday 18 April 2016 04:39:30 PM IST  tracedemo  :  Paper Status  ENTERING  C++       Response -> SUCCESS
Monday 18 April 2016 04:39:30 PM IST  tracedemo  :  Paper Status EXECUTED  C++   Response -> "DOCABSENT"  Status -> "0"
Mon Apr 18 04:39:30 2016 PM   tracedemo  :  Paper Status EXITING  SP       Response -> DOCABSENT
Mon Apr 18 04:39:31 2016 PM   tracedemo  :  Paper Status ENTERING  SP       Response -> SUCCESS
Monday 18 April 2016 04:39:31 PM IST  tracedemo  :  Paper Status  ENTERING  C++       Response -> SUCCESS
Monday 18 April 2016 04:39:31 PM IST  tracedemo  :  Paper Status EXECUTED  C++   Response -> "DOCPRESENT"  Status -> "2"
Mon Apr 18 04:39:31 2016 PM   tracedemo  :  Paper Status EXITING  SP       Response -> DOCPRESENT
Mon Apr 18 04:39:31 2016 PM   tracedemo  :  Scanning ENTERING  SP       Response -> SUCCESS
Monday 18 April 2016 04:39:31 PM IST  tracedemo  :  Scanning  ENTERING  C++       Response -> SUCCESS
Monday 18 April 2016 04:39:31 PM IST  tracedemo  :  Scanning Properties  C++       BitsPerPixel -> "8"  ScanMode ->"SCAN_FRONT_REAR" 
Monday 18 April 2016 04:39:36 PM IST  tracedemo  :  Scanning EXECUTED  C++       Response -> ONLINE
Mon Apr 18 04:39:36 2016 PM   tracedemo  :   Barcode Range specified Min->9  Max->16SP       
Mon Apr 18 04:39:36 2016 PM   tracedemo  :   Length of barcode retrieved ->15  SP       
Mon Apr 18 04:39:36 2016 PM   tracedemo  :  Barcode scanning successfully executed  SP       Response -> SUCCESSFULL	Barcode Data ->	914010006330142
Mon Apr 18 04:39:36 2016 PM   tracedemo  :  SCanning   SP   LOWER REGION specified for scanning
Mon Apr 18 04:39:36 2016 PM tracedemo  :  Scanning EXITING  SP       Response -> SUCCESS     Barcode Data -> 914010006330142
Mon Apr 18 04:41:49 2016 PM   tracedemo  :  Print ENTERING  SP       Response -> SUCCESS
Monday 18 April 2016 04:41:49 PM IST  tracedemo  :  Printing  ENTERING  C++       Response -> SUCCESS
Monday 18 April 2016 04:41:49 PM IST  tracedemo  :  Printing path  C++       Path ->  "/root/forbes/microbanker/bin/Print_Files/PrintFile.txt"
Monday 18 April 2016 04:41:52 PM IST  tracedemo  :  Printing EXECUTED  C++       Response -> ONLINE
Mon Apr 18 04:41:52 2016 PM   tracedemo  :  Print EXITING  SP       Response -> SUCCESS
Mon Apr 18 04:42:30 2016 PM   tracedemo  :  Eject ENTERING  SP       Response -> SUCCESS
Monday 18 April 2016 04:42:31 PM IST  tracedemo  :  Eject  ENTERING  C++       Response -> SUCCESS
Monday 18 April 2016 04:42:31 PM IST  tracedemo  :  Eject EXECUTED  C++       Response -> ONLINE  Error_Code -> "0"
Mon Apr 18 04:42:31 2016 PM   tracedemo  :  Eject Executed  SP       Response -> SUCCESS
Mon Apr 18 04:42:31 2016 PM   tracedemo  :  Paper Status ENTERING  SP       Response -> SUCCESS
Monday 18 April 2016 04:42:31 PM IST  tracedemo  :  Paper Status  ENTERING  C++       Response -> SUCCESS
Monday 18 April 2016 04:42:31 PM IST  tracedemo  :  Paper Status EXECUTED  C++   Response -> "DOCEJECTED"  Status -> "1"
Mon Apr 18 04:42:31 2016 PM   tracedemo  :  Paper Status EXITING  SP       Response -> DOCEJECTED
Mon Apr 18 04:42:31 2016 PM   tracedemo  :  Paper Status ENTERING  SP       Response -> SUCCESS
Monday 18 April 2016 04:42:31 PM IST  tracedemo  :  Paper Status  ENTERING  C++       Response -> SUCCESS
Monday 18 April 2016 04:42:31 PM IST  tracedemo  :  Paper Status EXECUTED  C++   Response -> "DOCEJECTED"  Status -> "1"
Mon Apr 18 04:42:31 2016 PM   tracedemo  :  Paper Status EXITING  SP       Response -> DOCEJECTED
Mon Apr 18 04:42:32 2016 PM   tracedemo  :  Paper Status ENTERING  SP       Response -> SUCCESS
Monday 18 April 2016 04:42:32 PM IST  tracedemo  :  Paper Status  ENTERING  C++       Response -> SUCCESS
Monday 18 April 2016 04:42:32 PM IST  tracedemo  :  Paper Status EXECUTED  C++   Response -> "DOCEJECTED"  Status -> "1"
Mon Apr 18 04:42:32 2016 PM   tracedemo  :  Paper Status EXITING  SP       Response -> DOCEJECTED
Mon Apr 18 04:42:33 2016 PM   tracedemo  :  Paper Status ENTERING  SP       Response -> SUCCESS
Monday 18 April 2016 04:42:33 PM IST  tracedemo  :  Paper Status  ENTERING  C++       Response -> SUCCESS
Monday 18 April 2016 04:42:33 PM IST  tracedemo  :  Paper Status EXECUTED  C++   Response -> "DOCEJECTED"  Status -> "1"
Mon Apr 18 04:42:33 2016 PM   tracedemo  :  Paper Status EXITING  SP       Response -> DOCEJECTED
Mon Apr 18 04:42:34 2016 PM   tracedemo  :  Paper Status ENTERING  SP       Response -> SUCCESS
Monday 18 April 2016 04:42:34 PM IST  tracedemo  :  Paper Status  ENTERING  C++       Response -> SUCCESS
Monday 18 April 2016 04:42:35 PM IST  tracedemo  :  Paper Status EXECUTED  C++   Response -> "DOCPRESENT"  Status -> "2"
Mon Apr 18 04:42:35 2016 PM   tracedemo  :  Paper Status EXITING  SP       Response -> DOCPRESENT
Mon Apr 18 04:42:36 2016 PM   tracedemo  :  Scanning ENTERING  SP       Response -> SUCCESS
Monday 18 April 2016 04:42:36 PM IST  tracedemo  :  Scanning  ENTERING  C++       Response -> SUCCESS
Monday 18 April 2016 04:42:36 PM IST  tracedemo  :  Scanning Properties  C++       BitsPerPixel -> "8"  ScanMode ->"SCAN_FRONT_REAR" 
Monday 18 April 2016 04:42:40 PM IST  tracedemo  :  Scanning EXECUTED  C++       Response -> ONLINE
Mon Apr 18 04:42:41 2016 PM   tracedemo  :   Barcode Range specified Min->9  Max->16SP       
Mon Apr 18 04:42:41 2016 PM   tracedemo  :   Length of barcode retrieved ->15  SP       
Mon Apr 18 04:42:41 2016 PM   tracedemo  :  Barcode scanning successfully executed  SP       Response -> SUCCESSFULL	Barcode Data ->	914010006330142
Mon Apr 18 04:42:41 2016 PM   tracedemo  :  SCanning   SP   LOWER REGION specified for scanning
Mon Apr 18 04:42:41 2016 PM tracedemo  :  Scanning EXITING  SP       Response -> SUCCESS     Barcode Data -> 914010006330142
Mon Apr 18 04:47:58 2016 PM   tracedemo  :  Configuration ENTERING  SP       Response -> SUCCESS
Monday 18 April 2016 04:47:58 PM IST  tracedemo  :  Configuration ENTERING  C++       Response -> SUCCESS
Monday 18 April 2016 04:47:58 PM IST  tracedemo  :  Configuration CPI & LPI  C++       CPI ->"17"  LPI ->"40"   Response -> SUCCESS
Monday 18 April 2016 04:48:05 PM IST  tracedemo  :   Device Successfully Initialized  C++       Response -> SUCCESS
Mon Apr 18 04:48:06 2016 PM   tracedemo  :  Configuration ENTERING  SP       Response -> SUCCESS
Monday 18 April 2016 04:48:06 PM IST  tracedemo  :  Configuration ENTERING  C++       Response -> SUCCESS
Monday 18 April 2016 04:48:06 PM IST  tracedemo  :  Configuration CPI & LPI  C++       CPI ->"17"  LPI ->"40"   Response -> SUCCESS
Monday 18 April 2016 04:48:06 PM IST  tracedemo  :   Device Successfully Initialized  C++       Response -> SUCCESS
Mon Apr 18 04:48:07 2016 PM   tracedemo  :  Paper Status ENTERING  SP       Response -> SUCCESS
Monday 18 April 2016 04:48:07 PM IST  tracedemo  :  Paper Status  ENTERING  C++       Response -> SUCCESS
Monday 18 April 2016 04:48:07 PM IST  tracedemo  :  Paper Status EXECUTED  C++   Response -> "DOCPRESENT"  Status -> "2"
Mon Apr 18 04:48:07 2016 PM   tracedemo  :  Paper Status EXITING  SP       Response -> DOCPRESENT
Mon Apr 18 04:48:07 2016 PM   tracedemo  :  Scanning ENTERING  SP       Response -> SUCCESS
Monday 18 April 2016 04:48:07 PM IST  tracedemo  :  Scanning  ENTERING  C++       Response -> SUCCESS
Monday 18 April 2016 04:48:07 PM IST  tracedemo  :  Scanning Properties  C++       BitsPerPixel -> "8"  ScanMode ->"SCAN_FRONT_REAR" 
Monday 18 April 2016 04:48:12 PM IST  tracedemo  :  Scanning EXECUTED  C++       Response -> ONLINE
Mon Apr 18 04:48:13 2016 PM   tracedemo  :   Barcode Range specified Min->9  Max->16SP       
Mon Apr 18 04:48:13 2016 PM   tracedemo  :   Length of barcode retrieved ->15  SP       
Mon Apr 18 04:48:13 2016 PM   tracedemo  :  Barcode scanning successfully executed  SP       Response -> SUCCESSFULL	Barcode Data ->	914010006330142
Mon Apr 18 04:48:13 2016 PM   tracedemo  :  SCanning   SP   LOWER REGION specified for scanning
Mon Apr 18 04:48:13 2016 PM tracedemo  :  Scanning EXITING  SP       Response -> SUCCESS     Barcode Data -> 914010006330142
Mon Apr 18 04:48:30 2016 PM   tracedemo  :  Print ENTERING  SP       Response -> SUCCESS
Monday 18 April 2016 04:48:30 PM IST  tracedemo  :  Printing  ENTERING  C++       Response -> SUCCESS
Monday 18 April 2016 04:48:30 PM IST  tracedemo  :  Printing path  C++       Path ->  "/root/forbes/microbanker/bin/Print_Files/PrintFile.txt"
Monday 18 April 2016 04:48:33 PM IST  tracedemo  :  Printing EXECUTED  C++       Response -> ONLINE
Mon Apr 18 04:48:33 2016 PM   tracedemo  :  Print EXITING  SP       Response -> SUCCESS
Mon Apr 18 04:48:38 2016 PM   tracedemo  :  Eject ENTERING  SP       Response -> SUCCESS
Monday 18 April 2016 04:48:40 PM IST  tracedemo  :  Eject  ENTERING  C++       Response -> SUCCESS
Monday 18 April 2016 04:48:40 PM IST  tracedemo  :  Eject EXECUTED  C++       Response -> ONLINE  Error_Code -> "0"
Mon Apr 18 04:48:40 2016 PM   tracedemo  :  Eject Executed  SP       Response -> SUCCESS
Mon Apr 18 04:53:45 2016 PM   tracedemo  :  Paper Status ENTERING  SP       Response -> SUCCESS
Monday 18 April 2016 04:53:45 PM IST  tracedemo  :  Paper Status  ENTERING  C++       Response -> SUCCESS
Monday 18 April 2016 04:53:45 PM IST  tracedemo  :  Paper Status EXECUTED  C++   Response -> "DOCEJECTED"  Status -> "1"
Mon Apr 18 04:53:45 2016 PM   tracedemo  :  Paper Status EXITING  SP       Response -> DOCEJECTED
Mon Apr 18 04:53:45 2016 PM   tracedemo  :  Paper Status ENTERING  SP       Response -> SUCCESS
Monday 18 April 2016 04:53:45 PM IST  tracedemo  :  Paper Status  ENTERING  C++       Response -> SUCCESS
Monday 18 April 2016 04:53:45 PM IST  tracedemo  :  Paper Status EXECUTED  C++   Response -> "DOCEJECTED"  Status -> "1"
Mon Apr 18 04:53:45 2016 PM   tracedemo  :  Paper Status EXITING  SP       Response -> DOCEJECTED
Mon Apr 18 04:53:52 2016 PM   tracedemo  :  Paper Status ENTERING  SP       Response -> SUCCESS
Monday 18 April 2016 04:53:52 PM IST  tracedemo  :  Paper Status  ENTERING  C++       Response -> SUCCESS
Monday 18 April 2016 04:53:52 PM IST  tracedemo  :  Paper Status EXECUTED  C++   Response -> "DOCPRESENT"  Status -> "2"
Mon Apr 18 04:53:52 2016 PM   tracedemo  :  Paper Status EXITING  SP       Response -> DOCPRESENT
Mon Apr 18 04:54:03 2016 PM   tracedemo  :  Scanning ENTERING  SP       Response -> SUCCESS
Monday 18 April 2016 04:54:03 PM IST  tracedemo  :  Scanning  ENTERING  C++       Response -> SUCCESS
Monday 18 April 2016 04:54:03 PM IST  tracedemo  :  Scanning Properties  C++       BitsPerPixel -> "8"  ScanMode ->"SCAN_FRONT_REAR" 
Monday 18 April 2016 04:54:07 PM IST  tracedemo  :  Scanning EXECUTED  C++       Response -> ONLINE
Mon Apr 18 04:54:08 2016 PM   tracedemo  :   Barcode Range specified Min->9  Max->16SP       
Mon Apr 18 04:54:08 2016 PM   tracedemo  :   Length of barcode retrieved ->15  SP       
Mon Apr 18 04:54:08 2016 PM   tracedemo  :  Barcode scanning successfully executed  SP       Response -> SUCCESSFULL	Barcode Data ->	914010006330142
Mon Apr 18 04:54:08 2016 PM   tracedemo  :  SCanning   SP   LOWER REGION specified for scanning
Mon Apr 18 04:54:08 2016 PM tracedemo  :  Scanning EXITING  SP       Response -> SUCCESS     Barcode Data -> 914010006330142
