Wed Apr 12 11:22:51 2017 AM   Version 1.1.0  :  Eject ENTERING  SP       Response -> SUCCESS
Wednesday 12 April 2017 11:22:51 AM IST  tracedemo  :  Device status "Device status could not be  retrieved"  C++       Response -> OFFLINE  Error Code -> "600"
Wed Apr 12 11:22:51 2017 AM   Version 1.1.0  :  Device Status EXITING  SP       Response -> OFFLINE
Wed Apr 12 11:22:51 2017 AM   Version 1.1.0  :  Eject cannot be executed  SP       Response -> OFFLINE
Wed Apr 12 11:22:52 2017 AM   Version 1.1.0  :  Configuration ENTERING  SP       Response -> SUCCESS
Wednesday 12 April 2017 11:22:52 AM IST  tracedemo  :  Configuration ENTERING  C++       Response -> SUCCESS
Wednesday 12 April 2017 11:22:52 AM IST  tracedemo  :  Configuration CPI & LPI  C++       CPI ->"10"  LPI ->"40"   Response -> SUCCESS
Wednesday 12 April 2017 11:23:07 AM IST  tracedemo  :  Configuration "Device Could not be  Initialized"  C++       Response -> OFFLINE  Error Code -> "600"
Wed Apr 12 11:23:08 2017 AM   Version 1.1.0  :  Configuration ENTERING  SP       Response -> SUCCESS
Wednesday 12 April 2017 11:23:08 AM IST  tracedemo  :  Configuration ENTERING  C++       Response -> SUCCESS
Wednesday 12 April 2017 11:23:08 AM IST  tracedemo  :  Configuration CPI & LPI  C++       CPI ->"10"  LPI ->"40"   Response -> SUCCESS
Wednesday 12 April 2017 11:23:23 AM IST  tracedemo  :  Configuration "Device Could not be  Initialized"  C++       Response -> OFFLINE  Error Code -> "600"
Wed Apr 12 11:23:24 2017 AM   Version 1.1.0  :  Configuration ENTERING  SP       Response -> SUCCESS
Wednesday 12 April 2017 11:23:24 AM IST  tracedemo  :  Configuration ENTERING  C++       Response -> SUCCESS
Wednesday 12 April 2017 11:23:24 AM IST  tracedemo  :  Configuration CPI & LPI  C++       CPI ->"10"  LPI ->"40"   Response -> SUCCESS
Wednesday 12 April 2017 11:23:39 AM IST  tracedemo  :  Configuration "Device Could not be  Initialized"  C++       Response -> OFFLINE  Error Code -> "600"
Wed Apr 12 11:23:40 2017 AM   Version 1.1.0  :  Configuration ENTERING  SP       Response -> SUCCESS
Wednesday 12 April 2017 11:23:40 AM IST  tracedemo  :  Configuration ENTERING  C++       Response -> SUCCESS
Wednesday 12 April 2017 11:23:40 AM IST  tracedemo  :  Configuration CPI & LPI  C++       CPI ->"10"  LPI ->"40"   Response -> SUCCESS
Wednesday 12 April 2017 11:23:55 AM IST  tracedemo  :  Configuration "Device Could not be  Initialized"  C++       Response -> OFFLINE  Error Code -> "600"
Wed Apr 12 11:23:56 2017 AM   Version 1.1.0  :  Configuration ENTERING  SP       Response -> SUCCESS
Wednesday 12 April 2017 11:23:56 AM IST  tracedemo  :  Configuration ENTERING  C++       Response -> SUCCESS
Wednesday 12 April 2017 11:23:56 AM IST  tracedemo  :  Configuration CPI & LPI  C++       CPI ->"10"  LPI ->"40"   Response -> SUCCESS
Wednesday 12 April 2017 11:24:11 AM IST  tracedemo  :  Configuration "Device Could not be  Initialized"  C++       Response -> OFFLINE  Error Code -> "600"
Wednesday 12 April 2017 01:09:13 PM IST  tracedemo  :  Device status "Device status could not be  retrieved"  C++       Response -> OFFLINE  Error Code -> "600"
Wed Apr 12 01:09:13 2017 PM   Version 1.1.0  :  Device Status EXITING  SP       Response -> OFFLINE
Wed Apr 12 01:09:13 2017 PM   Version 1.1.0  :  Configuration ENTERING  SP       Response -> SUCCESS
Wednesday 12 April 2017 01:09:13 PM IST  tracedemo  :  Configuration ENTERING  C++       Response -> SUCCESS
Wednesday 12 April 2017 01:09:13 PM IST  tracedemo  :  Configuration CPI & LPI  C++       CPI ->"10"  LPI ->"40"   Response -> SUCCESS
Wednesday 12 April 2017 01:09:28 PM IST  tracedemo  :  Configuration "Device Could not be  Initialized"  C++       Response -> OFFLINE  Error Code -> "600"
Wednesday 12 April 2017 01:09:28 PM IST  tracedemo  :  Device status "Device status could not be  retrieved"  C++       Response -> OFFLINE  Error Code -> "600"
Wed Apr 12 01:09:29 2017 PM   Version 1.1.0  :  Device Status EXITING  SP       Response -> OFFLINE
Wednesday 12 April 2017 01:09:48 PM IST  tracedemo  :  Device status "Device status could not be  retrieved"  C++       Response -> OFFLINE  Error Code -> "600"
Wed Apr 12 01:09:48 2017 PM   Version 1.1.0  :  Device Status EXITING  SP       Response -> OFFLINE
Wed Apr 12 01:09:48 2017 PM   Version 1.1.0  :  Configuration ENTERING  SP       Response -> SUCCESS
Wednesday 12 April 2017 01:09:48 PM IST  tracedemo  :  Configuration ENTERING  C++       Response -> SUCCESS
Wednesday 12 April 2017 01:09:48 PM IST  tracedemo  :  Configuration CPI & LPI  C++       CPI ->"10"  LPI ->"40"   Response -> SUCCESS
Wednesday 12 April 2017 01:10:03 PM IST  tracedemo  :  Configuration "Device Could not be  Initialized"  C++       Response -> OFFLINE  Error Code -> "600"
Wednesday 12 April 2017 01:10:03 PM IST  tracedemo  :  Device status "Device status could not be  retrieved"  C++       Response -> OFFLINE  Error Code -> "600"
Wed Apr 12 01:10:03 2017 PM   Version 1.1.0  :  Device Status EXITING  SP       Response -> OFFLINE
Wednesday 12 April 2017 01:10:42 PM IST  tracedemo  :  Device status "Device status could not be  retrieved"  C++       Response -> OFFLINE  Error Code -> "600"
Wed Apr 12 01:10:42 2017 PM   Version 1.1.0  :  Device Status EXITING  SP       Response -> OFFLINE
Wed Apr 12 01:10:42 2017 PM   Version 1.1.0  :  Configuration ENTERING  SP       Response -> SUCCESS
Wednesday 12 April 2017 01:10:42 PM IST  tracedemo  :  Configuration ENTERING  C++       Response -> SUCCESS
Wednesday 12 April 2017 01:10:42 PM IST  tracedemo  :  Configuration CPI & LPI  C++       CPI ->"10"  LPI ->"40"   Response -> SUCCESS
Wednesday 12 April 2017 01:10:48 PM IST  tracedemo  :   Device Successfully Initialized  C++       Response -> SUCCESS
Wed Apr 12 01:14:55 2017 PM   Version 1.1.0  :  Eject ENTERING  SP       Response -> SUCCESS
Wednesday 12 April 2017 01:14:55 PM IST  tracedemo  :  Eject  ENTERING  C++       Response -> SUCCESS
Wednesday 12 April 2017 01:14:55 PM IST  tracedemo  :  Eject EXECUTED  C++       Response -> ONLINE  Error_Code -> "0"
Wed Apr 12 01:14:55 2017 PM   Version 1.1.0  :  Eject Executed  SP       Response -> SUCCESS
Wed Apr 12 01:14:56 2017 PM   Version 1.1.0  :  Configuration ENTERING  SP       Response -> SUCCESS
Wednesday 12 April 2017 01:14:56 PM IST  tracedemo  :  Configuration ENTERING  C++       Response -> SUCCESS
Wednesday 12 April 2017 01:14:56 PM IST  tracedemo  :  Configuration CPI & LPI  C++       CPI ->"10"  LPI ->"40"   Response -> SUCCESS
Wednesday 12 April 2017 01:14:56 PM IST  tracedemo  :   Device Successfully Initialized  C++       Response -> SUCCESS
Wed Apr 12 01:15:33 2017 PM   Version 1.1.0  :  Configuration ENTERING  SP       Response -> SUCCESS
Wednesday 12 April 2017 01:15:33 PM IST  tracedemo  :  Configuration ENTERING  C++       Response -> SUCCESS
Wednesday 12 April 2017 01:15:33 PM IST  tracedemo  :  Configuration CPI & LPI  C++       CPI ->"10"  LPI ->"40"   Response -> SUCCESS
Wednesday 12 April 2017 01:15:34 PM IST  tracedemo  :   Device Successfully Initialized  C++       Response -> SUCCESS
Wed Apr 12 01:15:35 2017 PM   Version 1.1.0  :  Paper Status ENTERING  SP       Response -> SUCCESS
Wednesday 12 April 2017 01:15:35 PM IST  tracedemo  :  Paper Status  ENTERING  C++       Response -> SUCCESS
Wednesday 12 April 2017 01:15:35 PM IST  tracedemo  :  Paper Status EXECUTED  C++   Response -> "DOCPRESENT"  Status -> "2"
Wed Apr 12 01:15:35 2017 PM   Version 1.1.0  :  Paper Status EXITING  SP       Response -> DOCPRESENT
Wed Apr 12 01:15:35 2017 PM   Version 1.1.0  :  Scanning ENTERING  SP       Response -> SUCCESS
Wednesday 12 April 2017 01:15:35 PM IST  tracedemo  :  Scanning  ENTERING  C++       Response -> SUCCESS
Wednesday 12 April 2017 01:15:35 PM IST  tracedemo  :  Scanning Properties  C++       BitsPerPixel -> "8"  ScanMode ->"SCAN_FRONT_REAR" 
Wednesday 12 April 2017 01:15:39 PM IST  tracedemo  :  Scanning EXECUTED  C++       Response -> ONLINE
Wed Apr 12 01:15:40 2017 PM   Version 1.1.0  :   Barcode Range specified Min->9  Max->16SP       
Wed Apr 12 01:15:40 2017 PM   Version 1.1.0  :   Length of barcode retrieved ->14  SP       
Wed Apr 12 01:15:40 2017 PM   Version 1.1.0  :  Barcode scanning successfully executed  SP       Response -> SUCCESSFULL	Barcode Data ->	50932041000174
Wed Apr 12 01:15:40 2017 PM   Version 1.1.0  :  SCanning   SP   LOWER REGION specified for scanning
Wed Apr 12 01:15:40 2017 PM Version 1.1.0  :  Scanning EXITING  SP       Response -> SUCCESS     Barcode Data -> 50932041000174
Wed Apr 12 01:16:13 2017 PM   Version 1.1.0  :  Eject ENTERING  SP       Response -> SUCCESS
Wednesday 12 April 2017 01:16:13 PM IST  tracedemo  :  Device status "Device status could not be  retrieved"  C++       Response -> OFFLINE  Error Code -> "600"
Wed Apr 12 01:16:13 2017 PM   Version 1.1.0  :  Device Status EXITING  SP       Response -> OFFLINE
Wed Apr 12 01:16:13 2017 PM   Version 1.1.0  :  Eject cannot be executed  SP       Response -> OFFLINE
Wed Apr 12 01:16:46 2017 PM   Version 1.1.0  :  Print ENTERING  SP       Response -> SUCCESS
Wednesday 12 April 2017 01:16:46 PM IST  tracedemo  :  Printing  ENTERING  C++       Response -> SUCCESS
Wednesday 12 April 2017 01:16:46 PM IST  tracedemo  :  Printing path  C++       Path ->  "/root/forbes/microbanker/bin/Print_Files/PrintFile.txt"
Wednesday 12 April 2017 01:16:54 PM IST  tracedemo  :  Printing EXECUTED  C++       Response -> ONLINE
Wed Apr 12 01:16:54 2017 PM   Version 1.1.0  :  Print EXITING  SP       Response -> SUCCESS
Wed Apr 12 01:17:56 2017 PM   Version 1.1.0  :  Print ENTERING  SP       Response -> SUCCESS
Wednesday 12 April 2017 01:17:56 PM IST  tracedemo  :  Printing  ENTERING  C++       Response -> SUCCESS
Wednesday 12 April 2017 01:17:56 PM IST  tracedemo  :  Printing path  C++       Path ->  "/root/forbes/microbanker/bin/Print_Files/PrintFile.txt"
Wednesday 12 April 2017 01:17:57 PM IST  tracedemo  :  Printing EXECUTED  C++       Response -> ONLINE
Wed Apr 12 01:17:57 2017 PM   Version 1.1.0  :  Print EXITING  SP       Response -> SUCCESS
Wed Apr 12 01:18:00 2017 PM   Version 1.1.0  :  Eject ENTERING  SP       Response -> SUCCESS
Wednesday 12 April 2017 01:18:01 PM IST  tracedemo  :  Eject  ENTERING  C++       Response -> SUCCESS
Wednesday 12 April 2017 01:18:01 PM IST  tracedemo  :  Eject EXECUTED  C++       Response -> ONLINE  Error_Code -> "0"
Wed Apr 12 01:18:01 2017 PM   Version 1.1.0  :  Eject Executed  SP       Response -> SUCCESS
Wed Apr 12 01:18:16 2017 PM   Version 1.1.0  :  Paper Status ENTERING  SP       Response -> SUCCESS
Wednesday 12 April 2017 01:18:16 PM IST  tracedemo  :  Paper Status  ENTERING  C++       Response -> SUCCESS
Wednesday 12 April 2017 01:18:16 PM IST  tracedemo  :  Paper Status EXECUTED  C++   Response -> "DOCPRESENT"  Status -> "2"
Wed Apr 12 01:18:16 2017 PM   Version 1.1.0  :  Paper Status EXITING  SP       Response -> DOCPRESENT
Wed Apr 12 01:18:16 2017 PM   Version 1.1.0  :  Scanning ENTERING  SP       Response -> SUCCESS
Wednesday 12 April 2017 01:18:16 PM IST  tracedemo  :  Scanning  ENTERING  C++       Response -> SUCCESS
Wednesday 12 April 2017 01:18:16 PM IST  tracedemo  :  Scanning Properties  C++       BitsPerPixel -> "8"  ScanMode ->"SCAN_FRONT_REAR" 
Wednesday 12 April 2017 01:18:21 PM IST  tracedemo  :  Scanning EXECUTED  C++       Response -> ONLINE
Wed Apr 12 01:18:21 2017 PM   Version 1.1.0  :   Barcode Range specified Min->9  Max->16SP       
Wed Apr 12 01:18:21 2017 PM   Version 1.1.0  :   Length of barcode retrieved ->14  SP       
Wed Apr 12 01:18:21 2017 PM   Version 1.1.0  :  Barcode scanning successfully executed  SP       Response -> SUCCESSFULL	Barcode Data ->	50932041000174
Wed Apr 12 01:18:21 2017 PM   Version 1.1.0  :  SCanning   SP   LOWER REGION specified for scanning
Wed Apr 12 01:18:21 2017 PM Version 1.1.0  :  Scanning EXITING  SP       Response -> SUCCESS     Barcode Data -> 50932041000174
Wed Apr 12 01:18:58 2017 PM   Version 1.1.0  :  Print ENTERING  SP       Response -> SUCCESS
Wednesday 12 April 2017 01:18:58 PM IST  tracedemo  :  Printing  ENTERING  C++       Response -> SUCCESS
Wednesday 12 April 2017 01:18:58 PM IST  tracedemo  :  Printing path  C++       Path ->  "/root/forbes/microbanker/bin/Print_Files/PrintFile.txt"
Wednesday 12 April 2017 01:19:06 PM IST  tracedemo  :  Printing EXECUTED  C++       Response -> ONLINE
Wed Apr 12 01:19:06 2017 PM   Version 1.1.0  :  Print EXITING  SP       Response -> SUCCESS
Wed Apr 12 01:21:52 2017 PM   Version 1.1.0  :  Print ENTERING  SP       Response -> SUCCESS
Wednesday 12 April 2017 01:21:52 PM IST  tracedemo  :  Printing  ENTERING  C++       Response -> SUCCESS
Wednesday 12 April 2017 01:21:52 PM IST  tracedemo  :  Printing path  C++       Path ->  "/root/forbes/microbanker/bin/Print_Files/PrintFile.txt"
Wednesday 12 April 2017 01:21:54 PM IST  tracedemo  :  Printing EXECUTED  C++       Response -> ONLINE
Wed Apr 12 01:21:54 2017 PM   Version 1.1.0  :  Print EXITING  SP       Response -> SUCCESS
Wed Apr 12 01:22:31 2017 PM   Version 1.1.0  :  Eject ENTERING  SP       Response -> SUCCESS
Wednesday 12 April 2017 01:22:33 PM IST  tracedemo  :  Eject  ENTERING  C++       Response -> SUCCESS
Wednesday 12 April 2017 01:22:33 PM IST  tracedemo  :  Eject EXECUTED  C++       Response -> ONLINE  Error_Code -> "0"
Wed Apr 12 01:22:33 2017 PM   Version 1.1.0  :  Eject Executed  SP       Response -> SUCCESS
Wed Apr 12 01:22:33 2017 PM   Version 1.1.0  :  Paper Status ENTERING  SP       Response -> SUCCESS
Wednesday 12 April 2017 01:22:33 PM IST  tracedemo  :  Paper Status  ENTERING  C++       Response -> SUCCESS
Wednesday 12 April 2017 01:22:33 PM IST  tracedemo  :  Paper Status EXECUTED  C++   Response -> "DOCEJECTED"  Status -> "1"
Wed Apr 12 01:22:33 2017 PM   Version 1.1.0  :  Paper Status EXITING  SP       Response -> DOCEJECTED
Wed Apr 12 01:22:33 2017 PM   Version 1.1.0  :  Paper Status ENTERING  SP       Response -> SUCCESS
Wednesday 12 April 2017 01:22:33 PM IST  tracedemo  :  Paper Status  ENTERING  C++       Response -> SUCCESS
Wednesday 12 April 2017 01:22:33 PM IST  tracedemo  :  Paper Status EXECUTED  C++   Response -> "DOCEJECTED"  Status -> "1"
Wed Apr 12 01:22:33 2017 PM   Version 1.1.0  :  Paper Status EXITING  SP       Response -> DOCEJECTED
Wed Apr 12 01:22:34 2017 PM   Version 1.1.0  :  Paper Status ENTERING  SP       Response -> SUCCESS
Wednesday 12 April 2017 01:22:34 PM IST  tracedemo  :  Paper Status  ENTERING  C++       Response -> SUCCESS
Wednesday 12 April 2017 01:22:34 PM IST  tracedemo  :  Paper Status EXECUTED  C++   Response -> "DOCEJECTED"  Status -> "1"
Wed Apr 12 01:22:34 2017 PM   Version 1.1.0  :  Paper Status EXITING  SP       Response -> DOCEJECTED
Wed Apr 12 01:22:35 2017 PM   Version 1.1.0  :  Paper Status ENTERING  SP       Response -> SUCCESS
Wednesday 12 April 2017 01:22:35 PM IST  tracedemo  :  Paper Status  ENTERING  C++       Response -> SUCCESS
Wednesday 12 April 2017 01:22:35 PM IST  tracedemo  :  Paper Status EXECUTED  C++   Response -> "DOCABSENT"  Status -> "0"
Wed Apr 12 01:22:35 2017 PM   Version 1.1.0  :  Paper Status EXITING  SP       Response -> DOCABSENT
Wed Apr 12 01:22:36 2017 PM   Version 1.1.0  :  Paper Status ENTERING  SP       Response -> SUCCESS
Wednesday 12 April 2017 01:22:36 PM IST  tracedemo  :  Paper Status  ENTERING  C++       Response -> SUCCESS
Wednesday 12 April 2017 01:22:36 PM IST  tracedemo  :  Paper Status EXECUTED  C++   Response -> "DOCABSENT"  Status -> "0"
Wed Apr 12 01:22:36 2017 PM   Version 1.1.0  :  Paper Status EXITING  SP       Response -> DOCABSENT
Wed Apr 12 01:22:37 2017 PM   Version 1.1.0  :  Paper Status ENTERING  SP       Response -> SUCCESS
Wednesday 12 April 2017 01:22:37 PM IST  tracedemo  :  Paper Status  ENTERING  C++       Response -> SUCCESS
Wednesday 12 April 2017 01:22:37 PM IST  tracedemo  :  Paper Status EXECUTED  C++   Response -> "DOCABSENT"  Status -> "0"
Wed Apr 12 01:22:37 2017 PM   Version 1.1.0  :  Paper Status EXITING  SP       Response -> DOCABSENT
Wed Apr 12 01:22:38 2017 PM   Version 1.1.0  :  Paper Status ENTERING  SP       Response -> SUCCESS
Wednesday 12 April 2017 01:22:38 PM IST  tracedemo  :  Paper Status  ENTERING  C++       Response -> SUCCESS
Wednesday 12 April 2017 01:22:38 PM IST  tracedemo  :  Paper Status EXECUTED  C++   Response -> "DOCABSENT"  Status -> "0"
Wed Apr 12 01:22:38 2017 PM   Version 1.1.0  :  Paper Status EXITING  SP       Response -> DOCABSENT
Wed Apr 12 01:22:39 2017 PM   Version 1.1.0  :  Paper Status ENTERING  SP       Response -> SUCCESS
Wednesday 12 April 2017 01:22:39 PM IST  tracedemo  :  Paper Status  ENTERING  C++       Response -> SUCCESS
Wednesday 12 April 2017 01:22:39 PM IST  tracedemo  :  Paper Status EXECUTED  C++   Response -> "DOCABSENT"  Status -> "0"
Wed Apr 12 01:22:39 2017 PM   Version 1.1.0  :  Paper Status EXITING  SP       Response -> DOCABSENT
Wed Apr 12 01:22:40 2017 PM   Version 1.1.0  :  Paper Status ENTERING  SP       Response -> SUCCESS
Wednesday 12 April 2017 01:22:40 PM IST  tracedemo  :  Paper Status  ENTERING  C++       Response -> SUCCESS
Wednesday 12 April 2017 01:22:40 PM IST  tracedemo  :  Paper Status EXECUTED  C++   Response -> "DOCABSENT"  Status -> "0"
Wed Apr 12 01:22:40 2017 PM   Version 1.1.0  :  Paper Status EXITING  SP       Response -> DOCABSENT
Wed Apr 12 01:22:41 2017 PM   Version 1.1.0  :  Paper Status ENTERING  SP       Response -> SUCCESS
Wednesday 12 April 2017 01:22:41 PM IST  tracedemo  :  Paper Status  ENTERING  C++       Response -> SUCCESS
Wednesday 12 April 2017 01:22:41 PM IST  tracedemo  :  Paper Status EXECUTED  C++   Response -> "DOCABSENT"  Status -> "0"
Wed Apr 12 01:22:41 2017 PM   Version 1.1.0  :  Paper Status EXITING  SP       Response -> DOCABSENT
Wed Apr 12 01:22:42 2017 PM   Version 1.1.0  :  Paper Status ENTERING  SP       Response -> SUCCESS
Wednesday 12 April 2017 01:22:42 PM IST  tracedemo  :  Paper Status  ENTERING  C++       Response -> SUCCESS
Wednesday 12 April 2017 01:22:42 PM IST  tracedemo  :  Paper Status EXECUTED  C++   Response -> "DOCABSENT"  Status -> "0"
Wed Apr 12 01:22:42 2017 PM   Version 1.1.0  :  Paper Status EXITING  SP       Response -> DOCABSENT
Wed Apr 12 01:22:43 2017 PM   Version 1.1.0  :  Paper Status ENTERING  SP       Response -> SUCCESS
Wednesday 12 April 2017 01:22:43 PM IST  tracedemo  :  Paper Status  ENTERING  C++       Response -> SUCCESS
Wednesday 12 April 2017 01:22:43 PM IST  tracedemo  :  Paper Status EXECUTED  C++   Response -> "DOCABSENT"  Status -> "0"
Wed Apr 12 01:22:43 2017 PM   Version 1.1.0  :  Paper Status EXITING  SP       Response -> DOCABSENT
Wed Apr 12 01:22:44 2017 PM   Version 1.1.0  :  Paper Status ENTERING  SP       Response -> SUCCESS
Wednesday 12 April 2017 01:22:44 PM IST  tracedemo  :  Paper Status  ENTERING  C++       Response -> SUCCESS
Wednesday 12 April 2017 01:22:44 PM IST  tracedemo  :  Paper Status EXECUTED  C++   Response -> "DOCABSENT"  Status -> "0"
Wed Apr 12 01:22:44 2017 PM   Version 1.1.0  :  Paper Status EXITING  SP       Response -> DOCABSENT
Wed Apr 12 01:22:45 2017 PM   Version 1.1.0  :  Paper Status ENTERING  SP       Response -> SUCCESS
Wednesday 12 April 2017 01:22:45 PM IST  tracedemo  :  Paper Status  ENTERING  C++       Response -> SUCCESS
Wednesday 12 April 2017 01:22:45 PM IST  tracedemo  :  Paper Status EXECUTED  C++   Response -> "DOCABSENT"  Status -> "0"
Wed Apr 12 01:22:45 2017 PM   Version 1.1.0  :  Paper Status EXITING  SP       Response -> DOCABSENT
Wed Apr 12 01:22:47 2017 PM   Version 1.1.0  :  Paper Status ENTERING  SP       Response -> SUCCESS
Wednesday 12 April 2017 01:22:46 PM IST  tracedemo  :  Paper Status  ENTERING  C++       Response -> SUCCESS
Wednesday 12 April 2017 01:22:46 PM IST  tracedemo  :  Paper Status EXECUTED  C++   Response -> "DOCABSENT"  Status -> "0"
Wed Apr 12 01:22:47 2017 PM   Version 1.1.0  :  Paper Status EXITING  SP       Response -> DOCABSENT
Wed Apr 12 01:22:48 2017 PM   Version 1.1.0  :  Paper Status ENTERING  SP       Response -> SUCCESS
Wednesday 12 April 2017 01:22:48 PM IST  tracedemo  :  Paper Status  ENTERING  C++       Response -> SUCCESS
Wednesday 12 April 2017 01:22:48 PM IST  tracedemo  :  Paper Status EXECUTED  C++   Response -> "DOCABSENT"  Status -> "0"
Wed Apr 12 01:22:48 2017 PM   Version 1.1.0  :  Paper Status EXITING  SP       Response -> DOCABSENT
Wed Apr 12 01:22:49 2017 PM   Version 1.1.0  :  Paper Status ENTERING  SP       Response -> SUCCESS
Wednesday 12 April 2017 01:22:49 PM IST  tracedemo  :  Paper Status  ENTERING  C++       Response -> SUCCESS
Wednesday 12 April 2017 01:22:49 PM IST  tracedemo  :  Paper Status EXECUTED  C++   Response -> "DOCABSENT"  Status -> "0"
Wed Apr 12 01:22:49 2017 PM   Version 1.1.0  :  Paper Status EXITING  SP       Response -> DOCABSENT
Wed Apr 12 01:22:50 2017 PM   Version 1.1.0  :  Paper Status ENTERING  SP       Response -> SUCCESS
Wednesday 12 April 2017 01:22:50 PM IST  tracedemo  :  Paper Status  ENTERING  C++       Response -> SUCCESS
Wednesday 12 April 2017 01:22:50 PM IST  tracedemo  :  Paper Status EXECUTED  C++   Response -> "DOCABSENT"  Status -> "0"
Wed Apr 12 01:22:50 2017 PM   Version 1.1.0  :  Paper Status EXITING  SP       Response -> DOCABSENT
Wed Apr 12 01:22:51 2017 PM   Version 1.1.0  :  Paper Status ENTERING  SP       Response -> SUCCESS
Wednesday 12 April 2017 01:22:51 PM IST  tracedemo  :  Paper Status  ENTERING  C++       Response -> SUCCESS
Wednesday 12 April 2017 01:22:51 PM IST  tracedemo  :  Paper Status EXECUTED  C++   Response -> "DOCABSENT"  Status -> "0"
Wed Apr 12 01:22:51 2017 PM   Version 1.1.0  :  Paper Status EXITING  SP       Response -> DOCABSENT
Wed Apr 12 01:22:52 2017 PM   Version 1.1.0  :  Paper Status ENTERING  SP       Response -> SUCCESS
Wednesday 12 April 2017 01:22:52 PM IST  tracedemo  :  Paper Status  ENTERING  C++       Response -> SUCCESS
Wednesday 12 April 2017 01:22:52 PM IST  tracedemo  :  Paper Status EXECUTED  C++   Response -> "DOCABSENT"  Status -> "0"
Wed Apr 12 01:22:52 2017 PM   Version 1.1.0  :  Paper Status EXITING  SP       Response -> DOCABSENT
Wed Apr 12 01:22:53 2017 PM   Version 1.1.0  :  Paper Status ENTERING  SP       Response -> SUCCESS
Wednesday 12 April 2017 01:22:53 PM IST  tracedemo  :  Paper Status  ENTERING  C++       Response -> SUCCESS
Wednesday 12 April 2017 01:22:53 PM IST  tracedemo  :  Paper Status EXECUTED  C++   Response -> "DOCABSENT"  Status -> "0"
Wed Apr 12 01:22:53 2017 PM   Version 1.1.0  :  Paper Status EXITING  SP       Response -> DOCABSENT
Wed Apr 12 01:22:54 2017 PM   Version 1.1.0  :  Eject ENTERING  SP       Response -> SUCCESS
Wednesday 12 April 2017 01:22:54 PM IST  tracedemo  :  Eject  ENTERING  C++       Response -> SUCCESS
Wednesday 12 April 2017 01:22:54 PM IST  tracedemo  :  Eject EXECUTED  C++       Response -> ONLINE  Error_Code -> "0"
Wed Apr 12 01:22:54 2017 PM   Version 1.1.0  :  Eject Executed  SP       Response -> SUCCESS
Wed Apr 12 01:23:01 2017 PM   Version 1.1.0  :  Eject ENTERING  SP       Response -> SUCCESS
Wednesday 12 April 2017 01:23:01 PM IST  tracedemo  :  Eject  ENTERING  C++       Response -> SUCCESS
Wednesday 12 April 2017 01:23:01 PM IST  tracedemo  :  Eject EXECUTED  C++       Response -> ONLINE  Error_Code -> "0"
Wed Apr 12 01:23:01 2017 PM   Version 1.1.0  :  Eject Executed  SP       Response -> SUCCESS
Wed Apr 12 01:23:31 2017 PM   Version 1.1.0  :  Configuration ENTERING  SP       Response -> SUCCESS
Wednesday 12 April 2017 01:23:31 PM IST  tracedemo  :  Configuration ENTERING  C++       Response -> SUCCESS
Wednesday 12 April 2017 01:23:31 PM IST  tracedemo  :  Configuration CPI & LPI  C++       CPI ->"10"  LPI ->"40"   Response -> SUCCESS
Wednesday 12 April 2017 01:23:31 PM IST  tracedemo  :   Device Successfully Initialized  C++       Response -> SUCCESS
Wed Apr 12 01:23:32 2017 PM   Version 1.1.0  :  Paper Status ENTERING  SP       Response -> SUCCESS
Wednesday 12 April 2017 01:23:32 PM IST  tracedemo  :  Paper Status  ENTERING  C++       Response -> SUCCESS
Wednesday 12 April 2017 01:23:32 PM IST  tracedemo  :  Paper Status EXECUTED  C++   Response -> "DOCABSENT"  Status -> "0"
Wed Apr 12 01:23:32 2017 PM   Version 1.1.0  :  Paper Status EXITING  SP       Response -> DOCABSENT
Wed Apr 12 01:23:33 2017 PM   Version 1.1.0  :  Paper Status ENTERING  SP       Response -> SUCCESS
Wednesday 12 April 2017 01:23:33 PM IST  tracedemo  :  Paper Status  ENTERING  C++       Response -> SUCCESS
Wednesday 12 April 2017 01:23:33 PM IST  tracedemo  :  Paper Status EXECUTED  C++   Response -> "DOCABSENT"  Status -> "0"
Wed Apr 12 01:23:33 2017 PM   Version 1.1.0  :  Paper Status EXITING  SP       Response -> DOCABSENT
Wed Apr 12 01:23:34 2017 PM   Version 1.1.0  :  Paper Status ENTERING  SP       Response -> SUCCESS
Wednesday 12 April 2017 01:23:34 PM IST  tracedemo  :  Paper Status  ENTERING  C++       Response -> SUCCESS
Wednesday 12 April 2017 01:23:34 PM IST  tracedemo  :  Paper Status EXECUTED  C++   Response -> "DOCABSENT"  Status -> "0"
Wed Apr 12 01:23:34 2017 PM   Version 1.1.0  :  Paper Status EXITING  SP       Response -> DOCABSENT
Wed Apr 12 01:23:35 2017 PM   Version 1.1.0  :  Paper Status ENTERING  SP       Response -> SUCCESS
Wednesday 12 April 2017 01:23:35 PM IST  tracedemo  :  Paper Status  ENTERING  C++       Response -> SUCCESS
Wednesday 12 April 2017 01:23:35 PM IST  tracedemo  :  Paper Status EXECUTED  C++   Response -> "DOCABSENT"  Status -> "0"
Wed Apr 12 01:23:35 2017 PM   Version 1.1.0  :  Paper Status EXITING  SP       Response -> DOCABSENT
Wed Apr 12 01:23:36 2017 PM   Version 1.1.0  :  Paper Status ENTERING  SP       Response -> SUCCESS
Wednesday 12 April 2017 01:23:36 PM IST  tracedemo  :  Paper Status  ENTERING  C++       Response -> SUCCESS
Wednesday 12 April 2017 01:23:36 PM IST  tracedemo  :  Paper Status EXECUTED  C++   Response -> "DOCABSENT"  Status -> "0"
Wed Apr 12 01:23:36 2017 PM   Version 1.1.0  :  Paper Status EXITING  SP       Response -> DOCABSENT
Wed Apr 12 01:23:37 2017 PM   Version 1.1.0  :  Paper Status ENTERING  SP       Response -> SUCCESS
Wednesday 12 April 2017 01:23:37 PM IST  tracedemo  :  Paper Status  ENTERING  C++       Response -> SUCCESS
Wednesday 12 April 2017 01:23:37 PM IST  tracedemo  :  Paper Status EXECUTED  C++   Response -> "DOCABSENT"  Status -> "0"
Wed Apr 12 01:23:37 2017 PM   Version 1.1.0  :  Paper Status EXITING  SP       Response -> DOCABSENT
Wed Apr 12 01:23:38 2017 PM   Version 1.1.0  :  Paper Status ENTERING  SP       Response -> SUCCESS
Wednesday 12 April 2017 01:23:38 PM IST  tracedemo  :  Paper Status  ENTERING  C++       Response -> SUCCESS
Wednesday 12 April 2017 01:23:38 PM IST  tracedemo  :  Paper Status EXECUTED  C++   Response -> "DOCABSENT"  Status -> "0"
Wed Apr 12 01:23:38 2017 PM   Version 1.1.0  :  Paper Status EXITING  SP       Response -> DOCABSENT
Wed Apr 12 01:23:39 2017 PM   Version 1.1.0  :  Paper Status ENTERING  SP       Response -> SUCCESS
Wednesday 12 April 2017 01:23:39 PM IST  tracedemo  :  Paper Status  ENTERING  C++       Response -> SUCCESS
Wednesday 12 April 2017 01:23:39 PM IST  tracedemo  :  Paper Status EXECUTED  C++   Response -> "DOCABSENT"  Status -> "0"
Wed Apr 12 01:23:39 2017 PM   Version 1.1.0  :  Paper Status EXITING  SP       Response -> DOCABSENT
Wed Apr 12 01:23:40 2017 PM   Version 1.1.0  :  Paper Status ENTERING  SP       Response -> SUCCESS
Wednesday 12 April 2017 01:23:40 PM IST  tracedemo  :  Paper Status  ENTERING  C++       Response -> SUCCESS
Wednesday 12 April 2017 01:23:40 PM IST  tracedemo  :  Paper Status EXECUTED  C++   Response -> "DOCABSENT"  Status -> "0"
Wed Apr 12 01:23:40 2017 PM   Version 1.1.0  :  Paper Status EXITING  SP       Response -> DOCABSENT
Wed Apr 12 01:23:41 2017 PM   Version 1.1.0  :  Paper Status ENTERING  SP       Response -> SUCCESS
Wednesday 12 April 2017 01:23:41 PM IST  tracedemo  :  Paper Status  ENTERING  C++       Response -> SUCCESS
Wednesday 12 April 2017 01:23:41 PM IST  tracedemo  :  Paper Status EXECUTED  C++   Response -> "DOCEJECTED"  Status -> "1"
Wed Apr 12 01:23:41 2017 PM   Version 1.1.0  :  Paper Status EXITING  SP       Response -> DOCEJECTED
Wed Apr 12 01:23:42 2017 PM   Version 1.1.0  :  Paper Status ENTERING  SP       Response -> SUCCESS
Wednesday 12 April 2017 01:23:42 PM IST  tracedemo  :  Paper Status  ENTERING  C++       Response -> SUCCESS
Wednesday 12 April 2017 01:23:42 PM IST  tracedemo  :  Paper Status EXECUTED  C++   Response -> "DOCPRESENT"  Status -> "2"
Wed Apr 12 01:23:42 2017 PM   Version 1.1.0  :  Paper Status EXITING  SP       Response -> DOCPRESENT
Wed Apr 12 01:23:42 2017 PM   Version 1.1.0  :  Scanning ENTERING  SP       Response -> SUCCESS
Wednesday 12 April 2017 01:23:42 PM IST  tracedemo  :  Scanning  ENTERING  C++       Response -> SUCCESS
Wednesday 12 April 2017 01:23:42 PM IST  tracedemo  :  Scanning Properties  C++       BitsPerPixel -> "8"  ScanMode ->"SCAN_FRONT_REAR" 
Wednesday 12 April 2017 01:23:47 PM IST  tracedemo  :  Scanning EXECUTED  C++       Response -> ONLINE
Wed Apr 12 01:23:48 2017 PM   Version 1.1.0  :   Barcode Range specified Min->9  Max->16SP       
Wed Apr 12 01:23:48 2017 PM   Version 1.1.0  :   Length of barcode retrieved ->14  SP       
Wed Apr 12 01:23:48 2017 PM   Version 1.1.0  :  Barcode scanning successfully executed  SP       Response -> SUCCESSFULL	Barcode Data ->	50932041000174
Wed Apr 12 01:23:48 2017 PM   Version 1.1.0  :  SCanning   SP   LOWER REGION specified for scanning
Wed Apr 12 01:23:48 2017 PM Version 1.1.0  :  Scanning EXITING  SP       Response -> SUCCESS     Barcode Data -> 50932041000174
Wed Apr 12 01:23:58 2017 PM   Version 1.1.0  :  Print ENTERING  SP       Response -> SUCCESS
Wednesday 12 April 2017 01:23:58 PM IST  tracedemo  :  Printing  ENTERING  C++       Response -> SUCCESS
Wednesday 12 April 2017 01:23:58 PM IST  tracedemo  :  Printing path  C++       Path ->  "/root/forbes/microbanker/bin/Print_Files/PrintFile.txt"
Wednesday 12 April 2017 01:24:05 PM IST  tracedemo  :  Printing EXECUTED  C++       Response -> ONLINE
Wed Apr 12 01:24:06 2017 PM   Version 1.1.0  :  Print EXITING  SP       Response -> SUCCESS
Wed Apr 12 01:24:17 2017 PM   Version 1.1.0  :  Print ENTERING  SP       Response -> SUCCESS
Wednesday 12 April 2017 01:24:17 PM IST  tracedemo  :  Printing  ENTERING  C++       Response -> SUCCESS
Wednesday 12 April 2017 01:24:17 PM IST  tracedemo  :  Printing path  C++       Path ->  "/root/forbes/microbanker/bin/Print_Files/PrintFile.txt"
Wednesday 12 April 2017 01:24:18 PM IST  tracedemo  :  Printing EXECUTED  C++       Response -> ONLINE
Wed Apr 12 01:24:18 2017 PM   Version 1.1.0  :  Print EXITING  SP       Response -> SUCCESS
Wed Apr 12 01:24:21 2017 PM   Version 1.1.0  :  Eject ENTERING  SP       Response -> SUCCESS
Wednesday 12 April 2017 01:24:22 PM IST  tracedemo  :  Eject  ENTERING  C++       Response -> SUCCESS
Wednesday 12 April 2017 01:24:22 PM IST  tracedemo  :  Eject EXECUTED  C++       Response -> ONLINE  Error_Code -> "0"
Wed Apr 12 01:24:22 2017 PM   Version 1.1.0  :  Eject Executed  SP       Response -> SUCCESS
Wed Apr 12 01:24:22 2017 PM   Version 1.1.0  :  Paper Status ENTERING  SP       Response -> SUCCESS
Wednesday 12 April 2017 01:24:22 PM IST  tracedemo  :  Paper Status  ENTERING  C++       Response -> SUCCESS
Wednesday 12 April 2017 01:24:22 PM IST  tracedemo  :  Paper Status EXECUTED  C++   Response -> "DOCEJECTED"  Status -> "1"
Wed Apr 12 01:24:22 2017 PM   Version 1.1.0  :  Paper Status EXITING  SP       Response -> DOCEJECTED
Wed Apr 12 01:24:22 2017 PM   Version 1.1.0  :  Paper Status ENTERING  SP       Response -> SUCCESS
Wednesday 12 April 2017 01:24:22 PM IST  tracedemo  :  Paper Status  ENTERING  C++       Response -> SUCCESS
Wednesday 12 April 2017 01:24:22 PM IST  tracedemo  :  Paper Status EXECUTED  C++   Response -> "DOCEJECTED"  Status -> "1"
Wed Apr 12 01:24:22 2017 PM   Version 1.1.0  :  Paper Status EXITING  SP       Response -> DOCEJECTED
Wed Apr 12 01:24:23 2017 PM   Version 1.1.0  :  Paper Status ENTERING  SP       Response -> SUCCESS
Wednesday 12 April 2017 01:24:23 PM IST  tracedemo  :  Paper Status  ENTERING  C++       Response -> SUCCESS
Wednesday 12 April 2017 01:24:23 PM IST  tracedemo  :  Paper Status EXECUTED  C++   Response -> "DOCABSENT"  Status -> "0"
Wed Apr 12 01:24:23 2017 PM   Version 1.1.0  :  Paper Status EXITING  SP       Response -> DOCABSENT
Wed Apr 12 01:24:24 2017 PM   Version 1.1.0  :  Paper Status ENTERING  SP       Response -> SUCCESS
Wednesday 12 April 2017 01:24:24 PM IST  tracedemo  :  Paper Status  ENTERING  C++       Response -> SUCCESS
Wednesday 12 April 2017 01:24:24 PM IST  tracedemo  :  Paper Status EXECUTED  C++   Response -> "DOCABSENT"  Status -> "0"
Wed Apr 12 01:24:24 2017 PM   Version 1.1.0  :  Paper Status EXITING  SP       Response -> DOCABSENT
Wed Apr 12 01:24:25 2017 PM   Version 1.1.0  :  Paper Status ENTERING  SP       Response -> SUCCESS
Wednesday 12 April 2017 01:24:25 PM IST  tracedemo  :  Paper Status  ENTERING  C++       Response -> SUCCESS
Wednesday 12 April 2017 01:24:25 PM IST  tracedemo  :  Paper Status EXECUTED  C++   Response -> "DOCABSENT"  Status -> "0"
Wed Apr 12 01:24:25 2017 PM   Version 1.1.0  :  Paper Status EXITING  SP       Response -> DOCABSENT
Wed Apr 12 01:24:26 2017 PM   Version 1.1.0  :  Paper Status ENTERING  SP       Response -> SUCCESS
Wednesday 12 April 2017 01:24:26 PM IST  tracedemo  :  Paper Status  ENTERING  C++       Response -> SUCCESS
Wednesday 12 April 2017 01:24:26 PM IST  tracedemo  :  Paper Status EXECUTED  C++   Response -> "DOCABSENT"  Status -> "0"
Wed Apr 12 01:24:26 2017 PM   Version 1.1.0  :  Paper Status EXITING  SP       Response -> DOCABSENT
Wed Apr 12 01:24:27 2017 PM   Version 1.1.0  :  Paper Status ENTERING  SP       Response -> SUCCESS
Wednesday 12 April 2017 01:24:27 PM IST  tracedemo  :  Paper Status  ENTERING  C++       Response -> SUCCESS
Wednesday 12 April 2017 01:24:27 PM IST  tracedemo  :  Paper Status EXECUTED  C++   Response -> "DOCABSENT"  Status -> "0"
Wed Apr 12 01:24:27 2017 PM   Version 1.1.0  :  Paper Status EXITING  SP       Response -> DOCABSENT
Wed Apr 12 01:24:28 2017 PM   Version 1.1.0  :  Paper Status ENTERING  SP       Response -> SUCCESS
Wednesday 12 April 2017 01:24:28 PM IST  tracedemo  :  Paper Status  ENTERING  C++       Response -> SUCCESS
Wednesday 12 April 2017 01:24:28 PM IST  tracedemo  :  Paper Status EXECUTED  C++   Response -> "DOCABSENT"  Status -> "0"
Wed Apr 12 01:24:28 2017 PM   Version 1.1.0  :  Paper Status EXITING  SP       Response -> DOCABSENT
Wed Apr 12 01:24:29 2017 PM   Version 1.1.0  :  Paper Status ENTERING  SP       Response -> SUCCESS
Wednesday 12 April 2017 01:24:29 PM IST  tracedemo  :  Paper Status  ENTERING  C++       Response -> SUCCESS
Wednesday 12 April 2017 01:24:30 PM IST  tracedemo  :  Paper Status EXECUTED  C++   Response -> "DOCPRESENT"  Status -> "2"
Wed Apr 12 01:24:30 2017 PM   Version 1.1.0  :  Paper Status EXITING  SP       Response -> DOCPRESENT
Wed Apr 12 01:24:31 2017 PM   Version 1.1.0  :  Scanning ENTERING  SP       Response -> SUCCESS
Wednesday 12 April 2017 01:24:31 PM IST  tracedemo  :  Scanning  ENTERING  C++       Response -> SUCCESS
Wednesday 12 April 2017 01:24:31 PM IST  tracedemo  :  Scanning Properties  C++       BitsPerPixel -> "8"  ScanMode ->"SCAN_FRONT_REAR" 
Wednesday 12 April 2017 01:24:36 PM IST  tracedemo  :  Scanning EXECUTED  C++       Response -> ONLINE
Wed Apr 12 01:24:36 2017 PM   Version 1.1.0  :   Barcode Range specified Min->9  Max->16SP       
Wed Apr 12 01:24:36 2017 PM   Version 1.1.0  :   Length of barcode retrieved ->14  SP       
Wed Apr 12 01:24:36 2017 PM   Version 1.1.0  :  Barcode scanning successfully executed  SP       Response -> SUCCESSFULL	Barcode Data ->	50932041000174
Wed Apr 12 01:24:36 2017 PM   Version 1.1.0  :  SCanning   SP   LOWER REGION specified for scanning
Wed Apr 12 01:24:36 2017 PM Version 1.1.0  :  Scanning EXITING  SP       Response -> SUCCESS     Barcode Data -> 50932041000174
Wed Apr 12 01:24:39 2017 PM   Version 1.1.0  :  Print ENTERING  SP       Response -> SUCCESS
Wednesday 12 April 2017 01:24:39 PM IST  tracedemo  :  Printing  ENTERING  C++       Response -> SUCCESS
Wednesday 12 April 2017 01:24:39 PM IST  tracedemo  :  Printing path  C++       Path ->  "/root/forbes/microbanker/bin/Print_Files/PrintFile.txt"
Wednesday 12 April 2017 01:24:46 PM IST  tracedemo  :  Printing EXECUTED  C++       Response -> ONLINE
Wed Apr 12 01:24:46 2017 PM   Version 1.1.0  :  Print EXITING  SP       Response -> SUCCESS
Wed Apr 12 01:26:05 2017 PM   Version 1.1.0  :  Print ENTERING  SP       Response -> SUCCESS
Wednesday 12 April 2017 01:26:05 PM IST  tracedemo  :  Printing  ENTERING  C++       Response -> SUCCESS
Wednesday 12 April 2017 01:26:05 PM IST  tracedemo  :  Printing path  C++       Path ->  "/root/forbes/microbanker/bin/Print_Files/PrintFile.txt"
Wednesday 12 April 2017 01:26:06 PM IST  tracedemo  :  Printing EXECUTED  C++       Response -> ONLINE
Wed Apr 12 01:26:06 2017 PM   Version 1.1.0  :  Print EXITING  SP       Response -> SUCCESS
Wed Apr 12 01:26:27 2017 PM   Version 1.1.0  :  Eject ENTERING  SP       Response -> SUCCESS
Wednesday 12 April 2017 01:26:28 PM IST  tracedemo  :  Eject  ENTERING  C++       Response -> SUCCESS
Wednesday 12 April 2017 01:26:28 PM IST  tracedemo  :  Eject EXECUTED  C++       Response -> ONLINE  Error_Code -> "0"
Wed Apr 12 01:26:28 2017 PM   Version 1.1.0  :  Eject Executed  SP       Response -> SUCCESS
Wed Apr 12 01:26:28 2017 PM   Version 1.1.0  :  Paper Status ENTERING  SP       Response -> SUCCESS
Wednesday 12 April 2017 01:26:28 PM IST  tracedemo  :  Paper Status  ENTERING  C++       Response -> SUCCESS
Wednesday 12 April 2017 01:26:28 PM IST  tracedemo  :  Paper Status EXECUTED  C++   Response -> "DOCEJECTED"  Status -> "1"
Wed Apr 12 01:26:28 2017 PM   Version 1.1.0  :  Paper Status EXITING  SP       Response -> DOCEJECTED
Wed Apr 12 01:26:28 2017 PM   Version 1.1.0  :  Paper Status ENTERING  SP       Response -> SUCCESS
Wednesday 12 April 2017 01:26:28 PM IST  tracedemo  :  Paper Status  ENTERING  C++       Response -> SUCCESS
Wednesday 12 April 2017 01:26:28 PM IST  tracedemo  :  Paper Status EXECUTED  C++   Response -> "DOCEJECTED"  Status -> "1"
Wed Apr 12 01:26:28 2017 PM   Version 1.1.0  :  Paper Status EXITING  SP       Response -> DOCEJECTED
Wed Apr 12 01:26:29 2017 PM   Version 1.1.0  :  Paper Status ENTERING  SP       Response -> SUCCESS
Wednesday 12 April 2017 01:26:29 PM IST  tracedemo  :  Paper Status  ENTERING  C++       Response -> SUCCESS
Wednesday 12 April 2017 01:26:29 PM IST  tracedemo  :  Paper Status EXECUTED  C++   Response -> "DOCABSENT"  Status -> "0"
Wed Apr 12 01:26:29 2017 PM   Version 1.1.0  :  Paper Status EXITING  SP       Response -> DOCABSENT
Wed Apr 12 01:26:30 2017 PM   Version 1.1.0  :  Paper Status ENTERING  SP       Response -> SUCCESS
Wednesday 12 April 2017 01:26:30 PM IST  tracedemo  :  Paper Status  ENTERING  C++       Response -> SUCCESS
Wednesday 12 April 2017 01:26:30 PM IST  tracedemo  :  Paper Status EXECUTED  C++   Response -> "DOCABSENT"  Status -> "0"
Wed Apr 12 01:26:30 2017 PM   Version 1.1.0  :  Paper Status EXITING  SP       Response -> DOCABSENT
Wed Apr 12 01:26:31 2017 PM   Version 1.1.0  :  Paper Status ENTERING  SP       Response -> SUCCESS
Wednesday 12 April 2017 01:26:31 PM IST  tracedemo  :  Paper Status  ENTERING  C++       Response -> SUCCESS
Wednesday 12 April 2017 01:26:31 PM IST  tracedemo  :  Paper Status EXECUTED  C++   Response -> "DOCABSENT"  Status -> "0"
Wed Apr 12 01:26:31 2017 PM   Version 1.1.0  :  Paper Status EXITING  SP       Response -> DOCABSENT
Wed Apr 12 01:26:32 2017 PM   Version 1.1.0  :  Paper Status ENTERING  SP       Response -> SUCCESS
Wednesday 12 April 2017 01:26:32 PM IST  tracedemo  :  Paper Status  ENTERING  C++       Response -> SUCCESS
Wednesday 12 April 2017 01:26:32 PM IST  tracedemo  :  Paper Status EXECUTED  C++   Response -> "DOCABSENT"  Status -> "0"
Wed Apr 12 01:26:32 2017 PM   Version 1.1.0  :  Paper Status EXITING  SP       Response -> DOCABSENT
Wed Apr 12 01:26:33 2017 PM   Version 1.1.0  :  Paper Status ENTERING  SP       Response -> SUCCESS
Wednesday 12 April 2017 01:26:33 PM IST  tracedemo  :  Paper Status  ENTERING  C++       Response -> SUCCESS
Wednesday 12 April 2017 01:26:33 PM IST  tracedemo  :  Paper Status EXECUTED  C++   Response -> "DOCABSENT"  Status -> "0"
Wed Apr 12 01:26:33 2017 PM   Version 1.1.0  :  Paper Status EXITING  SP       Response -> DOCABSENT
Wed Apr 12 01:26:34 2017 PM   Version 1.1.0  :  Paper Status ENTERING  SP       Response -> SUCCESS
Wednesday 12 April 2017 01:26:34 PM IST  tracedemo  :  Paper Status  ENTERING  C++       Response -> SUCCESS
Wednesday 12 April 2017 01:26:34 PM IST  tracedemo  :  Paper Status EXECUTED  C++   Response -> "DOCABSENT"  Status -> "0"
Wed Apr 12 01:26:34 2017 PM   Version 1.1.0  :  Paper Status EXITING  SP       Response -> DOCABSENT
Wed Apr 12 01:26:35 2017 PM   Version 1.1.0  :  Paper Status ENTERING  SP       Response -> SUCCESS
Wednesday 12 April 2017 01:26:35 PM IST  tracedemo  :  Paper Status  ENTERING  C++       Response -> SUCCESS
Wednesday 12 April 2017 01:26:35 PM IST  tracedemo  :  Paper Status EXECUTED  C++   Response -> "DOCABSENT"  Status -> "0"
Wed Apr 12 01:26:35 2017 PM   Version 1.1.0  :  Paper Status EXITING  SP       Response -> DOCABSENT
Wed Apr 12 01:26:36 2017 PM   Version 1.1.0  :  Paper Status ENTERING  SP       Response -> SUCCESS
Wednesday 12 April 2017 01:26:36 PM IST  tracedemo  :  Paper Status  ENTERING  C++       Response -> SUCCESS
Wednesday 12 April 2017 01:26:36 PM IST  tracedemo  :  Paper Status EXECUTED  C++   Response -> "DOCABSENT"  Status -> "0"
Wed Apr 12 01:26:36 2017 PM   Version 1.1.0  :  Paper Status EXITING  SP       Response -> DOCABSENT
Wed Apr 12 01:26:37 2017 PM   Version 1.1.0  :  Paper Status ENTERING  SP       Response -> SUCCESS
Wednesday 12 April 2017 01:26:37 PM IST  tracedemo  :  Paper Status  ENTERING  C++       Response -> SUCCESS
Wednesday 12 April 2017 01:26:37 PM IST  tracedemo  :  Paper Status EXECUTED  C++   Response -> "DOCABSENT"  Status -> "0"
Wed Apr 12 01:26:37 2017 PM   Version 1.1.0  :  Paper Status EXITING  SP       Response -> DOCABSENT
Wed Apr 12 01:26:38 2017 PM   Version 1.1.0  :  Paper Status ENTERING  SP       Response -> SUCCESS
Wednesday 12 April 2017 01:26:38 PM IST  tracedemo  :  Paper Status  ENTERING  C++       Response -> SUCCESS
Wednesday 12 April 2017 01:26:38 PM IST  tracedemo  :  Paper Status EXECUTED  C++   Response -> "DOCABSENT"  Status -> "0"
Wed Apr 12 01:26:38 2017 PM   Version 1.1.0  :  Paper Status EXITING  SP       Response -> DOCABSENT
Wed Apr 12 01:26:39 2017 PM   Version 1.1.0  :  Paper Status ENTERING  SP       Response -> SUCCESS
Wednesday 12 April 2017 01:26:39 PM IST  tracedemo  :  Paper Status  ENTERING  C++       Response -> SUCCESS
Wednesday 12 April 2017 01:26:39 PM IST  tracedemo  :  Paper Status EXECUTED  C++   Response -> "DOCABSENT"  Status -> "0"
Wed Apr 12 01:26:39 2017 PM   Version 1.1.0  :  Paper Status EXITING  SP       Response -> DOCABSENT
Wed Apr 12 01:26:40 2017 PM   Version 1.1.0  :  Paper Status ENTERING  SP       Response -> SUCCESS
Wednesday 12 April 2017 01:26:40 PM IST  tracedemo  :  Paper Status  ENTERING  C++       Response -> SUCCESS
Wednesday 12 April 2017 01:26:40 PM IST  tracedemo  :  Paper Status EXECUTED  C++   Response -> "DOCABSENT"  Status -> "0"
Wed Apr 12 01:26:40 2017 PM   Version 1.1.0  :  Paper Status EXITING  SP       Response -> DOCABSENT
Wed Apr 12 01:26:41 2017 PM   Version 1.1.0  :  Paper Status ENTERING  SP       Response -> SUCCESS
Wednesday 12 April 2017 01:26:41 PM IST  tracedemo  :  Paper Status  ENTERING  C++       Response -> SUCCESS
Wednesday 12 April 2017 01:26:41 PM IST  tracedemo  :  Paper Status EXECUTED  C++   Response -> "DOCABSENT"  Status -> "0"
Wed Apr 12 01:26:41 2017 PM   Version 1.1.0  :  Paper Status EXITING  SP       Response -> DOCABSENT
Wed Apr 12 01:26:42 2017 PM   Version 1.1.0  :  Paper Status ENTERING  SP       Response -> SUCCESS
Wednesday 12 April 2017 01:26:42 PM IST  tracedemo  :  Paper Status  ENTERING  C++       Response -> SUCCESS
Wednesday 12 April 2017 01:26:42 PM IST  tracedemo  :  Paper Status EXECUTED  C++   Response -> "DOCABSENT"  Status -> "0"
Wed Apr 12 01:26:42 2017 PM   Version 1.1.0  :  Paper Status EXITING  SP       Response -> DOCABSENT
Wed Apr 12 01:26:43 2017 PM   Version 1.1.0  :  Paper Status ENTERING  SP       Response -> SUCCESS
Wednesday 12 April 2017 01:26:43 PM IST  tracedemo  :  Paper Status  ENTERING  C++       Response -> SUCCESS
Wednesday 12 April 2017 01:26:43 PM IST  tracedemo  :  Paper Status EXECUTED  C++   Response -> "DOCABSENT"  Status -> "0"
Wed Apr 12 01:26:43 2017 PM   Version 1.1.0  :  Paper Status EXITING  SP       Response -> DOCABSENT
Wed Apr 12 01:26:44 2017 PM   Version 1.1.0  :  Paper Status ENTERING  SP       Response -> SUCCESS
Wednesday 12 April 2017 01:26:44 PM IST  tracedemo  :  Paper Status  ENTERING  C++       Response -> SUCCESS
Wednesday 12 April 2017 01:26:44 PM IST  tracedemo  :  Paper Status EXECUTED  C++   Response -> "DOCABSENT"  Status -> "0"
Wed Apr 12 01:26:44 2017 PM   Version 1.1.0  :  Paper Status EXITING  SP       Response -> DOCABSENT
Wed Apr 12 01:26:45 2017 PM   Version 1.1.0  :  Paper Status ENTERING  SP       Response -> SUCCESS
Wednesday 12 April 2017 01:26:45 PM IST  tracedemo  :  Paper Status  ENTERING  C++       Response -> SUCCESS
Wednesday 12 April 2017 01:26:45 PM IST  tracedemo  :  Paper Status EXECUTED  C++   Response -> "DOCABSENT"  Status -> "0"
Wed Apr 12 01:26:45 2017 PM   Version 1.1.0  :  Paper Status EXITING  SP       Response -> DOCABSENT
Wed Apr 12 01:26:46 2017 PM   Version 1.1.0  :  Paper Status ENTERING  SP       Response -> SUCCESS
Wednesday 12 April 2017 01:26:46 PM IST  tracedemo  :  Paper Status  ENTERING  C++       Response -> SUCCESS
Wednesday 12 April 2017 01:26:46 PM IST  tracedemo  :  Paper Status EXECUTED  C++   Response -> "DOCABSENT"  Status -> "0"
Wed Apr 12 01:26:46 2017 PM   Version 1.1.0  :  Paper Status EXITING  SP       Response -> DOCABSENT
Wed Apr 12 01:26:47 2017 PM   Version 1.1.0  :  Paper Status ENTERING  SP       Response -> SUCCESS
Wednesday 12 April 2017 01:26:47 PM IST  tracedemo  :  Paper Status  ENTERING  C++       Response -> SUCCESS
Wednesday 12 April 2017 01:26:47 PM IST  tracedemo  :  Paper Status EXECUTED  C++   Response -> "DOCABSENT"  Status -> "0"
Wed Apr 12 01:26:47 2017 PM   Version 1.1.0  :  Paper Status EXITING  SP       Response -> DOCABSENT
Wed Apr 12 01:26:48 2017 PM   Version 1.1.0  :  Eject ENTERING  SP       Response -> SUCCESS
Wednesday 12 April 2017 01:26:48 PM IST  tracedemo  :  Eject  ENTERING  C++       Response -> SUCCESS
Wednesday 12 April 2017 01:26:48 PM IST  tracedemo  :  Eject EXECUTED  C++       Response -> ONLINE  Error_Code -> "0"
Wed Apr 12 01:26:48 2017 PM   Version 1.1.0  :  Eject Executed  SP       Response -> SUCCESS
Wed Apr 12 01:26:55 2017 PM   Version 1.1.0  :  Eject ENTERING  SP       Response -> SUCCESS
Wednesday 12 April 2017 01:26:55 PM IST  tracedemo  :  Eject  ENTERING  C++       Response -> SUCCESS
Wednesday 12 April 2017 01:26:55 PM IST  tracedemo  :  Eject EXECUTED  C++       Response -> ONLINE  Error_Code -> "0"
Wed Apr 12 01:26:55 2017 PM   Version 1.1.0  :  Eject Executed  SP       Response -> SUCCESS
Wednesday 12 April 2017 02:11:17 PM IST  tracedemo  :  Device status "Device status could not be  retrieved"  C++       Response -> OFFLINE  Error Code -> "650"
Wed Apr 12 02:11:17 2017 PM   Version 1.1.0  :  Device Status EXITING  SP       Response -> OFFLINE
Wednesday 12 April 2017 02:11:17 PM IST  tracedemo  :  Device status "Device status could not be  retrieved"  C++       Response -> OFFLINE  Error Code -> "650"
Wed Apr 12 02:11:17 2017 PM   Version 1.1.0  :  Device Status EXITING  SP       Response -> OFFLINE
Wed Apr 12 02:11:18 2017 PM   Version 1.1.0  :  Configuration ENTERING  SP       Response -> SUCCESS
Wednesday 12 April 2017 02:11:18 PM IST  tracedemo  :  Configuration ENTERING  C++       Response -> SUCCESS
Wednesday 12 April 2017 02:11:18 PM IST  tracedemo  :  Configuration CPI & LPI  C++       CPI ->"10"  LPI ->"40"   Response -> SUCCESS
Wed Apr 12 02:11:29 2017 PM   Version 1.1.0  :  Configuration ENTERING  SP       Response -> SUCCESS
Wednesday 12 April 2017 02:11:29 PM IST  tracedemo  :  Configuration ENTERING  C++       Response -> SUCCESS
Wednesday 12 April 2017 02:11:29 PM IST  tracedemo  :  Configuration CPI & LPI  C++       CPI ->"10"  LPI ->"40"   Response -> SUCCESS
Wednesday 12 April 2017 02:11:29 PM IST  tracedemo  :   Device Successfully Initialized  C++       Response -> SUCCESS
Wednesday 12 April 2017 02:15:10 PM IST  tracedemo  :  Device status "Device status could not be  retrieved"  C++       Response -> OFFLINE  Error Code -> "650"
Wed Apr 12 02:15:10 2017 PM   Version 1.1.0  :  Device Status EXITING  SP       Response -> OFFLINE
Wednesday 12 April 2017 02:15:10 PM IST  tracedemo  :  Device status "Device status could not be  retrieved"  C++       Response -> OFFLINE  Error Code -> "650"
Wed Apr 12 02:15:10 2017 PM   Version 1.1.0  :  Device Status EXITING  SP       Response -> OFFLINE
Wed Apr 12 02:15:11 2017 PM   Version 1.1.0  :  Configuration ENTERING  SP       Response -> SUCCESS
Wednesday 12 April 2017 02:15:11 PM IST  tracedemo  :  Configuration ENTERING  C++       Response -> SUCCESS
Wednesday 12 April 2017 02:15:11 PM IST  tracedemo  :  Configuration CPI & LPI  C++       CPI ->"10"  LPI ->"40"   Response -> SUCCESS
Wed Apr 12 02:15:17 2017 PM   Version 1.1.0  :  Configuration ENTERING  SP       Response -> SUCCESS
Wednesday 12 April 2017 02:15:17 PM IST  tracedemo  :  Configuration ENTERING  C++       Response -> SUCCESS
Wednesday 12 April 2017 02:15:17 PM IST  tracedemo  :  Configuration CPI & LPI  C++       CPI ->"10"  LPI ->"40"   Response -> SUCCESS
Wednesday 12 April 2017 02:15:17 PM IST  tracedemo  :   Device Successfully Initialized  C++       Response -> SUCCESS
Wednesday 12 April 2017 02:15:36 PM IST  tracedemo  :  Device status "Device status could not be  retrieved"  C++       Response -> OFFLINE  Error Code -> "650"
Wed Apr 12 02:15:36 2017 PM   Version 1.1.0  :  Device Status EXITING  SP       Response -> OFFLINE
Wednesday 12 April 2017 02:15:36 PM IST  tracedemo  :  Device status "Device status could not be  retrieved"  C++       Response -> OFFLINE  Error Code -> "650"
Wed Apr 12 02:15:36 2017 PM   Version 1.1.0  :  Device Status EXITING  SP       Response -> OFFLINE
Wed Apr 12 02:15:37 2017 PM   Version 1.1.0  :  Configuration ENTERING  SP       Response -> SUCCESS
Wednesday 12 April 2017 02:15:37 PM IST  tracedemo  :  Configuration ENTERING  C++       Response -> SUCCESS
Wednesday 12 April 2017 02:15:37 PM IST  tracedemo  :  Configuration CPI & LPI  C++       CPI ->"10"  LPI ->"40"   Response -> SUCCESS
Wed Apr 12 02:15:48 2017 PM   Version 1.1.0  :  Configuration ENTERING  SP       Response -> SUCCESS
Wednesday 12 April 2017 02:15:48 PM IST  tracedemo  :  Configuration ENTERING  C++       Response -> SUCCESS
Wednesday 12 April 2017 02:15:48 PM IST  tracedemo  :  Configuration CPI & LPI  C++       CPI ->"10"  LPI ->"40"   Response -> SUCCESS
Wednesday 12 April 2017 02:15:48 PM IST  tracedemo  :   Device Successfully Initialized  C++       Response -> SUCCESS
Wednesday 12 April 2017 02:16:24 PM IST  tracedemo  :  Device status "Device status could not be  retrieved"  C++       Response -> OFFLINE  Error Code -> "650"
Wed Apr 12 02:16:24 2017 PM   Version 1.1.0  :  Device Status EXITING  SP       Response -> OFFLINE
Wednesday 12 April 2017 02:16:24 PM IST  tracedemo  :  Device status "Device status could not be  retrieved"  C++       Response -> OFFLINE  Error Code -> "650"
Wed Apr 12 02:16:24 2017 PM   Version 1.1.0  :  Device Status EXITING  SP       Response -> OFFLINE
Wed Apr 12 02:16:25 2017 PM   Version 1.1.0  :  Configuration ENTERING  SP       Response -> SUCCESS
Wednesday 12 April 2017 02:16:25 PM IST  tracedemo  :  Configuration ENTERING  C++       Response -> SUCCESS
Wednesday 12 April 2017 02:16:25 PM IST  tracedemo  :  Configuration CPI & LPI  C++       CPI ->"10"  LPI ->"40"   Response -> SUCCESS
Wed Apr 12 02:16:41 2017 PM   Version 1.1.0  :  Configuration ENTERING  SP       Response -> SUCCESS
Wednesday 12 April 2017 02:16:41 PM IST  tracedemo  :  Configuration ENTERING  C++       Response -> SUCCESS
Wednesday 12 April 2017 02:16:41 PM IST  tracedemo  :  Configuration CPI & LPI  C++       CPI ->"10"  LPI ->"40"   Response -> SUCCESS
Wednesday 12 April 2017 02:16:56 PM IST  tracedemo  :  Configuration "Device Could not be  Initialized"  C++       Response -> OFFLINE  Error Code -> "600"
Wed Apr 12 02:16:57 2017 PM   Version 1.1.0  :  Configuration ENTERING  SP       Response -> SUCCESS
Wednesday 12 April 2017 02:16:57 PM IST  tracedemo  :  Configuration ENTERING  C++       Response -> SUCCESS
Wednesday 12 April 2017 02:16:57 PM IST  tracedemo  :  Configuration CPI & LPI  C++       CPI ->"10"  LPI ->"40"   Response -> SUCCESS
Wednesday 12 April 2017 02:17:12 PM IST  tracedemo  :  Configuration "Device Could not be  Initialized"  C++       Response -> OFFLINE  Error Code -> "600"
Wed Apr 12 02:17:13 2017 PM   Version 1.1.0  :  Configuration ENTERING  SP       Response -> SUCCESS
Wednesday 12 April 2017 02:17:13 PM IST  tracedemo  :  Configuration ENTERING  C++       Response -> SUCCESS
Wednesday 12 April 2017 02:17:13 PM IST  tracedemo  :  Configuration CPI & LPI  C++       CPI ->"10"  LPI ->"40"   Response -> SUCCESS
Wednesday 12 April 2017 02:17:28 PM IST  tracedemo  :  Configuration "Device Could not be  Initialized"  C++       Response -> OFFLINE  Error Code -> "600"
Wed Apr 12 02:17:29 2017 PM   Version 1.1.0  :  Configuration ENTERING  SP       Response -> SUCCESS
Wednesday 12 April 2017 02:17:29 PM IST  tracedemo  :  Configuration ENTERING  C++       Response -> SUCCESS
Wednesday 12 April 2017 02:17:29 PM IST  tracedemo  :  Configuration CPI & LPI  C++       CPI ->"10"  LPI ->"40"   Response -> SUCCESS
Wednesday 12 April 2017 02:17:44 PM IST  tracedemo  :  Configuration "Device Could not be  Initialized"  C++       Response -> OFFLINE  Error Code -> "600"
Wed Apr 12 02:17:45 2017 PM   Version 1.1.0  :  Configuration ENTERING  SP       Response -> SUCCESS
Wednesday 12 April 2017 02:17:45 PM IST  tracedemo  :  Configuration ENTERING  C++       Response -> SUCCESS
Wednesday 12 April 2017 02:17:45 PM IST  tracedemo  :  Configuration CPI & LPI  C++       CPI ->"10"  LPI ->"40"   Response -> SUCCESS
Wednesday 12 April 2017 02:18:00 PM IST  tracedemo  :  Configuration "Device Could not be  Initialized"  C++       Response -> OFFLINE  Error Code -> "600"
Wed Apr 12 02:18:01 2017 PM   Version 1.1.0  :  Configuration ENTERING  SP       Response -> SUCCESS
Wednesday 12 April 2017 02:18:01 PM IST  tracedemo  :  Configuration ENTERING  C++       Response -> SUCCESS
Wednesday 12 April 2017 02:18:01 PM IST  tracedemo  :  Configuration CPI & LPI  C++       CPI ->"10"  LPI ->"40"   Response -> SUCCESS
Wednesday 12 April 2017 02:18:16 PM IST  tracedemo  :  Configuration "Device Could not be  Initialized"  C++       Response -> OFFLINE  Error Code -> "600"
Wed Apr 12 02:18:17 2017 PM   Version 1.1.0  :  Configuration ENTERING  SP       Response -> SUCCESS
Wednesday 12 April 2017 02:18:17 PM IST  tracedemo  :  Configuration ENTERING  C++       Response -> SUCCESS
Wednesday 12 April 2017 02:18:17 PM IST  tracedemo  :  Configuration CPI & LPI  C++       CPI ->"10"  LPI ->"40"   Response -> SUCCESS
Wednesday 12 April 2017 02:18:32 PM IST  tracedemo  :  Configuration "Device Could not be  Initialized"  C++       Response -> OFFLINE  Error Code -> "600"
Wed Apr 12 02:18:33 2017 PM   Version 1.1.0  :  Configuration ENTERING  SP       Response -> SUCCESS
Wednesday 12 April 2017 02:18:33 PM IST  tracedemo  :  Configuration ENTERING  C++       Response -> SUCCESS
Wednesday 12 April 2017 02:18:33 PM IST  tracedemo  :  Configuration CPI & LPI  C++       CPI ->"10"  LPI ->"40"   Response -> SUCCESS
Wednesday 12 April 2017 02:18:48 PM IST  tracedemo  :  Configuration "Device Could not be  Initialized"  C++       Response -> OFFLINE  Error Code -> "600"
Wed Apr 12 02:18:49 2017 PM   Version 1.1.0  :  Configuration ENTERING  SP       Response -> SUCCESS
Wednesday 12 April 2017 02:18:49 PM IST  tracedemo  :  Configuration ENTERING  C++       Response -> SUCCESS
Wednesday 12 April 2017 02:18:49 PM IST  tracedemo  :  Configuration CPI & LPI  C++       CPI ->"10"  LPI ->"40"   Response -> SUCCESS
Wednesday 12 April 2017 02:19:04 PM IST  tracedemo  :  Configuration "Device Could not be  Initialized"  C++       Response -> OFFLINE  Error Code -> "600"
Wed Apr 12 02:19:05 2017 PM   Version 1.1.0  :  Configuration ENTERING  SP       Response -> SUCCESS
Wednesday 12 April 2017 02:19:05 PM IST  tracedemo  :  Configuration ENTERING  C++       Response -> SUCCESS
Wednesday 12 April 2017 02:19:05 PM IST  tracedemo  :  Configuration CPI & LPI  C++       CPI ->"10"  LPI ->"40"   Response -> SUCCESS
Wednesday 12 April 2017 02:19:20 PM IST  tracedemo  :  Configuration "Device Could not be  Initialized"  C++       Response -> OFFLINE  Error Code -> "600"
