Thursday 21 June 2018 02:53:57 PM IST  tracedemo  :  Device status "Device status could not be  retrieved"  C++       Response -> OFFLINE  Error Code -> "600"
Thu Jun 21 02:53:57 2018 PM   Version 1.1.0  :  Device Status EXITING  SP       Response -> OFFLINE
Thu Jun 21 02:53:57 2018 PM   Version 1.1.0  :  Configuration ENTERING  SP       Response -> SUCCESS
Thursday 21 June 2018 02:53:57 PM IST  tracedemo  :  Configuration ENTERING  C++       Response -> SUCCESS
Thursday 21 June 2018 02:53:57 PM IST  tracedemo  :  Configuration CPI & LPI  C++       CPI ->"16"  LPI ->"40"   Response -> SUCCESS
Thursday 21 June 2018 02:54:12 PM IST  tracedemo  :  Configuration "Device Could not be  Initialized"  C++       Response -> OFFLINE  Error Code -> "600"
Thursday 21 June 2018 02:54:12 PM IST  tracedemo  :  Device status "Device status could not be  retrieved"  C++       Response -> OFFLINE  Error Code -> "600"
Thu Jun 21 02:54:12 2018 PM   Version 1.1.0  :  Device Status EXITING  SP       Response -> OFFLINE
