Mon Jun 27 11:49:47 2016 AM   tracedemo  :  Configuration ENTERING  SP       Response -> SUCCESS
Monday 27 June 2016 11:49:47 AM IST  tracedemo  :  Configuration ENTERING  C++       Response -> SUCCESS
Monday 27 June 2016 11:49:47 AM IST  tracedemo  :  Configuration CPI & LPI  C++       CPI ->"17"  LPI ->"40"   Response -> SUCCESS
Monday 27 June 2016 11:50:02 AM IST  tracedemo  :  Configuration "Device Could not be  Initialized"  C++       Response -> OFFLINE  Error Code -> "600"
Mon Jun 27 11:50:03 2016 AM   tracedemo  :  Configuration ENTERING  SP       Response -> SUCCESS
Monday 27 June 2016 11:50:03 AM IST  tracedemo  :  Configuration ENTERING  C++       Response -> SUCCESS
Monday 27 June 2016 11:50:03 AM IST  tracedemo  :  Configuration CPI & LPI  C++       CPI ->"17"  LPI ->"40"   Response -> SUCCESS
Monday 27 June 2016 11:50:18 AM IST  tracedemo  :  Configuration "Device Could not be  Initialized"  C++       Response -> OFFLINE  Error Code -> "600"
