Mon Oct 24 12:22:21 2016 PM   tracedemo  :  Configuration ENTERING  SP       Response -> SUCCESS
Monday 24 October 2016 12:22:21 PM IST  tracedemo  :  Configuration ENTERING  C++       Response -> SUCCESS
Monday 24 October 2016 12:22:21 PM IST  tracedemo  :  Configuration CPI & LPI  C++       CPI ->"10"  LPI ->"40"   Response -> SUCCESS
Monday 24 October 2016 12:22:27 PM IST  tracedemo  :   Device Successfully Initialized  C++       Response -> SUCCESS
Mon Oct 24 12:22:38 2016 PM   tracedemo  :  Configuration ENTERING  SP       Response -> SUCCESS
Monday 24 October 2016 12:22:38 PM IST  tracedemo  :  Configuration ENTERING  C++       Response -> SUCCESS
Monday 24 October 2016 12:22:38 PM IST  tracedemo  :  Configuration CPI & LPI  C++       CPI ->"10"  LPI ->"40"   Response -> SUCCESS
Monday 24 October 2016 12:22:38 PM IST  tracedemo  :   Device Successfully Initialized  C++       Response -> SUCCESS
Mon Oct 24 12:22:39 2016 PM   tracedemo  :  Paper Status ENTERING  SP       Response -> SUCCESS
Monday 24 October 2016 12:22:39 PM IST  tracedemo  :  Paper Status  ENTERING  C++       Response -> SUCCESS
Monday 24 October 2016 12:22:39 PM IST  tracedemo  :  Paper Status EXECUTED  C++   Response -> "DOCPRESENT"  Status -> "2"
Mon Oct 24 12:22:39 2016 PM   tracedemo  :  Paper Status EXITING  SP       Response -> DOCPRESENT
Mon Oct 24 12:22:39 2016 PM   tracedemo  :  Scanning ENTERING  SP       Response -> SUCCESS
Monday 24 October 2016 12:22:39 PM IST  tracedemo  :  Scanning  ENTERING  C++       Response -> SUCCESS
Monday 24 October 2016 12:22:39 PM IST  tracedemo  :  Scanning Properties  C++       BitsPerPixel -> "8"  ScanMode ->"SCAN_FRONT_REAR" 
Monday 24 October 2016 12:22:44 PM IST  tracedemo  :  Scanning EXECUTED  C++       Response -> ONLINE
Mon Oct 24 12:22:45 2016 PM   tracedemo  :   Barcode Range specified Min->9  Max->16SP       
Mon Oct 24 12:22:45 2016 PM   tracedemo  :   Length of barcode retrieved ->15  SP       
Mon Oct 24 12:22:45 2016 PM   tracedemo  :  Barcode scanning successfully executed  SP       Response -> SUCCESSFULL	Barcode Data ->	00072021004312
Mon Oct 24 12:22:45 2016 PM   tracedemo  :  SCanning   SP   LOWER REGION specified for scanning
Mon Oct 24 12:22:45 2016 PM tracedemo  :  Scanning EXITING  SP       Response -> SUCCESS     Barcode Data -> 00072021004312
Mon Oct 24 12:22:49 2016 PM   tracedemo  :  Print ENTERING  SP       Response -> SUCCESS
Monday 24 October 2016 12:22:49 PM IST  tracedemo  :  Printing  ENTERING  C++       Response -> SUCCESS
Monday 24 October 2016 12:22:49 PM IST  tracedemo  :  Printing path  C++       Path ->  "/root/forbes/microbanker/bin/Print_Files/PrintFile.txt"
Monday 24 October 2016 12:22:57 PM IST  tracedemo  :  Printing EXECUTED  C++       Response -> ONLINE
Mon Oct 24 12:22:57 2016 PM   tracedemo  :  Print EXITING  SP       Response -> SUCCESS
Mon Oct 24 12:22:57 2016 PM   tracedemo  :  Print ENTERING  SP       Response -> SUCCESS
Monday 24 October 2016 12:22:57 PM IST  tracedemo  :  Printing  ENTERING  C++       Response -> SUCCESS
Monday 24 October 2016 12:22:57 PM IST  tracedemo  :  Printing path  C++       Path ->  "/root/forbes/microbanker/bin/Print_Files/PrintFile.txt"
Monday 24 October 2016 12:22:58 PM IST  tracedemo  :  Printing EXECUTED  C++       Response -> ONLINE
Mon Oct 24 12:22:58 2016 PM   tracedemo  :  Print EXITING  SP       Response -> SUCCESS
Mon Oct 24 12:22:58 2016 PM   tracedemo  :  Eject ENTERING  SP       Response -> SUCCESS
Monday 24 October 2016 12:22:59 PM IST  tracedemo  :  Eject  ENTERING  C++       Response -> SUCCESS
Monday 24 October 2016 12:22:59 PM IST  tracedemo  :  Eject EXECUTED  C++       Response -> ONLINE  Error_Code -> "0"
Mon Oct 24 12:22:59 2016 PM   tracedemo  :  Eject Executed  SP       Response -> SUCCESS
Mon Oct 24 12:24:33 2016 PM   tracedemo  :  Configuration ENTERING  SP       Response -> SUCCESS
Monday 24 October 2016 12:24:33 PM IST  tracedemo  :  Configuration ENTERING  C++       Response -> SUCCESS
Monday 24 October 2016 12:24:33 PM IST  tracedemo  :  Configuration CPI & LPI  C++       CPI ->"10"  LPI ->"40"   Response -> SUCCESS
Monday 24 October 2016 12:24:34 PM IST  tracedemo  :   Device Successfully Initialized  C++       Response -> SUCCESS
Mon Oct 24 12:24:35 2016 PM   tracedemo  :  Paper Status ENTERING  SP       Response -> SUCCESS
Monday 24 October 2016 12:24:35 PM IST  tracedemo  :  Paper Status  ENTERING  C++       Response -> SUCCESS
Monday 24 October 2016 12:24:35 PM IST  tracedemo  :  Paper Status EXECUTED  C++   Response -> "DOCABSENT"  Status -> "0"
Mon Oct 24 12:24:35 2016 PM   tracedemo  :  Paper Status EXITING  SP       Response -> DOCABSENT
Mon Oct 24 12:24:36 2016 PM   tracedemo  :  Paper Status ENTERING  SP       Response -> SUCCESS
Monday 24 October 2016 12:24:36 PM IST  tracedemo  :  Paper Status  ENTERING  C++       Response -> SUCCESS
Monday 24 October 2016 12:24:36 PM IST  tracedemo  :  Paper Status EXECUTED  C++   Response -> "DOCABSENT"  Status -> "0"
Mon Oct 24 12:24:36 2016 PM   tracedemo  :  Paper Status EXITING  SP       Response -> DOCABSENT
Mon Oct 24 12:24:37 2016 PM   tracedemo  :  Paper Status ENTERING  SP       Response -> SUCCESS
Monday 24 October 2016 12:24:37 PM IST  tracedemo  :  Paper Status  ENTERING  C++       Response -> SUCCESS
Monday 24 October 2016 12:24:37 PM IST  tracedemo  :  Paper Status EXECUTED  C++   Response -> "DOCABSENT"  Status -> "0"
Mon Oct 24 12:24:37 2016 PM   tracedemo  :  Paper Status EXITING  SP       Response -> DOCABSENT
Mon Oct 24 12:24:38 2016 PM   tracedemo  :  Paper Status ENTERING  SP       Response -> SUCCESS
Monday 24 October 2016 12:24:38 PM IST  tracedemo  :  Paper Status  ENTERING  C++       Response -> SUCCESS
Monday 24 October 2016 12:24:38 PM IST  tracedemo  :  Paper Status EXECUTED  C++   Response -> "DOCEJECTED"  Status -> "1"
Mon Oct 24 12:24:38 2016 PM   tracedemo  :  Paper Status EXITING  SP       Response -> DOCEJECTED
Mon Oct 24 12:24:39 2016 PM   tracedemo  :  Paper Status ENTERING  SP       Response -> SUCCESS
Monday 24 October 2016 12:24:39 PM IST  tracedemo  :  Paper Status  ENTERING  C++       Response -> SUCCESS
Monday 24 October 2016 12:24:39 PM IST  tracedemo  :  Paper Status EXECUTED  C++   Response -> "DOCPRESENT"  Status -> "2"
Mon Oct 24 12:24:39 2016 PM   tracedemo  :  Paper Status EXITING  SP       Response -> DOCPRESENT
Mon Oct 24 12:24:39 2016 PM   tracedemo  :  Scanning ENTERING  SP       Response -> SUCCESS
Monday 24 October 2016 12:24:39 PM IST  tracedemo  :  Scanning  ENTERING  C++       Response -> SUCCESS
Monday 24 October 2016 12:24:39 PM IST  tracedemo  :  Scanning Properties  C++       BitsPerPixel -> "8"  ScanMode ->"SCAN_FRONT_REAR" 
Monday 24 October 2016 12:24:44 PM IST  tracedemo  :  Scanning EXECUTED  C++       Response -> ONLINE
Mon Oct 24 12:24:44 2016 PM   tracedemo  :   Barcode Range specified Min->9  Max->16SP       
Mon Oct 24 12:24:44 2016 PM   tracedemo  :   Length of barcode retrieved ->15  SP       
Mon Oct 24 12:24:44 2016 PM   tracedemo  :  Barcode scanning successfully executed  SP       Response -> SUCCESSFULL	Barcode Data ->	00072021004312
Mon Oct 24 12:24:44 2016 PM   tracedemo  :  SCanning   SP   LOWER REGION specified for scanning
Mon Oct 24 12:24:44 2016 PM tracedemo  :  Scanning EXITING  SP       Response -> SUCCESS     Barcode Data -> 00072021004312
Mon Oct 24 12:25:00 2016 PM   tracedemo  :  Print ENTERING  SP       Response -> SUCCESS
Monday 24 October 2016 12:25:00 PM IST  tracedemo  :  Printing  ENTERING  C++       Response -> SUCCESS
Monday 24 October 2016 12:25:00 PM IST  tracedemo  :  Printing path  C++       Path ->  "/root/forbes/microbanker/bin/Print_Files/PrintFile.txt"
Monday 24 October 2016 12:25:08 PM IST  tracedemo  :  Printing EXECUTED  C++       Response -> ONLINE
Mon Oct 24 12:25:08 2016 PM   tracedemo  :  Print EXITING  SP       Response -> SUCCESS
Mon Oct 24 12:25:08 2016 PM   tracedemo  :  Print ENTERING  SP       Response -> SUCCESS
Monday 24 October 2016 12:25:08 PM IST  tracedemo  :  Printing  ENTERING  C++       Response -> SUCCESS
Monday 24 October 2016 12:25:08 PM IST  tracedemo  :  Printing path  C++       Path ->  "/root/forbes/microbanker/bin/Print_Files/PrintFile.txt"
Monday 24 October 2016 12:25:08 PM IST  tracedemo  :  Printing EXECUTED  C++       Response -> ONLINE
Mon Oct 24 12:25:08 2016 PM   tracedemo  :  Print EXITING  SP       Response -> SUCCESS
Mon Oct 24 12:25:09 2016 PM   tracedemo  :  Eject ENTERING  SP       Response -> SUCCESS
Monday 24 October 2016 12:25:10 PM IST  tracedemo  :  Eject  ENTERING  C++       Response -> SUCCESS
Monday 24 October 2016 12:25:10 PM IST  tracedemo  :  Eject EXECUTED  C++       Response -> ONLINE  Error_Code -> "0"
Mon Oct 24 12:25:10 2016 PM   tracedemo  :  Eject Executed  SP       Response -> SUCCESS
Mon Oct 24 12:26:43 2016 PM   tracedemo  :  Configuration ENTERING  SP       Response -> SUCCESS
Monday 24 October 2016 12:26:43 PM IST  tracedemo  :  Configuration ENTERING  C++       Response -> SUCCESS
Monday 24 October 2016 12:26:43 PM IST  tracedemo  :  Configuration CPI & LPI  C++       CPI ->"10"  LPI ->"40"   Response -> SUCCESS
Monday 24 October 2016 12:26:43 PM IST  tracedemo  :   Device Successfully Initialized  C++       Response -> SUCCESS
Mon Oct 24 12:26:44 2016 PM   tracedemo  :  Paper Status ENTERING  SP       Response -> SUCCESS
Monday 24 October 2016 12:26:44 PM IST  tracedemo  :  Paper Status  ENTERING  C++       Response -> SUCCESS
Monday 24 October 2016 12:26:44 PM IST  tracedemo  :  Paper Status EXECUTED  C++   Response -> "DOCABSENT"  Status -> "0"
Mon Oct 24 12:26:44 2016 PM   tracedemo  :  Paper Status EXITING  SP       Response -> DOCABSENT
Mon Oct 24 12:26:45 2016 PM   tracedemo  :  Paper Status ENTERING  SP       Response -> SUCCESS
Monday 24 October 2016 12:26:45 PM IST  tracedemo  :  Paper Status  ENTERING  C++       Response -> SUCCESS
Monday 24 October 2016 12:26:45 PM IST  tracedemo  :  Paper Status EXECUTED  C++   Response -> "DOCABSENT"  Status -> "0"
Mon Oct 24 12:26:45 2016 PM   tracedemo  :  Paper Status EXITING  SP       Response -> DOCABSENT
Mon Oct 24 12:26:46 2016 PM   tracedemo  :  Paper Status ENTERING  SP       Response -> SUCCESS
Monday 24 October 2016 12:26:46 PM IST  tracedemo  :  Paper Status  ENTERING  C++       Response -> SUCCESS
Monday 24 October 2016 12:26:46 PM IST  tracedemo  :  Paper Status EXECUTED  C++   Response -> "DOCABSENT"  Status -> "0"
Mon Oct 24 12:26:46 2016 PM   tracedemo  :  Paper Status EXITING  SP       Response -> DOCABSENT
Mon Oct 24 12:26:47 2016 PM   tracedemo  :  Paper Status ENTERING  SP       Response -> SUCCESS
Monday 24 October 2016 12:26:47 PM IST  tracedemo  :  Paper Status  ENTERING  C++       Response -> SUCCESS
Monday 24 October 2016 12:26:47 PM IST  tracedemo  :  Paper Status EXECUTED  C++   Response -> "DOCABSENT"  Status -> "0"
Mon Oct 24 12:26:47 2016 PM   tracedemo  :  Paper Status EXITING  SP       Response -> DOCABSENT
Mon Oct 24 12:26:48 2016 PM   tracedemo  :  Paper Status ENTERING  SP       Response -> SUCCESS
Monday 24 October 2016 12:26:48 PM IST  tracedemo  :  Paper Status  ENTERING  C++       Response -> SUCCESS
Monday 24 October 2016 12:26:48 PM IST  tracedemo  :  Paper Status EXECUTED  C++   Response -> "DOCABSENT"  Status -> "0"
Mon Oct 24 12:26:48 2016 PM   tracedemo  :  Paper Status EXITING  SP       Response -> DOCABSENT
Mon Oct 24 12:26:49 2016 PM   tracedemo  :  Paper Status ENTERING  SP       Response -> SUCCESS
Monday 24 October 2016 12:26:49 PM IST  tracedemo  :  Paper Status  ENTERING  C++       Response -> SUCCESS
Monday 24 October 2016 12:26:50 PM IST  tracedemo  :  Paper Status EXECUTED  C++   Response -> "DOCPRESENT"  Status -> "2"
Mon Oct 24 12:26:50 2016 PM   tracedemo  :  Paper Status EXITING  SP       Response -> DOCPRESENT
Mon Oct 24 12:26:50 2016 PM   tracedemo  :  Scanning ENTERING  SP       Response -> SUCCESS
Monday 24 October 2016 12:26:50 PM IST  tracedemo  :  Scanning  ENTERING  C++       Response -> SUCCESS
Monday 24 October 2016 12:26:50 PM IST  tracedemo  :  Scanning Properties  C++       BitsPerPixel -> "8"  ScanMode ->"SCAN_FRONT_REAR" 
Monday 24 October 2016 12:26:54 PM IST  tracedemo  :  Scanning EXECUTED  C++       Response -> ONLINE
Mon Oct 24 12:26:55 2016 PM   tracedemo  :   Barcode Range specified Min->9  Max->16SP       
Mon Oct 24 12:26:55 2016 PM   tracedemo  :   Length of barcode retrieved ->15  SP       
Mon Oct 24 12:26:55 2016 PM   tracedemo  :  Barcode scanning successfully executed  SP       Response -> SUCCESSFULL	Barcode Data ->	00072021004312
Mon Oct 24 12:26:55 2016 PM   tracedemo  :  SCanning   SP   LOWER REGION specified for scanning
Mon Oct 24 12:26:55 2016 PM tracedemo  :  Scanning EXITING  SP       Response -> SUCCESS     Barcode Data -> 00072021004312
Mon Oct 24 12:27:16 2016 PM   tracedemo  :  Print ENTERING  SP       Response -> SUCCESS
Monday 24 October 2016 12:27:16 PM IST  tracedemo  :  Printing  ENTERING  C++       Response -> SUCCESS
Monday 24 October 2016 12:27:16 PM IST  tracedemo  :  Printing path  C++       Path ->  "/root/forbes/microbanker/bin/Print_Files/PrintFile.txt"
Monday 24 October 2016 12:27:24 PM IST  tracedemo  :  Printing EXECUTED  C++       Response -> ONLINE
Mon Oct 24 12:27:24 2016 PM   tracedemo  :  Print EXITING  SP       Response -> SUCCESS
Mon Oct 24 12:27:24 2016 PM   tracedemo  :  Print ENTERING  SP       Response -> SUCCESS
Monday 24 October 2016 12:27:24 PM IST  tracedemo  :  Printing  ENTERING  C++       Response -> SUCCESS
Monday 24 October 2016 12:27:24 PM IST  tracedemo  :  Printing path  C++       Path ->  "/root/forbes/microbanker/bin/Print_Files/PrintFile.txt"
Monday 24 October 2016 12:27:24 PM IST  tracedemo  :  Printing EXECUTED  C++       Response -> ONLINE
Mon Oct 24 12:27:24 2016 PM   tracedemo  :  Print EXITING  SP       Response -> SUCCESS
Mon Oct 24 12:27:24 2016 PM   tracedemo  :  Eject ENTERING  SP       Response -> SUCCESS
Monday 24 October 2016 12:27:25 PM IST  tracedemo  :  Eject  ENTERING  C++       Response -> SUCCESS
Monday 24 October 2016 12:27:25 PM IST  tracedemo  :  Eject EXECUTED  C++       Response -> ONLINE  Error_Code -> "0"
Mon Oct 24 12:27:25 2016 PM   tracedemo  :  Eject Executed  SP       Response -> SUCCESS
Mon Oct 24 12:28:20 2016 PM   tracedemo  :  Configuration ENTERING  SP       Response -> SUCCESS
Monday 24 October 2016 12:28:20 PM IST  tracedemo  :  Configuration ENTERING  C++       Response -> SUCCESS
Monday 24 October 2016 12:28:20 PM IST  tracedemo  :  Configuration CPI & LPI  C++       CPI ->"10"  LPI ->"40"   Response -> SUCCESS
Monday 24 October 2016 12:28:26 PM IST  tracedemo  :   Device Successfully Initialized  C++       Response -> SUCCESS
Mon Oct 24 12:28:35 2016 PM   tracedemo  :  Configuration ENTERING  SP       Response -> SUCCESS
Monday 24 October 2016 12:28:35 PM IST  tracedemo  :  Configuration ENTERING  C++       Response -> SUCCESS
Monday 24 October 2016 12:28:35 PM IST  tracedemo  :  Configuration CPI & LPI  C++       CPI ->"10"  LPI ->"40"   Response -> SUCCESS
Monday 24 October 2016 12:28:36 PM IST  tracedemo  :   Device Successfully Initialized  C++       Response -> SUCCESS
Mon Oct 24 12:28:37 2016 PM   tracedemo  :  Paper Status ENTERING  SP       Response -> SUCCESS
Monday 24 October 2016 12:28:37 PM IST  tracedemo  :  Paper Status  ENTERING  C++       Response -> SUCCESS
Monday 24 October 2016 12:28:37 PM IST  tracedemo  :  Paper Status EXECUTED  C++   Response -> "DOCPRESENT"  Status -> "2"
Mon Oct 24 12:28:37 2016 PM   tracedemo  :  Paper Status EXITING  SP       Response -> DOCPRESENT
Mon Oct 24 12:28:37 2016 PM   tracedemo  :  Scanning ENTERING  SP       Response -> SUCCESS
Monday 24 October 2016 12:28:37 PM IST  tracedemo  :  Scanning  ENTERING  C++       Response -> SUCCESS
Monday 24 October 2016 12:28:37 PM IST  tracedemo  :  Scanning Properties  C++       BitsPerPixel -> "8"  ScanMode ->"SCAN_FRONT_REAR" 
Monday 24 October 2016 12:28:41 PM IST  tracedemo  :  Scanning EXECUTED  C++       Response -> ONLINE
Mon Oct 24 12:28:42 2016 PM   tracedemo  :   Barcode Range specified Min->9  Max->16SP       
Mon Oct 24 12:28:42 2016 PM   tracedemo  :   Length of barcode retrieved ->15  SP       
Mon Oct 24 12:28:42 2016 PM   tracedemo  :  Barcode scanning successfully executed  SP       Response -> SUCCESSFULL	Barcode Data ->	00072021004312
Mon Oct 24 12:28:42 2016 PM   tracedemo  :  SCanning   SP   LOWER REGION specified for scanning
Mon Oct 24 12:28:42 2016 PM tracedemo  :  Scanning EXITING  SP       Response -> SUCCESS     Barcode Data -> 00072021004312
Mon Oct 24 05:48:24 2016 PM   tracedemo  :  Configuration ENTERING  SP       Response -> SUCCESS
Monday 24 October 2016 05:48:24 PM IST  tracedemo  :  Configuration ENTERING  C++       Response -> SUCCESS
Monday 24 October 2016 05:48:24 PM IST  tracedemo  :  Configuration CPI & LPI  C++       CPI ->"10"  LPI ->"40"   Response -> SUCCESS
Monday 24 October 2016 05:48:33 PM IST  tracedemo  :   Device Successfully Initialized  C++       Response -> SUCCESS
Mon Oct 24 05:50:10 2016 PM   tracedemo  :  Configuration ENTERING  SP       Response -> SUCCESS
Monday 24 October 2016 05:50:10 PM IST  tracedemo  :  Configuration ENTERING  C++       Response -> SUCCESS
Monday 24 October 2016 05:50:10 PM IST  tracedemo  :  Configuration CPI & LPI  C++       CPI ->"10"  LPI ->"40"   Response -> SUCCESS
Monday 24 October 2016 05:50:16 PM IST  tracedemo  :   Device Successfully Initialized  C++       Response -> SUCCESS
Mon Oct 24 05:50:25 2016 PM   tracedemo  :  Configuration ENTERING  SP       Response -> SUCCESS
Monday 24 October 2016 05:50:25 PM IST  tracedemo  :  Configuration ENTERING  C++       Response -> SUCCESS
Monday 24 October 2016 05:50:25 PM IST  tracedemo  :  Configuration CPI & LPI  C++       CPI ->"10"  LPI ->"40"   Response -> SUCCESS
Monday 24 October 2016 05:50:25 PM IST  tracedemo  :   Device Successfully Initialized  C++       Response -> SUCCESS
Mon Oct 24 05:50:26 2016 PM   tracedemo  :  Paper Status ENTERING  SP       Response -> SUCCESS
Monday 24 October 2016 05:50:26 PM IST  tracedemo  :  Paper Status  ENTERING  C++       Response -> SUCCESS
Monday 24 October 2016 05:50:26 PM IST  tracedemo  :  Paper Status EXECUTED  C++   Response -> "DOCPRESENT"  Status -> "2"
Mon Oct 24 05:50:26 2016 PM   tracedemo  :  Paper Status EXITING  SP       Response -> DOCPRESENT
Mon Oct 24 05:50:26 2016 PM   tracedemo  :  Scanning ENTERING  SP       Response -> SUCCESS
Monday 24 October 2016 05:50:26 PM IST  tracedemo  :  Scanning  ENTERING  C++       Response -> SUCCESS
Monday 24 October 2016 05:50:26 PM IST  tracedemo  :  Scanning Properties  C++       BitsPerPixel -> "8"  ScanMode ->"SCAN_FRONT_REAR" 
Monday 24 October 2016 05:50:30 PM IST  tracedemo  :  Scanning EXECUTED  C++       Response -> ONLINE
Mon Oct 24 05:50:31 2016 PM   tracedemo  :   Barcode Range specified Min->9  Max->16SP       
Mon Oct 24 05:50:31 2016 PM   tracedemo  :   Length of barcode retrieved ->15  SP       
Mon Oct 24 05:50:31 2016 PM   tracedemo  :  Barcode scanning successfully executed  SP       Response -> SUCCESSFULL	Barcode Data ->	00072021004312
Mon Oct 24 05:50:31 2016 PM   tracedemo  :  SCanning   SP   LOWER REGION specified for scanning
Mon Oct 24 05:50:31 2016 PM tracedemo  :  Scanning EXITING  SP       Response -> SUCCESS     Barcode Data -> 00072021004312
Mon Oct 24 05:50:37 2016 PM   tracedemo  :  Print ENTERING  SP       Response -> SUCCESS
Monday 24 October 2016 05:50:37 PM IST  tracedemo  :  Printing  ENTERING  C++       Response -> SUCCESS
Monday 24 October 2016 05:50:37 PM IST  tracedemo  :  Printing path  C++       Path ->  "/root/forbes/microbanker/bin/Print_Files/PrintFile.txt"
Monday 24 October 2016 05:50:39 PM IST  tracedemo  :  Printing EXECUTED  C++       Response -> ONLINE
Mon Oct 24 05:50:39 2016 PM   tracedemo  :  Print EXITING  SP       Response -> SUCCESS
Mon Oct 24 05:50:39 2016 PM   tracedemo  :  Print ENTERING  SP       Response -> SUCCESS
Monday 24 October 2016 05:50:39 PM IST  tracedemo  :  Printing  ENTERING  C++       Response -> SUCCESS
Monday 24 October 2016 05:50:39 PM IST  tracedemo  :  Printing path  C++       Path ->  "/root/forbes/microbanker/bin/Print_Files/PrintFile.txt"
Monday 24 October 2016 05:50:39 PM IST  tracedemo  :  Printing EXECUTED  C++       Response -> ONLINE
Mon Oct 24 05:50:39 2016 PM   tracedemo  :  Print EXITING  SP       Response -> SUCCESS
Mon Oct 24 05:50:40 2016 PM   tracedemo  :  Eject ENTERING  SP       Response -> SUCCESS
Monday 24 October 2016 05:50:41 PM IST  tracedemo  :  Eject  ENTERING  C++       Response -> SUCCESS
Monday 24 October 2016 05:50:41 PM IST  tracedemo  :  Eject EXECUTED  C++       Response -> ONLINE  Error_Code -> "0"
Mon Oct 24 05:50:41 2016 PM   tracedemo  :  Eject Executed  SP       Response -> SUCCESS
