Mon May 02 06:43:46 2016 PM   tracedemo  :  Configuration ENTERING  SP       Response -> SUCCESS
Monday 02 May 2016 06:43:46 PM IST  tracedemo  :  Configuration ENTERING  C++       Response -> SUCCESS
Monday 02 May 2016 06:43:46 PM IST  tracedemo  :  Configuration CPI & LPI  C++       CPI ->"17"  LPI ->"40"   Response -> SUCCESS
Monday 02 May 2016 06:43:52 PM IST  tracedemo  :   Device Successfully Initialized  C++       Response -> SUCCESS
Mon May 02 06:45:16 2016 PM   tracedemo  :  Configuration ENTERING  SP       Response -> SUCCESS
Monday 02 May 2016 06:45:16 PM IST  tracedemo  :  Configuration ENTERING  C++       Response -> SUCCESS
Monday 02 May 2016 06:45:16 PM IST  tracedemo  :  Configuration CPI & LPI  C++       CPI ->"17"  LPI ->"40"   Response -> SUCCESS
Monday 02 May 2016 06:45:16 PM IST  tracedemo  :   Device Successfully Initialized  C++       Response -> SUCCESS
Mon May 02 06:45:17 2016 PM   tracedemo  :  Paper Status ENTERING  SP       Response -> SUCCESS
Monday 02 May 2016 06:45:17 PM IST  tracedemo  :  Paper Status  ENTERING  C++       Response -> SUCCESS
Monday 02 May 2016 06:45:17 PM IST  tracedemo  :  Paper Status EXECUTED  C++   Response -> "DOCPRESENT"  Status -> "2"
Mon May 02 06:45:17 2016 PM   tracedemo  :  Paper Status EXITING  SP       Response -> DOCPRESENT
Mon May 02 06:45:17 2016 PM   tracedemo  :  Scanning ENTERING  SP       Response -> SUCCESS
Monday 02 May 2016 06:45:17 PM IST  tracedemo  :  Scanning  ENTERING  C++       Response -> SUCCESS
Monday 02 May 2016 06:45:17 PM IST  tracedemo  :  Scanning Properties  C++       BitsPerPixel -> "8"  ScanMode ->"SCAN_FRONT_REAR" 
Monday 02 May 2016 06:45:22 PM IST  tracedemo  :  Scanning EXECUTED  C++       Response -> ONLINE
Mon May 02 06:45:23 2016 PM   tracedemo  :   Barcode Range specified Min->9  Max->16SP       
Mon May 02 06:45:23 2016 PM   tracedemo  :   Length of barcode retrieved ->16  SP       
Mon May 02 06:45:23 2016 PM   tracedemo  :  Barcode scanning successfully executed  SP       Response -> SUCCESSFULL	Barcode Data ->	0241301000023516
Mon May 02 06:45:23 2016 PM   tracedemo  :  SCanning   SP   LOWER REGION specified for scanning
Mon May 02 06:45:23 2016 PM tracedemo  :  Scanning EXITING  SP       Response -> SUCCESS     Barcode Data -> 0241301000023516
Mon May 02 06:45:38 2016 PM   tracedemo  :  Eject ENTERING  SP       Response -> SUCCESS
Monday 02 May 2016 06:45:40 PM IST  tracedemo  :  Eject  ENTERING  C++       Response -> SUCCESS
Monday 02 May 2016 06:45:40 PM IST  tracedemo  :  Eject EXECUTED  C++       Response -> ONLINE  Error_Code -> "0"
Mon May 02 06:45:40 2016 PM   tracedemo  :  Eject Executed  SP       Response -> SUCCESS
Mon May 02 06:50:47 2016 PM   tracedemo  :  Configuration ENTERING  SP       Response -> SUCCESS
Monday 02 May 2016 06:50:47 PM IST  tracedemo  :  Configuration ENTERING  C++       Response -> SUCCESS
Monday 02 May 2016 06:50:47 PM IST  tracedemo  :  Configuration CPI & LPI  C++       CPI ->"17"  LPI ->"40"   Response -> SUCCESS
Monday 02 May 2016 06:50:53 PM IST  tracedemo  :   Device Successfully Initialized  C++       Response -> SUCCESS
Mon May 02 06:51:09 2016 PM   tracedemo  :  Configuration ENTERING  SP       Response -> SUCCESS
Monday 02 May 2016 06:51:09 PM IST  tracedemo  :  Configuration ENTERING  C++       Response -> SUCCESS
Monday 02 May 2016 06:51:09 PM IST  tracedemo  :  Configuration CPI & LPI  C++       CPI ->"17"  LPI ->"40"   Response -> SUCCESS
Monday 02 May 2016 06:51:09 PM IST  tracedemo  :   Device Successfully Initialized  C++       Response -> SUCCESS
Mon May 02 06:51:10 2016 PM   tracedemo  :  Paper Status ENTERING  SP       Response -> SUCCESS
Monday 02 May 2016 06:51:10 PM IST  tracedemo  :  Paper Status  ENTERING  C++       Response -> SUCCESS
Monday 02 May 2016 06:51:10 PM IST  tracedemo  :  Paper Status EXECUTED  C++   Response -> "DOCPRESENT"  Status -> "2"
Mon May 02 06:51:10 2016 PM   tracedemo  :  Paper Status EXITING  SP       Response -> DOCPRESENT
Mon May 02 06:51:10 2016 PM   tracedemo  :  Scanning ENTERING  SP       Response -> SUCCESS
Monday 02 May 2016 06:51:10 PM IST  tracedemo  :  Scanning  ENTERING  C++       Response -> SUCCESS
Monday 02 May 2016 06:51:10 PM IST  tracedemo  :  Scanning Properties  C++       BitsPerPixel -> "8"  ScanMode ->"SCAN_FRONT_REAR" 
Monday 02 May 2016 06:51:15 PM IST  tracedemo  :  Scanning EXECUTED  C++       Response -> ONLINE
Mon May 02 06:51:16 2016 PM   tracedemo  :   Barcode Range specified Min->9  Max->16SP       
Mon May 02 06:51:16 2016 PM   tracedemo  :   Length of barcode retrieved ->15  SP       
Mon May 02 06:51:16 2016 PM   tracedemo  :  Barcode scanning successfully executed  SP       Response -> SUCCESSFULL	Barcode Data ->	914010006330144
Mon May 02 06:51:16 2016 PM   tracedemo  :  SCanning   SP   LOWER REGION specified for scanning
Mon May 02 06:51:16 2016 PM tracedemo  :  Scanning EXITING  SP       Response -> SUCCESS     Barcode Data -> 914010006330144
Mon May 02 06:51:16 2016 PM   tracedemo  :  Eject ENTERING  SP       Response -> SUCCESS
Monday 02 May 2016 06:51:17 PM IST  tracedemo  :  Eject  ENTERING  C++       Response -> SUCCESS
Monday 02 May 2016 06:51:17 PM IST  tracedemo  :  Eject EXECUTED  C++       Response -> ONLINE  Error_Code -> "0"
Mon May 02 06:51:17 2016 PM   tracedemo  :  Eject Executed  SP       Response -> SUCCESS
Mon May 02 06:52:15 2016 PM   tracedemo  :  Configuration ENTERING  SP       Response -> SUCCESS
Monday 02 May 2016 06:52:15 PM IST  tracedemo  :  Configuration ENTERING  C++       Response -> SUCCESS
Monday 02 May 2016 06:52:15 PM IST  tracedemo  :  Configuration CPI & LPI  C++       CPI ->"17"  LPI ->"40"   Response -> SUCCESS
Monday 02 May 2016 06:52:15 PM IST  tracedemo  :   Device Successfully Initialized  C++       Response -> SUCCESS
Mon May 02 06:52:16 2016 PM   tracedemo  :  Paper Status ENTERING  SP       Response -> SUCCESS
Monday 02 May 2016 06:52:16 PM IST  tracedemo  :  Paper Status  ENTERING  C++       Response -> SUCCESS
Monday 02 May 2016 06:52:16 PM IST  tracedemo  :  Paper Status EXECUTED  C++   Response -> "DOCPRESENT"  Status -> "2"
Mon May 02 06:52:16 2016 PM   tracedemo  :  Paper Status EXITING  SP       Response -> DOCPRESENT
Mon May 02 06:52:16 2016 PM   tracedemo  :  Scanning ENTERING  SP       Response -> SUCCESS
Monday 02 May 2016 06:52:16 PM IST  tracedemo  :  Scanning  ENTERING  C++       Response -> SUCCESS
Monday 02 May 2016 06:52:16 PM IST  tracedemo  :  Scanning Properties  C++       BitsPerPixel -> "8"  ScanMode ->"SCAN_FRONT_REAR" 
Monday 02 May 2016 06:52:21 PM IST  tracedemo  :  Scanning EXECUTED  C++       Response -> ONLINE
Mon May 02 06:52:22 2016 PM   tracedemo  :   Barcode Range specified Min->9  Max->16SP       
Mon May 02 06:52:22 2016 PM   tracedemo  :   Length of barcode retrieved ->15  SP       
Mon May 02 06:52:22 2016 PM   tracedemo  :  Barcode scanning successfully executed  SP       Response -> SUCCESSFULL	Barcode Data ->	914010006330144
Mon May 02 06:52:22 2016 PM   tracedemo  :  SCanning   SP   LOWER REGION specified for scanning
Mon May 02 06:52:22 2016 PM tracedemo  :  Scanning EXITING  SP       Response -> SUCCESS     Barcode Data -> 914010006330144
Mon May 02 06:52:22 2016 PM   tracedemo  :  Eject ENTERING  SP       Response -> SUCCESS
Monday 02 May 2016 06:52:23 PM IST  tracedemo  :  Eject  ENTERING  C++       Response -> SUCCESS
Monday 02 May 2016 06:52:23 PM IST  tracedemo  :  Eject EXECUTED  C++       Response -> ONLINE  Error_Code -> "0"
Mon May 02 06:52:23 2016 PM   tracedemo  :  Eject Executed  SP       Response -> SUCCESS
Mon May 02 06:53:15 2016 PM   tracedemo  :  Configuration ENTERING  SP       Response -> SUCCESS
Monday 02 May 2016 06:53:15 PM IST  tracedemo  :  Configuration ENTERING  C++       Response -> SUCCESS
Monday 02 May 2016 06:53:15 PM IST  tracedemo  :  Configuration CPI & LPI  C++       CPI ->"17"  LPI ->"40"   Response -> SUCCESS
Monday 02 May 2016 06:53:21 PM IST  tracedemo  :   Device Successfully Initialized  C++       Response -> SUCCESS
Mon May 02 06:53:27 2016 PM   tracedemo  :  Configuration ENTERING  SP       Response -> SUCCESS
Monday 02 May 2016 06:53:27 PM IST  tracedemo  :  Configuration ENTERING  C++       Response -> SUCCESS
Monday 02 May 2016 06:53:27 PM IST  tracedemo  :  Configuration CPI & LPI  C++       CPI ->"17"  LPI ->"40"   Response -> SUCCESS
Monday 02 May 2016 06:53:32 PM IST  tracedemo  :   Device Successfully Initialized  C++       Response -> SUCCESS
Mon May 02 06:53:34 2016 PM   tracedemo  :  Configuration ENTERING  SP       Response -> SUCCESS
Monday 02 May 2016 06:53:34 PM IST  tracedemo  :  Configuration ENTERING  C++       Response -> SUCCESS
Monday 02 May 2016 06:53:34 PM IST  tracedemo  :  Configuration CPI & LPI  C++       CPI ->"17"  LPI ->"40"   Response -> SUCCESS
Monday 02 May 2016 06:53:34 PM IST  tracedemo  :   Device Successfully Initialized  C++       Response -> SUCCESS
Mon May 02 06:53:35 2016 PM   tracedemo  :  Paper Status ENTERING  SP       Response -> SUCCESS
Monday 02 May 2016 06:53:35 PM IST  tracedemo  :  Paper Status  ENTERING  C++       Response -> SUCCESS
Monday 02 May 2016 06:53:35 PM IST  tracedemo  :  Paper Status EXECUTED  C++   Response -> "DOCPRESENT"  Status -> "2"
Mon May 02 06:53:35 2016 PM   tracedemo  :  Paper Status EXITING  SP       Response -> DOCPRESENT
Mon May 02 06:53:35 2016 PM   tracedemo  :  Scanning ENTERING  SP       Response -> SUCCESS
Monday 02 May 2016 06:53:35 PM IST  tracedemo  :  Scanning  ENTERING  C++       Response -> SUCCESS
Monday 02 May 2016 06:53:35 PM IST  tracedemo  :  Scanning Properties  C++       BitsPerPixel -> "8"  ScanMode ->"SCAN_FRONT_REAR" 
Monday 02 May 2016 06:53:40 PM IST  tracedemo  :  Scanning EXECUTED  C++       Response -> ONLINE
Mon May 02 06:53:41 2016 PM   tracedemo  :   Barcode Range specified Min->9  Max->16SP       
Mon May 02 06:53:41 2016 PM   tracedemo  :   Length of barcode retrieved ->15  SP       
Mon May 02 06:53:41 2016 PM   tracedemo  :  Barcode scanning successfully executed  SP       Response -> SUCCESSFULL	Barcode Data ->	914010006330144
Mon May 02 06:53:41 2016 PM   tracedemo  :  SCanning   SP   LOWER REGION specified for scanning
Mon May 02 06:53:41 2016 PM tracedemo  :  Scanning EXITING  SP       Response -> SUCCESS     Barcode Data -> 914010006330144
Mon May 02 06:53:57 2016 PM   tracedemo  :  Eject ENTERING  SP       Response -> SUCCESS
Monday 02 May 2016 06:53:59 PM IST  tracedemo  :  Eject  ENTERING  C++       Response -> SUCCESS
Monday 02 May 2016 06:53:59 PM IST  tracedemo  :  Eject EXECUTED  C++       Response -> ONLINE  Error_Code -> "0"
Mon May 02 06:53:59 2016 PM   tracedemo  :  Eject Executed  SP       Response -> SUCCESS
Mon May 02 06:58:15 2016 PM   tracedemo  :  Configuration ENTERING  SP       Response -> SUCCESS
Monday 02 May 2016 06:58:15 PM IST  tracedemo  :  Configuration ENTERING  C++       Response -> SUCCESS
Monday 02 May 2016 06:58:15 PM IST  tracedemo  :  Configuration CPI & LPI  C++       CPI ->"17"  LPI ->"40"   Response -> SUCCESS
Monday 02 May 2016 06:58:15 PM IST  tracedemo  :   Device Successfully Initialized  C++       Response -> SUCCESS
Mon May 02 06:58:16 2016 PM   tracedemo  :  Paper Status ENTERING  SP       Response -> SUCCESS
Monday 02 May 2016 06:58:16 PM IST  tracedemo  :  Paper Status  ENTERING  C++       Response -> SUCCESS
Monday 02 May 2016 06:58:16 PM IST  tracedemo  :  Paper Status EXECUTED  C++   Response -> "DOCABSENT"  Status -> "0"
Mon May 02 06:58:16 2016 PM   tracedemo  :  Paper Status EXITING  SP       Response -> DOCABSENT
Mon May 02 06:58:17 2016 PM   tracedemo  :  Paper Status ENTERING  SP       Response -> SUCCESS
Monday 02 May 2016 06:58:17 PM IST  tracedemo  :  Paper Status  ENTERING  C++       Response -> SUCCESS
Monday 02 May 2016 06:58:17 PM IST  tracedemo  :  Paper Status EXECUTED  C++   Response -> "DOCPRESENT"  Status -> "2"
Mon May 02 06:58:17 2016 PM   tracedemo  :  Paper Status EXITING  SP       Response -> DOCPRESENT
Mon May 02 06:58:17 2016 PM   tracedemo  :  Scanning ENTERING  SP       Response -> SUCCESS
Monday 02 May 2016 06:58:17 PM IST  tracedemo  :  Scanning  ENTERING  C++       Response -> SUCCESS
Monday 02 May 2016 06:58:17 PM IST  tracedemo  :  Scanning Properties  C++       BitsPerPixel -> "8"  ScanMode ->"SCAN_FRONT_REAR" 
Monday 02 May 2016 06:58:22 PM IST  tracedemo  :  Scanning EXECUTED  C++       Response -> ONLINE
Mon May 02 06:58:23 2016 PM   tracedemo  :   Barcode Range specified Min->9  Max->16SP       
Mon May 02 06:58:23 2016 PM   tracedemo  :   Length of barcode retrieved ->15  SP       
Mon May 02 06:58:23 2016 PM   tracedemo  :  Barcode scanning successfully executed  SP       Response -> SUCCESSFULL	Barcode Data ->	914010006330144
Mon May 02 06:58:23 2016 PM   tracedemo  :  SCanning   SP   LOWER REGION specified for scanning
Mon May 02 06:58:23 2016 PM tracedemo  :  Scanning EXITING  SP       Response -> SUCCESS     Barcode Data -> 914010006330144
Mon May 02 06:58:34 2016 PM   tracedemo  :  Eject ENTERING  SP       Response -> SUCCESS
Monday 02 May 2016 06:58:35 PM IST  tracedemo  :  Eject  ENTERING  C++       Response -> SUCCESS
Monday 02 May 2016 06:58:35 PM IST  tracedemo  :  Eject EXECUTED  C++       Response -> ONLINE  Error_Code -> "0"
Mon May 02 06:58:35 2016 PM   tracedemo  :  Eject Executed  SP       Response -> SUCCESS
Mon May 02 06:59:28 2016 PM   tracedemo  :  Configuration ENTERING  SP       Response -> SUCCESS
Monday 02 May 2016 06:59:28 PM IST  tracedemo  :  Configuration ENTERING  C++       Response -> SUCCESS
Monday 02 May 2016 06:59:28 PM IST  tracedemo  :  Configuration CPI & LPI  C++       CPI ->"17"  LPI ->"40"   Response -> SUCCESS
Monday 02 May 2016 06:59:28 PM IST  tracedemo  :   Device Successfully Initialized  C++       Response -> SUCCESS
Mon May 02 06:59:29 2016 PM   tracedemo  :  Paper Status ENTERING  SP       Response -> SUCCESS
Monday 02 May 2016 06:59:29 PM IST  tracedemo  :  Paper Status  ENTERING  C++       Response -> SUCCESS
Monday 02 May 2016 06:59:29 PM IST  tracedemo  :  Paper Status EXECUTED  C++   Response -> "DOCABSENT"  Status -> "0"
Mon May 02 06:59:29 2016 PM   tracedemo  :  Paper Status EXITING  SP       Response -> DOCABSENT
Mon May 02 06:59:30 2016 PM   tracedemo  :  Paper Status ENTERING  SP       Response -> SUCCESS
Monday 02 May 2016 06:59:30 PM IST  tracedemo  :  Paper Status  ENTERING  C++       Response -> SUCCESS
Monday 02 May 2016 06:59:30 PM IST  tracedemo  :  Paper Status EXECUTED  C++   Response -> "DOCPRESENT"  Status -> "2"
Mon May 02 06:59:30 2016 PM   tracedemo  :  Paper Status EXITING  SP       Response -> DOCPRESENT
Mon May 02 06:59:30 2016 PM   tracedemo  :  Scanning ENTERING  SP       Response -> SUCCESS
Monday 02 May 2016 06:59:30 PM IST  tracedemo  :  Scanning  ENTERING  C++       Response -> SUCCESS
Monday 02 May 2016 06:59:30 PM IST  tracedemo  :  Scanning Properties  C++       BitsPerPixel -> "8"  ScanMode ->"SCAN_FRONT_REAR" 
Monday 02 May 2016 06:59:35 PM IST  tracedemo  :  Scanning EXECUTED  C++       Response -> ONLINE
Mon May 02 06:59:36 2016 PM   tracedemo  :   Barcode Range specified Min->9  Max->16SP       
Mon May 02 06:59:36 2016 PM   tracedemo  :   Length of barcode retrieved ->15  SP       
Mon May 02 06:59:36 2016 PM   tracedemo  :  Barcode scanning successfully executed  SP       Response -> SUCCESSFULL	Barcode Data ->	914010006330144
Mon May 02 06:59:36 2016 PM   tracedemo  :  SCanning   SP   LOWER REGION specified for scanning
Mon May 02 06:59:36 2016 PM tracedemo  :  Scanning EXITING  SP       Response -> SUCCESS     Barcode Data -> 914010006330144
Mon May 02 06:59:46 2016 PM   tracedemo  :  Eject ENTERING  SP       Response -> SUCCESS
Monday 02 May 2016 06:59:47 PM IST  tracedemo  :  Eject  ENTERING  C++       Response -> SUCCESS
Monday 02 May 2016 06:59:47 PM IST  tracedemo  :  Eject EXECUTED  C++       Response -> ONLINE  Error_Code -> "0"
Mon May 02 06:59:47 2016 PM   tracedemo  :  Eject Executed  SP       Response -> SUCCESS
Mon May 02 07:05:57 2016 PM   tracedemo  :  Configuration ENTERING  SP       Response -> SUCCESS
Monday 02 May 2016 07:05:57 PM IST  tracedemo  :  Configuration ENTERING  C++       Response -> SUCCESS
Monday 02 May 2016 07:05:57 PM IST  tracedemo  :  Configuration CPI & LPI  C++       CPI ->"17"  LPI ->"40"   Response -> SUCCESS
Monday 02 May 2016 07:06:02 PM IST  tracedemo  :   Device Successfully Initialized  C++       Response -> SUCCESS
Mon May 02 07:06:05 2016 PM   tracedemo  :  Configuration ENTERING  SP       Response -> SUCCESS
Monday 02 May 2016 07:06:05 PM IST  tracedemo  :  Configuration ENTERING  C++       Response -> SUCCESS
Monday 02 May 2016 07:06:05 PM IST  tracedemo  :  Configuration CPI & LPI  C++       CPI ->"17"  LPI ->"40"   Response -> SUCCESS
Monday 02 May 2016 07:06:05 PM IST  tracedemo  :   Device Successfully Initialized  C++       Response -> SUCCESS
Mon May 02 07:06:06 2016 PM   tracedemo  :  Paper Status ENTERING  SP       Response -> SUCCESS
Monday 02 May 2016 07:06:06 PM IST  tracedemo  :  Paper Status  ENTERING  C++       Response -> SUCCESS
Monday 02 May 2016 07:06:06 PM IST  tracedemo  :  Paper Status EXECUTED  C++   Response -> "DOCPRESENT"  Status -> "2"
Mon May 02 07:06:06 2016 PM   tracedemo  :  Paper Status EXITING  SP       Response -> DOCPRESENT
Mon May 02 07:06:06 2016 PM   tracedemo  :  Scanning ENTERING  SP       Response -> SUCCESS
Monday 02 May 2016 07:06:06 PM IST  tracedemo  :  Scanning  ENTERING  C++       Response -> SUCCESS
Monday 02 May 2016 07:06:06 PM IST  tracedemo  :  Scanning Properties  C++       BitsPerPixel -> "8"  ScanMode ->"SCAN_FRONT_REAR" 
Monday 02 May 2016 07:06:11 PM IST  tracedemo  :  Scanning EXECUTED  C++       Response -> ONLINE
Mon May 02 07:06:11 2016 PM   tracedemo  :   Barcode Range specified Min->9  Max->16SP       
Mon May 02 07:06:11 2016 PM   tracedemo  :   Length of barcode retrieved ->15  SP       
Mon May 02 07:06:11 2016 PM   tracedemo  :  Barcode scanning successfully executed  SP       Response -> SUCCESSFULL	Barcode Data ->	914010006330144
Mon May 02 07:06:11 2016 PM   tracedemo  :  SCanning   SP   LOWER REGION specified for scanning
Mon May 02 07:06:11 2016 PM tracedemo  :  Scanning EXITING  SP       Response -> SUCCESS     Barcode Data -> 914010006330144
Mon May 02 07:06:38 2016 PM   tracedemo  :  Eject ENTERING  SP       Response -> SUCCESS
Monday 02 May 2016 07:06:39 PM IST  tracedemo  :  Eject  ENTERING  C++       Response -> SUCCESS
Monday 02 May 2016 07:06:39 PM IST  tracedemo  :  Eject EXECUTED  C++       Response -> ONLINE  Error_Code -> "0"
Mon May 02 07:06:39 2016 PM   tracedemo  :  Eject Executed  SP       Response -> SUCCESS
Mon May 02 07:10:03 2016 PM   tracedemo  :  Configuration ENTERING  SP       Response -> SUCCESS
Monday 02 May 2016 07:10:03 PM IST  tracedemo  :  Configuration ENTERING  C++       Response -> SUCCESS
Monday 02 May 2016 07:10:03 PM IST  tracedemo  :  Configuration CPI & LPI  C++       CPI ->"17"  LPI ->"40"   Response -> SUCCESS
Monday 02 May 2016 07:10:09 PM IST  tracedemo  :   Device Successfully Initialized  C++       Response -> SUCCESS
Mon May 02 07:10:15 2016 PM   tracedemo  :  Configuration ENTERING  SP       Response -> SUCCESS
Monday 02 May 2016 07:10:15 PM IST  tracedemo  :  Configuration ENTERING  C++       Response -> SUCCESS
Monday 02 May 2016 07:10:15 PM IST  tracedemo  :  Configuration CPI & LPI  C++       CPI ->"17"  LPI ->"40"   Response -> SUCCESS
Monday 02 May 2016 07:10:16 PM IST  tracedemo  :   Device Successfully Initialized  C++       Response -> SUCCESS
Mon May 02 07:10:17 2016 PM   tracedemo  :  Paper Status ENTERING  SP       Response -> SUCCESS
Monday 02 May 2016 07:10:17 PM IST  tracedemo  :  Paper Status  ENTERING  C++       Response -> SUCCESS
Monday 02 May 2016 07:10:17 PM IST  tracedemo  :  Paper Status EXECUTED  C++   Response -> "DOCEJECTED"  Status -> "1"
Mon May 02 07:10:17 2016 PM   tracedemo  :  Paper Status EXITING  SP       Response -> DOCEJECTED
Mon May 02 07:10:18 2016 PM   tracedemo  :  Paper Status ENTERING  SP       Response -> SUCCESS
Monday 02 May 2016 07:10:18 PM IST  tracedemo  :  Paper Status  ENTERING  C++       Response -> SUCCESS
Monday 02 May 2016 07:10:18 PM IST  tracedemo  :  Paper Status EXECUTED  C++   Response -> "DOCEJECTED"  Status -> "1"
Mon May 02 07:10:18 2016 PM   tracedemo  :  Paper Status EXITING  SP       Response -> DOCEJECTED
Mon May 02 07:10:19 2016 PM   tracedemo  :  Paper Status ENTERING  SP       Response -> SUCCESS
Monday 02 May 2016 07:10:19 PM IST  tracedemo  :  Paper Status  ENTERING  C++       Response -> SUCCESS
Monday 02 May 2016 07:10:19 PM IST  tracedemo  :  Paper Status EXECUTED  C++   Response -> "DOCEJECTED"  Status -> "1"
Mon May 02 07:10:19 2016 PM   tracedemo  :  Paper Status EXITING  SP       Response -> DOCEJECTED
Mon May 02 07:10:20 2016 PM   tracedemo  :  Paper Status ENTERING  SP       Response -> SUCCESS
Monday 02 May 2016 07:10:20 PM IST  tracedemo  :  Paper Status  ENTERING  C++       Response -> SUCCESS
Monday 02 May 2016 07:10:20 PM IST  tracedemo  :  Paper Status EXECUTED  C++   Response -> "DOCPRESENT"  Status -> "2"
Mon May 02 07:10:20 2016 PM   tracedemo  :  Paper Status EXITING  SP       Response -> DOCPRESENT
Mon May 02 07:10:20 2016 PM   tracedemo  :  Scanning ENTERING  SP       Response -> SUCCESS
Monday 02 May 2016 07:10:20 PM IST  tracedemo  :  Scanning  ENTERING  C++       Response -> SUCCESS
Monday 02 May 2016 07:10:20 PM IST  tracedemo  :  Scanning Properties  C++       BitsPerPixel -> "8"  ScanMode ->"SCAN_FRONT_REAR" 
Monday 02 May 2016 07:10:25 PM IST  tracedemo  :  Scanning EXECUTED  C++       Response -> ONLINE
Mon May 02 07:10:26 2016 PM   tracedemo  :   Barcode Range specified Min->9  Max->16SP       
Mon May 02 07:10:26 2016 PM   tracedemo  :   Length of barcode retrieved ->15  SP       
Mon May 02 07:10:26 2016 PM   tracedemo  :  Barcode scanning successfully executed  SP       Response -> SUCCESSFULL	Barcode Data ->	914010006330144
Mon May 02 07:10:26 2016 PM   tracedemo  :  SCanning   SP   LOWER REGION specified for scanning
Mon May 02 07:10:26 2016 PM tracedemo  :  Scanning EXITING  SP       Response -> SUCCESS     Barcode Data -> 914010006330144
Mon May 02 07:10:36 2016 PM   tracedemo  :  Eject ENTERING  SP       Response -> SUCCESS
Monday 02 May 2016 07:10:37 PM IST  tracedemo  :  Eject  ENTERING  C++       Response -> SUCCESS
Monday 02 May 2016 07:10:37 PM IST  tracedemo  :  Eject EXECUTED  C++       Response -> ONLINE  Error_Code -> "0"
Mon May 02 07:10:37 2016 PM   tracedemo  :  Eject Executed  SP       Response -> SUCCESS
Mon May 02 07:14:07 2016 PM   tracedemo  :  Configuration ENTERING  SP       Response -> SUCCESS
Monday 02 May 2016 07:14:07 PM IST  tracedemo  :  Configuration ENTERING  C++       Response -> SUCCESS
Monday 02 May 2016 07:14:07 PM IST  tracedemo  :  Configuration CPI & LPI  C++       CPI ->"17"  LPI ->"40"   Response -> SUCCESS
Monday 02 May 2016 07:14:12 PM IST  tracedemo  :   Device Successfully Initialized  C++       Response -> SUCCESS
Mon May 02 07:14:15 2016 PM   tracedemo  :  Configuration ENTERING  SP       Response -> SUCCESS
Monday 02 May 2016 07:14:15 PM IST  tracedemo  :  Configuration ENTERING  C++       Response -> SUCCESS
Monday 02 May 2016 07:14:15 PM IST  tracedemo  :  Configuration CPI & LPI  C++       CPI ->"17"  LPI ->"40"   Response -> SUCCESS
Monday 02 May 2016 07:14:15 PM IST  tracedemo  :   Device Successfully Initialized  C++       Response -> SUCCESS
Mon May 02 07:14:16 2016 PM   tracedemo  :  Paper Status ENTERING  SP       Response -> SUCCESS
Monday 02 May 2016 07:14:16 PM IST  tracedemo  :  Paper Status  ENTERING  C++       Response -> SUCCESS
Monday 02 May 2016 07:14:16 PM IST  tracedemo  :  Paper Status EXECUTED  C++   Response -> "DOCPRESENT"  Status -> "2"
Mon May 02 07:14:16 2016 PM   tracedemo  :  Paper Status EXITING  SP       Response -> DOCPRESENT
Mon May 02 07:14:16 2016 PM   tracedemo  :  Scanning ENTERING  SP       Response -> SUCCESS
Monday 02 May 2016 07:14:16 PM IST  tracedemo  :  Scanning  ENTERING  C++       Response -> SUCCESS
Monday 02 May 2016 07:14:16 PM IST  tracedemo  :  Scanning Properties  C++       BitsPerPixel -> "8"  ScanMode ->"SCAN_FRONT_REAR" 
Monday 02 May 2016 07:14:21 PM IST  tracedemo  :  Scanning EXECUTED  C++       Response -> ONLINE
Mon May 02 07:14:22 2016 PM   tracedemo  :   Barcode Range specified Min->9  Max->16SP       
Mon May 02 07:14:22 2016 PM   tracedemo  :   Length of barcode retrieved ->15  SP       
Mon May 02 07:14:22 2016 PM   tracedemo  :  Barcode scanning successfully executed  SP       Response -> SUCCESSFULL	Barcode Data ->	914010006330144
Mon May 02 07:14:22 2016 PM   tracedemo  :  SCanning   SP   LOWER REGION specified for scanning
Mon May 02 07:14:22 2016 PM tracedemo  :  Scanning EXITING  SP       Response -> SUCCESS     Barcode Data -> 914010006330144
Mon May 02 07:14:22 2016 PM   tracedemo  :  Eject ENTERING  SP       Response -> SUCCESS
Monday 02 May 2016 07:14:23 PM IST  tracedemo  :  Eject  ENTERING  C++       Response -> SUCCESS
Monday 02 May 2016 07:14:23 PM IST  tracedemo  :  Eject EXECUTED  C++       Response -> ONLINE  Error_Code -> "0"
Mon May 02 07:14:23 2016 PM   tracedemo  :  Eject Executed  SP       Response -> SUCCESS
Mon May 02 07:14:41 2016 PM   tracedemo  :  Configuration ENTERING  SP       Response -> SUCCESS
Monday 02 May 2016 07:14:41 PM IST  tracedemo  :  Configuration ENTERING  C++       Response -> SUCCESS
Monday 02 May 2016 07:14:41 PM IST  tracedemo  :  Configuration CPI & LPI  C++       CPI ->"17"  LPI ->"40"   Response -> SUCCESS
Monday 02 May 2016 07:14:41 PM IST  tracedemo  :   Device Successfully Initialized  C++       Response -> SUCCESS
Mon May 02 07:14:42 2016 PM   tracedemo  :  Paper Status ENTERING  SP       Response -> SUCCESS
Monday 02 May 2016 07:14:42 PM IST  tracedemo  :  Paper Status  ENTERING  C++       Response -> SUCCESS
Monday 02 May 2016 07:14:42 PM IST  tracedemo  :  Paper Status EXECUTED  C++   Response -> "DOCPRESENT"  Status -> "2"
Mon May 02 07:14:42 2016 PM   tracedemo  :  Paper Status EXITING  SP       Response -> DOCPRESENT
Mon May 02 07:14:42 2016 PM   tracedemo  :  Scanning ENTERING  SP       Response -> SUCCESS
Monday 02 May 2016 07:14:42 PM IST  tracedemo  :  Scanning  ENTERING  C++       Response -> SUCCESS
Monday 02 May 2016 07:14:42 PM IST  tracedemo  :  Scanning Properties  C++       BitsPerPixel -> "8"  ScanMode ->"SCAN_FRONT_REAR" 
Monday 02 May 2016 07:14:47 PM IST  tracedemo  :  Scanning EXECUTED  C++       Response -> ONLINE
Mon May 02 07:14:47 2016 PM   tracedemo  :   Barcode Range specified Min->9  Max->16SP       
Mon May 02 07:14:47 2016 PM   tracedemo  :   Length of barcode retrieved ->16  SP       
Mon May 02 07:14:47 2016 PM   tracedemo  :  Barcode scanning successfully executed  SP       Response -> SUCCESSFULL	Barcode Data ->	0241301000023516
Mon May 02 07:14:47 2016 PM   tracedemo  :  SCanning   SP   LOWER REGION specified for scanning
Mon May 02 07:14:47 2016 PM tracedemo  :  Scanning EXITING  SP       Response -> SUCCESS     Barcode Data -> 0241301000023516
Mon May 02 07:14:48 2016 PM   tracedemo  :  Eject ENTERING  SP       Response -> SUCCESS
Monday 02 May 2016 07:14:49 PM IST  tracedemo  :  Eject  ENTERING  C++       Response -> SUCCESS
Monday 02 May 2016 07:14:49 PM IST  tracedemo  :  Eject EXECUTED  C++       Response -> ONLINE  Error_Code -> "0"
Mon May 02 07:14:49 2016 PM   tracedemo  :  Eject Executed  SP       Response -> SUCCESS
Mon May 02 07:14:58 2016 PM   tracedemo  :  Configuration ENTERING  SP       Response -> SUCCESS
Monday 02 May 2016 07:14:58 PM IST  tracedemo  :  Configuration ENTERING  C++       Response -> SUCCESS
Monday 02 May 2016 07:14:58 PM IST  tracedemo  :  Configuration CPI & LPI  C++       CPI ->"17"  LPI ->"40"   Response -> SUCCESS
Monday 02 May 2016 07:14:58 PM IST  tracedemo  :   Device Successfully Initialized  C++       Response -> SUCCESS
Mon May 02 07:14:59 2016 PM   tracedemo  :  Paper Status ENTERING  SP       Response -> SUCCESS
Monday 02 May 2016 07:14:59 PM IST  tracedemo  :  Paper Status  ENTERING  C++       Response -> SUCCESS
Monday 02 May 2016 07:14:59 PM IST  tracedemo  :  Paper Status EXECUTED  C++   Response -> "DOCPRESENT"  Status -> "2"
Mon May 02 07:14:59 2016 PM   tracedemo  :  Paper Status EXITING  SP       Response -> DOCPRESENT
Mon May 02 07:14:59 2016 PM   tracedemo  :  Scanning ENTERING  SP       Response -> SUCCESS
Monday 02 May 2016 07:14:59 PM IST  tracedemo  :  Scanning  ENTERING  C++       Response -> SUCCESS
Monday 02 May 2016 07:14:59 PM IST  tracedemo  :  Scanning Properties  C++       BitsPerPixel -> "8"  ScanMode ->"SCAN_FRONT_REAR" 
Monday 02 May 2016 07:15:04 PM IST  tracedemo  :  Scanning EXECUTED  C++       Response -> ONLINE
Mon May 02 07:15:04 2016 PM   tracedemo  :   Barcode Range specified Min->9  Max->16SP       
Mon May 02 07:15:04 2016 PM   tracedemo  :   Length of barcode retrieved ->16  SP       
Mon May 02 07:15:04 2016 PM   tracedemo  :  Barcode scanning successfully executed  SP       Response -> SUCCESSFULL	Barcode Data ->	0241301000023516
Mon May 02 07:15:04 2016 PM   tracedemo  :  SCanning   SP   LOWER REGION specified for scanning
Mon May 02 07:15:04 2016 PM tracedemo  :  Scanning EXITING  SP       Response -> SUCCESS     Barcode Data -> 0241301000023516
Mon May 02 07:15:04 2016 PM   tracedemo  :  Eject ENTERING  SP       Response -> SUCCESS
Monday 02 May 2016 07:15:06 PM IST  tracedemo  :  Eject  ENTERING  C++       Response -> SUCCESS
Monday 02 May 2016 07:15:06 PM IST  tracedemo  :  Eject EXECUTED  C++       Response -> ONLINE  Error_Code -> "0"
Mon May 02 07:15:06 2016 PM   tracedemo  :  Eject Executed  SP       Response -> SUCCESS
Mon May 02 07:15:30 2016 PM   tracedemo  :  Configuration ENTERING  SP       Response -> SUCCESS
Monday 02 May 2016 07:15:30 PM IST  tracedemo  :  Configuration ENTERING  C++       Response -> SUCCESS
Monday 02 May 2016 07:15:30 PM IST  tracedemo  :  Configuration CPI & LPI  C++       CPI ->"17"  LPI ->"40"   Response -> SUCCESS
Monday 02 May 2016 07:15:30 PM IST  tracedemo  :   Device Successfully Initialized  C++       Response -> SUCCESS
Mon May 02 07:15:31 2016 PM   tracedemo  :  Paper Status ENTERING  SP       Response -> SUCCESS
Monday 02 May 2016 07:15:31 PM IST  tracedemo  :  Paper Status  ENTERING  C++       Response -> SUCCESS
Monday 02 May 2016 07:15:31 PM IST  tracedemo  :  Paper Status EXECUTED  C++   Response -> "DOCPRESENT"  Status -> "2"
Mon May 02 07:15:31 2016 PM   tracedemo  :  Paper Status EXITING  SP       Response -> DOCPRESENT
Mon May 02 07:15:31 2016 PM   tracedemo  :  Scanning ENTERING  SP       Response -> SUCCESS
Monday 02 May 2016 07:15:31 PM IST  tracedemo  :  Scanning  ENTERING  C++       Response -> SUCCESS
Monday 02 May 2016 07:15:31 PM IST  tracedemo  :  Scanning Properties  C++       BitsPerPixel -> "8"  ScanMode ->"SCAN_FRONT_REAR" 
Monday 02 May 2016 07:15:36 PM IST  tracedemo  :  Scanning EXECUTED  C++       Response -> ONLINE
Mon May 02 07:15:36 2016 PM   tracedemo  :   Barcode Range specified Min->9  Max->16SP       
Mon May 02 07:15:36 2016 PM   tracedemo  :   Length of barcode retrieved ->16  SP       
Mon May 02 07:15:36 2016 PM   tracedemo  :  Barcode scanning successfully executed  SP       Response -> SUCCESSFULL	Barcode Data ->	0241301000023516
Mon May 02 07:15:36 2016 PM   tracedemo  :  SCanning   SP   LOWER REGION specified for scanning
Mon May 02 07:15:36 2016 PM tracedemo  :  Scanning EXITING  SP       Response -> SUCCESS     Barcode Data -> 0241301000023516
Mon May 02 07:15:53 2016 PM   tracedemo  :  Print ENTERING  SP       Response -> SUCCESS
Monday 02 May 2016 07:15:53 PM IST  tracedemo  :  Printing  ENTERING  C++       Response -> SUCCESS
Monday 02 May 2016 07:15:53 PM IST  tracedemo  :  Printing path  C++       Path ->  "/root/forbes/microbanker/bin/Print_Files/PrintFile.txt"
Monday 02 May 2016 07:15:58 PM IST  tracedemo  :  "Printing could not be executed"  C++       Response -> PAPER_JAM  Error_Code -> "713"
Mon May 02 07:15:58 2016 PM   tracedemo  :  Print EXITING  SP       Response -> PAPER_JAM
Mon May 02 07:15:58 2016 PM   tracedemo  :  Eject ENTERING  SP       Response -> SUCCESS
Monday 02 May 2016 07:15:58 PM IST  tracedemo  :  Configuration "Device status could not be  retrieved"  C++       Response -> MISC  Error Code -> "713"
Mon May 02 07:15:58 2016 PM   tracedemo  :  Device Status EXITING  SP       Response -> MISC
Mon May 02 07:15:58 2016 PM   tracedemo  :  Eject cannot be executed  SP       Response -> MISC
Mon May 02 07:15:59 2016 PM   tracedemo  :  Eject ENTERING  SP       Response -> SUCCESS
Monday 02 May 2016 07:15:59 PM IST  tracedemo  :  Configuration "Device status could not be  retrieved"  C++       Response -> MISC  Error Code -> "713"
Mon May 02 07:15:59 2016 PM   tracedemo  :  Device Status EXITING  SP       Response -> MISC
Mon May 02 07:15:59 2016 PM   tracedemo  :  Eject cannot be executed  SP       Response -> MISC
Monday 02 May 2016 07:16:06 PM IST  tracedemo  :  Configuration "Device status could not be  retrieved"  C++       Response -> MISC  Error Code -> "713"
Mon May 02 07:16:06 2016 PM   tracedemo  :  Device Status EXITING  SP       Response -> MISC
Monday 02 May 2016 07:16:07 PM IST  tracedemo  :  Configuration "Device status could not be  retrieved"  C++       Response -> MISC  Error Code -> "713"
Mon May 02 07:16:07 2016 PM   tracedemo  :  Device Status EXITING  SP       Response -> MISC
Mon May 02 07:16:08 2016 PM   tracedemo  :  Configuration ENTERING  SP       Response -> SUCCESS
Monday 02 May 2016 07:16:08 PM IST  tracedemo  :  Configuration ENTERING  C++       Response -> SUCCESS
Monday 02 May 2016 07:16:08 PM IST  tracedemo  :  Configuration CPI & LPI  C++       CPI ->"17"  LPI ->"40"   Response -> SUCCESS
Monday 02 May 2016 07:16:08 PM IST  tracedemo  :  Configuration "Device Could not be  Initialized"  C++       Response -> MISC  Error Code -> "713"
Mon May 02 07:16:09 2016 PM   tracedemo  :  Configuration ENTERING  SP       Response -> SUCCESS
Monday 02 May 2016 07:16:09 PM IST  tracedemo  :  Configuration ENTERING  C++       Response -> SUCCESS
Monday 02 May 2016 07:16:09 PM IST  tracedemo  :  Configuration CPI & LPI  C++       CPI ->"17"  LPI ->"40"   Response -> SUCCESS
Monday 02 May 2016 07:16:09 PM IST  tracedemo  :  Configuration "Device Could not be  Initialized"  C++       Response -> MISC  Error Code -> "713"
Mon May 02 07:16:10 2016 PM   tracedemo  :  Configuration ENTERING  SP       Response -> SUCCESS
Monday 02 May 2016 07:16:10 PM IST  tracedemo  :  Configuration ENTERING  C++       Response -> SUCCESS
Monday 02 May 2016 07:16:10 PM IST  tracedemo  :  Configuration CPI & LPI  C++       CPI ->"17"  LPI ->"40"   Response -> SUCCESS
Monday 02 May 2016 07:16:10 PM IST  tracedemo  :  Configuration "Device Could not be  Initialized"  C++       Response -> MISC  Error Code -> "713"
Mon May 02 07:16:11 2016 PM   tracedemo  :  Configuration ENTERING  SP       Response -> SUCCESS
Monday 02 May 2016 07:16:11 PM IST  tracedemo  :  Configuration ENTERING  C++       Response -> SUCCESS
Monday 02 May 2016 07:16:11 PM IST  tracedemo  :  Configuration CPI & LPI  C++       CPI ->"17"  LPI ->"40"   Response -> SUCCESS
Monday 02 May 2016 07:16:11 PM IST  tracedemo  :  Configuration "Device Could not be  Initialized"  C++       Response -> MISC  Error Code -> "713"
Mon May 02 07:16:12 2016 PM   tracedemo  :  Configuration ENTERING  SP       Response -> SUCCESS
Monday 02 May 2016 07:16:12 PM IST  tracedemo  :  Configuration ENTERING  C++       Response -> SUCCESS
Monday 02 May 2016 07:16:12 PM IST  tracedemo  :  Configuration CPI & LPI  C++       CPI ->"17"  LPI ->"40"   Response -> SUCCESS
Monday 02 May 2016 07:16:12 PM IST  tracedemo  :  Configuration "Device Could not be  Initialized"  C++       Response -> MISC  Error Code -> "713"
Mon May 02 07:16:13 2016 PM   tracedemo  :  Configuration ENTERING  SP       Response -> SUCCESS
Monday 02 May 2016 07:16:13 PM IST  tracedemo  :  Configuration ENTERING  C++       Response -> SUCCESS
Monday 02 May 2016 07:16:13 PM IST  tracedemo  :  Configuration CPI & LPI  C++       CPI ->"17"  LPI ->"40"   Response -> SUCCESS
Monday 02 May 2016 07:16:13 PM IST  tracedemo  :  Configuration "Device Could not be  Initialized"  C++       Response -> MISC  Error Code -> "713"
Mon May 02 07:16:14 2016 PM   tracedemo  :  Configuration ENTERING  SP       Response -> SUCCESS
Monday 02 May 2016 07:16:14 PM IST  tracedemo  :  Configuration ENTERING  C++       Response -> SUCCESS
Monday 02 May 2016 07:16:14 PM IST  tracedemo  :  Configuration CPI & LPI  C++       CPI ->"17"  LPI ->"40"   Response -> SUCCESS
Monday 02 May 2016 07:16:14 PM IST  tracedemo  :  Configuration "Device Could not be  Initialized"  C++       Response -> MISC  Error Code -> "713"
Mon May 02 07:16:15 2016 PM   tracedemo  :  Configuration ENTERING  SP       Response -> SUCCESS
Monday 02 May 2016 07:16:15 PM IST  tracedemo  :  Configuration ENTERING  C++       Response -> SUCCESS
Monday 02 May 2016 07:16:15 PM IST  tracedemo  :  Configuration CPI & LPI  C++       CPI ->"17"  LPI ->"40"   Response -> SUCCESS
Monday 02 May 2016 07:16:15 PM IST  tracedemo  :  Configuration "Device Could not be  Initialized"  C++       Response -> MISC  Error Code -> "713"
Mon May 02 07:16:16 2016 PM   tracedemo  :  Configuration ENTERING  SP       Response -> SUCCESS
Monday 02 May 2016 07:16:16 PM IST  tracedemo  :  Configuration ENTERING  C++       Response -> SUCCESS
Monday 02 May 2016 07:16:16 PM IST  tracedemo  :  Configuration CPI & LPI  C++       CPI ->"17"  LPI ->"40"   Response -> SUCCESS
Mon May 02 07:16:32 2016 PM   tracedemo  :  Configuration ENTERING  SP       Response -> SUCCESS
Monday 02 May 2016 07:16:32 PM IST  tracedemo  :  Configuration ENTERING  C++       Response -> SUCCESS
Monday 02 May 2016 07:16:32 PM IST  tracedemo  :  Configuration CPI & LPI  C++       CPI ->"17"  LPI ->"40"   Response -> SUCCESS
Monday 02 May 2016 07:16:38 PM IST  tracedemo  :   Device Successfully Initialized  C++       Response -> SUCCESS
Mon May 02 07:16:41 2016 PM   tracedemo  :  Configuration ENTERING  SP       Response -> SUCCESS
Monday 02 May 2016 07:16:41 PM IST  tracedemo  :  Configuration ENTERING  C++       Response -> SUCCESS
Monday 02 May 2016 07:16:41 PM IST  tracedemo  :  Configuration CPI & LPI  C++       CPI ->"17"  LPI ->"40"   Response -> SUCCESS
Monday 02 May 2016 07:16:41 PM IST  tracedemo  :   Device Successfully Initialized  C++       Response -> SUCCESS
Mon May 02 07:16:42 2016 PM   tracedemo  :  Paper Status ENTERING  SP       Response -> SUCCESS
Monday 02 May 2016 07:16:42 PM IST  tracedemo  :  Paper Status  ENTERING  C++       Response -> SUCCESS
Monday 02 May 2016 07:16:42 PM IST  tracedemo  :  Paper Status EXECUTED  C++   Response -> "DOCPRESENT"  Status -> "2"
Mon May 02 07:16:42 2016 PM   tracedemo  :  Paper Status EXITING  SP       Response -> DOCPRESENT
Mon May 02 07:16:42 2016 PM   tracedemo  :  Scanning ENTERING  SP       Response -> SUCCESS
Monday 02 May 2016 07:16:42 PM IST  tracedemo  :  Scanning  ENTERING  C++       Response -> SUCCESS
Monday 02 May 2016 07:16:42 PM IST  tracedemo  :  Scanning Properties  C++       BitsPerPixel -> "8"  ScanMode ->"SCAN_FRONT_REAR" 
Monday 02 May 2016 07:16:47 PM IST  tracedemo  :  Scanning EXECUTED  C++       Response -> ONLINE
Mon May 02 07:16:47 2016 PM   tracedemo  :   Barcode Range specified Min->9  Max->16SP       
Mon May 02 07:16:47 2016 PM   tracedemo  :   Length of barcode retrieved ->16  SP       
Mon May 02 07:16:47 2016 PM   tracedemo  :  Barcode scanning successfully executed  SP       Response -> SUCCESSFULL	Barcode Data ->	0241301000023516
Mon May 02 07:16:47 2016 PM   tracedemo  :  SCanning   SP   LOWER REGION specified for scanning
Mon May 02 07:16:47 2016 PM tracedemo  :  Scanning EXITING  SP       Response -> SUCCESS     Barcode Data -> 0241301000023516
Mon May 02 07:16:53 2016 PM   tracedemo  :  Print ENTERING  SP       Response -> SUCCESS
Monday 02 May 2016 07:16:53 PM IST  tracedemo  :  Printing  ENTERING  C++       Response -> SUCCESS
Monday 02 May 2016 07:16:53 PM IST  tracedemo  :  Printing path  C++       Path ->  "/root/forbes/microbanker/bin/Print_Files/PrintFile.txt"
Monday 02 May 2016 07:17:02 PM IST  tracedemo  :  Printing EXECUTED  C++       Response -> ONLINE
Mon May 02 07:17:02 2016 PM   tracedemo  :  Print EXITING  SP       Response -> SUCCESS
Mon May 02 07:17:03 2016 PM   tracedemo  :  Print ENTERING  SP       Response -> SUCCESS
Monday 02 May 2016 07:17:03 PM IST  tracedemo  :  Printing  ENTERING  C++       Response -> SUCCESS
Monday 02 May 2016 07:17:03 PM IST  tracedemo  :  Printing path  C++       Path ->  "/root/forbes/microbanker/bin/Print_Files/PrintFile.txt"
Monday 02 May 2016 07:17:04 PM IST  tracedemo  :  Printing EXECUTED  C++       Response -> ONLINE
Mon May 02 07:17:04 2016 PM   tracedemo  :  Print EXITING  SP       Response -> SUCCESS
Mon May 02 07:17:04 2016 PM   tracedemo  :  Eject ENTERING  SP       Response -> SUCCESS
Monday 02 May 2016 07:17:05 PM IST  tracedemo  :  Eject  ENTERING  C++       Response -> SUCCESS
Monday 02 May 2016 07:17:05 PM IST  tracedemo  :  Eject EXECUTED  C++       Response -> ONLINE  Error_Code -> "0"
Mon May 02 07:17:05 2016 PM   tracedemo  :  Eject Executed  SP       Response -> SUCCESS
Mon May 02 07:17:05 2016 PM   tracedemo  :  Paper Status ENTERING  SP       Response -> SUCCESS
Monday 02 May 2016 07:17:05 PM IST  tracedemo  :  Paper Status  ENTERING  C++       Response -> SUCCESS
Monday 02 May 2016 07:17:05 PM IST  tracedemo  :  Paper Status EXECUTED  C++   Response -> "DOCEJECTED"  Status -> "1"
Mon May 02 07:17:05 2016 PM   tracedemo  :  Paper Status EXITING  SP       Response -> DOCEJECTED
Mon May 02 07:17:05 2016 PM   tracedemo  :  Paper Status ENTERING  SP       Response -> SUCCESS
Monday 02 May 2016 07:17:05 PM IST  tracedemo  :  Paper Status  ENTERING  C++       Response -> SUCCESS
Monday 02 May 2016 07:17:05 PM IST  tracedemo  :  Paper Status EXECUTED  C++   Response -> "DOCEJECTED"  Status -> "1"
Mon May 02 07:17:05 2016 PM   tracedemo  :  Paper Status EXITING  SP       Response -> DOCEJECTED
Mon May 02 07:17:06 2016 PM   tracedemo  :  Paper Status ENTERING  SP       Response -> SUCCESS
Monday 02 May 2016 07:17:06 PM IST  tracedemo  :  Paper Status  ENTERING  C++       Response -> SUCCESS
Monday 02 May 2016 07:17:06 PM IST  tracedemo  :  Paper Status EXECUTED  C++   Response -> "DOCABSENT"  Status -> "0"
Mon May 02 07:17:06 2016 PM   tracedemo  :  Paper Status EXITING  SP       Response -> DOCABSENT
Mon May 02 07:17:07 2016 PM   tracedemo  :  Paper Status ENTERING  SP       Response -> SUCCESS
Monday 02 May 2016 07:17:07 PM IST  tracedemo  :  Paper Status  ENTERING  C++       Response -> SUCCESS
Monday 02 May 2016 07:17:07 PM IST  tracedemo  :  Paper Status EXECUTED  C++   Response -> "DOCPRESENT"  Status -> "2"
Mon May 02 07:17:07 2016 PM   tracedemo  :  Paper Status EXITING  SP       Response -> DOCPRESENT
Mon May 02 07:17:09 2016 PM   tracedemo  :  Scanning ENTERING  SP       Response -> SUCCESS
Monday 02 May 2016 07:17:09 PM IST  tracedemo  :  Scanning  ENTERING  C++       Response -> SUCCESS
Monday 02 May 2016 07:17:09 PM IST  tracedemo  :  Scanning Properties  C++       BitsPerPixel -> "8"  ScanMode ->"SCAN_FRONT_REAR" 
Monday 02 May 2016 07:17:13 PM IST  tracedemo  :  Scanning EXECUTED  C++       Response -> ONLINE
Mon May 02 07:17:14 2016 PM   tracedemo  :   Barcode Range specified Min->9  Max->16SP       
Mon May 02 07:17:14 2016 PM   tracedemo  :   Length of barcode retrieved ->16  SP       
Mon May 02 07:17:14 2016 PM   tracedemo  :  Barcode scanning successfully executed  SP       Response -> SUCCESSFULL	Barcode Data ->	0241301000021111
Mon May 02 07:17:14 2016 PM   tracedemo  :  SCanning   SP   LOWER REGION specified for scanning
Mon May 02 07:17:14 2016 PM tracedemo  :  Scanning EXITING  SP       Response -> SUCCESS     Barcode Data -> 0241301000021111
Mon May 02 07:17:19 2016 PM   tracedemo  :  Eject ENTERING  SP       Response -> SUCCESS
Monday 02 May 2016 07:17:20 PM IST  tracedemo  :  Eject  ENTERING  C++       Response -> SUCCESS
Monday 02 May 2016 07:17:20 PM IST  tracedemo  :  Eject EXECUTED  C++       Response -> ONLINE  Error_Code -> "0"
Mon May 02 07:17:20 2016 PM   tracedemo  :  Eject Executed  SP       Response -> SUCCESS
Mon May 02 07:17:31 2016 PM   tracedemo  :  Configuration ENTERING  SP       Response -> SUCCESS
Monday 02 May 2016 07:17:31 PM IST  tracedemo  :  Configuration ENTERING  C++       Response -> SUCCESS
Monday 02 May 2016 07:17:31 PM IST  tracedemo  :  Configuration CPI & LPI  C++       CPI ->"17"  LPI ->"40"   Response -> SUCCESS
Monday 02 May 2016 07:17:31 PM IST  tracedemo  :   Device Successfully Initialized  C++       Response -> SUCCESS
Mon May 02 07:17:32 2016 PM   tracedemo  :  Paper Status ENTERING  SP       Response -> SUCCESS
Monday 02 May 2016 07:17:32 PM IST  tracedemo  :  Paper Status  ENTERING  C++       Response -> SUCCESS
Monday 02 May 2016 07:17:32 PM IST  tracedemo  :  Paper Status EXECUTED  C++   Response -> "DOCABSENT"  Status -> "0"
Mon May 02 07:17:32 2016 PM   tracedemo  :  Paper Status EXITING  SP       Response -> DOCABSENT
Mon May 02 07:17:33 2016 PM   tracedemo  :  Paper Status ENTERING  SP       Response -> SUCCESS
Monday 02 May 2016 07:17:33 PM IST  tracedemo  :  Paper Status  ENTERING  C++       Response -> SUCCESS
Monday 02 May 2016 07:17:33 PM IST  tracedemo  :  Paper Status EXECUTED  C++   Response -> "DOCABSENT"  Status -> "0"
Mon May 02 07:17:33 2016 PM   tracedemo  :  Paper Status EXITING  SP       Response -> DOCABSENT
Mon May 02 07:17:34 2016 PM   tracedemo  :  Paper Status ENTERING  SP       Response -> SUCCESS
Monday 02 May 2016 07:17:34 PM IST  tracedemo  :  Paper Status  ENTERING  C++       Response -> SUCCESS
Monday 02 May 2016 07:17:34 PM IST  tracedemo  :  Paper Status EXECUTED  C++   Response -> "DOCPRESENT"  Status -> "2"
Mon May 02 07:17:34 2016 PM   tracedemo  :  Paper Status EXITING  SP       Response -> DOCPRESENT
Mon May 02 07:17:34 2016 PM   tracedemo  :  Scanning ENTERING  SP       Response -> SUCCESS
Monday 02 May 2016 07:17:34 PM IST  tracedemo  :  Scanning  ENTERING  C++       Response -> SUCCESS
Monday 02 May 2016 07:17:34 PM IST  tracedemo  :  Scanning Properties  C++       BitsPerPixel -> "8"  ScanMode ->"SCAN_FRONT_REAR" 
Monday 02 May 2016 07:17:39 PM IST  tracedemo  :  Scanning EXECUTED  C++       Response -> ONLINE
Mon May 02 07:17:40 2016 PM   tracedemo  :   Barcode Range specified Min->9  Max->16SP       
Mon May 02 07:17:40 2016 PM   tracedemo  :   Length of barcode retrieved ->16  SP       
Mon May 02 07:17:40 2016 PM   tracedemo  :  Barcode scanning successfully executed  SP       Response -> SUCCESSFULL	Barcode Data ->	0241301000023516
Mon May 02 07:17:40 2016 PM   tracedemo  :  SCanning   SP   LOWER REGION specified for scanning
Mon May 02 07:17:40 2016 PM tracedemo  :  Scanning EXITING  SP       Response -> SUCCESS     Barcode Data -> 0241301000023516
Mon May 02 07:17:56 2016 PM   tracedemo  :  Print ENTERING  SP       Response -> SUCCESS
Monday 02 May 2016 07:17:56 PM IST  tracedemo  :  Printing  ENTERING  C++       Response -> SUCCESS
Monday 02 May 2016 07:17:56 PM IST  tracedemo  :  Printing path  C++       Path ->  "/root/forbes/microbanker/bin/Print_Files/PrintFile.txt"
Monday 02 May 2016 07:17:59 PM IST  tracedemo  :  Printing EXECUTED  C++       Response -> ONLINE
Mon May 02 07:17:59 2016 PM   tracedemo  :  Print EXITING  SP       Response -> SUCCESS
Mon May 02 07:17:59 2016 PM   tracedemo  :  Eject ENTERING  SP       Response -> SUCCESS
Monday 02 May 2016 07:18:01 PM IST  tracedemo  :  Eject  ENTERING  C++       Response -> SUCCESS
Monday 02 May 2016 07:18:01 PM IST  tracedemo  :  Eject EXECUTED  C++       Response -> ONLINE  Error_Code -> "0"
Mon May 02 07:18:01 2016 PM   tracedemo  :  Eject Executed  SP       Response -> SUCCESS
Mon May 02 07:18:01 2016 PM   tracedemo  :  Paper Status ENTERING  SP       Response -> SUCCESS
Monday 02 May 2016 07:18:01 PM IST  tracedemo  :  Paper Status  ENTERING  C++       Response -> SUCCESS
Monday 02 May 2016 07:18:01 PM IST  tracedemo  :  Paper Status EXECUTED  C++   Response -> "DOCEJECTED"  Status -> "1"
Mon May 02 07:18:01 2016 PM   tracedemo  :  Paper Status EXITING  SP       Response -> DOCEJECTED
Mon May 02 07:18:01 2016 PM   tracedemo  :  Paper Status ENTERING  SP       Response -> SUCCESS
Monday 02 May 2016 07:18:01 PM IST  tracedemo  :  Paper Status  ENTERING  C++       Response -> SUCCESS
Monday 02 May 2016 07:18:01 PM IST  tracedemo  :  Paper Status EXECUTED  C++   Response -> "DOCEJECTED"  Status -> "1"
Mon May 02 07:18:01 2016 PM   tracedemo  :  Paper Status EXITING  SP       Response -> DOCEJECTED
Mon May 02 07:18:02 2016 PM   tracedemo  :  Paper Status ENTERING  SP       Response -> SUCCESS
Monday 02 May 2016 07:18:02 PM IST  tracedemo  :  Paper Status  ENTERING  C++       Response -> SUCCESS
Monday 02 May 2016 07:18:02 PM IST  tracedemo  :  Paper Status EXECUTED  C++   Response -> "DOCEJECTED"  Status -> "1"
Mon May 02 07:18:02 2016 PM   tracedemo  :  Paper Status EXITING  SP       Response -> DOCEJECTED
Mon May 02 07:18:03 2016 PM   tracedemo  :  Paper Status ENTERING  SP       Response -> SUCCESS
Monday 02 May 2016 07:18:03 PM IST  tracedemo  :  Paper Status  ENTERING  C++       Response -> SUCCESS
Monday 02 May 2016 07:18:03 PM IST  tracedemo  :  Paper Status EXECUTED  C++   Response -> "DOCEJECTED"  Status -> "1"
Mon May 02 07:18:03 2016 PM   tracedemo  :  Paper Status EXITING  SP       Response -> DOCEJECTED
Mon May 02 07:18:04 2016 PM   tracedemo  :  Paper Status ENTERING  SP       Response -> SUCCESS
Monday 02 May 2016 07:18:04 PM IST  tracedemo  :  Paper Status  ENTERING  C++       Response -> SUCCESS
Monday 02 May 2016 07:18:04 PM IST  tracedemo  :  Paper Status EXECUTED  C++   Response -> "DOCABSENT"  Status -> "0"
Mon May 02 07:18:04 2016 PM   tracedemo  :  Paper Status EXITING  SP       Response -> DOCABSENT
Mon May 02 07:18:05 2016 PM   tracedemo  :  Paper Status ENTERING  SP       Response -> SUCCESS
Monday 02 May 2016 07:18:05 PM IST  tracedemo  :  Paper Status  ENTERING  C++       Response -> SUCCESS
Monday 02 May 2016 07:18:05 PM IST  tracedemo  :  Paper Status EXECUTED  C++   Response -> "DOCABSENT"  Status -> "0"
Mon May 02 07:18:05 2016 PM   tracedemo  :  Paper Status EXITING  SP       Response -> DOCABSENT
Mon May 02 07:18:06 2016 PM   tracedemo  :  Paper Status ENTERING  SP       Response -> SUCCESS
Monday 02 May 2016 07:18:06 PM IST  tracedemo  :  Paper Status  ENTERING  C++       Response -> SUCCESS
Monday 02 May 2016 07:18:06 PM IST  tracedemo  :  Paper Status EXECUTED  C++   Response -> "DOCABSENT"  Status -> "0"
Mon May 02 07:18:06 2016 PM   tracedemo  :  Paper Status EXITING  SP       Response -> DOCABSENT
Mon May 02 07:18:07 2016 PM   tracedemo  :  Paper Status ENTERING  SP       Response -> SUCCESS
Monday 02 May 2016 07:18:07 PM IST  tracedemo  :  Paper Status  ENTERING  C++       Response -> SUCCESS
Monday 02 May 2016 07:18:07 PM IST  tracedemo  :  Paper Status EXECUTED  C++   Response -> "DOCABSENT"  Status -> "0"
Mon May 02 07:18:07 2016 PM   tracedemo  :  Paper Status EXITING  SP       Response -> DOCABSENT
Mon May 02 07:18:08 2016 PM   tracedemo  :  Paper Status ENTERING  SP       Response -> SUCCESS
Monday 02 May 2016 07:18:08 PM IST  tracedemo  :  Paper Status  ENTERING  C++       Response -> SUCCESS
Monday 02 May 2016 07:18:08 PM IST  tracedemo  :  Paper Status EXECUTED  C++   Response -> "DOCPRESENT"  Status -> "2"
Mon May 02 07:18:08 2016 PM   tracedemo  :  Paper Status EXITING  SP       Response -> DOCPRESENT
Mon May 02 07:18:09 2016 PM   tracedemo  :  Scanning ENTERING  SP       Response -> SUCCESS
Monday 02 May 2016 07:18:09 PM IST  tracedemo  :  Scanning  ENTERING  C++       Response -> SUCCESS
Monday 02 May 2016 07:18:09 PM IST  tracedemo  :  Scanning Properties  C++       BitsPerPixel -> "8"  ScanMode ->"SCAN_FRONT_REAR" 
Monday 02 May 2016 07:18:14 PM IST  tracedemo  :  Scanning EXECUTED  C++       Response -> ONLINE
Mon May 02 07:18:14 2016 PM   tracedemo  :   Barcode Range specified Min->9  Max->16SP       
Mon May 02 07:18:14 2016 PM   tracedemo  :   Length of barcode retrieved ->15  SP       
Mon May 02 07:18:14 2016 PM   tracedemo  :  Barcode scanning successfully executed  SP       Response -> SUCCESSFULL	Barcode Data ->	914010006330144
Mon May 02 07:18:14 2016 PM   tracedemo  :  SCanning   SP   LOWER REGION specified for scanning
Mon May 02 07:18:14 2016 PM tracedemo  :  Scanning EXITING  SP       Response -> SUCCESS     Barcode Data -> 914010006330144
Mon May 02 07:18:14 2016 PM   tracedemo  :  Eject ENTERING  SP       Response -> SUCCESS
Monday 02 May 2016 07:18:16 PM IST  tracedemo  :  Eject  ENTERING  C++       Response -> SUCCESS
Monday 02 May 2016 07:18:16 PM IST  tracedemo  :  Eject EXECUTED  C++       Response -> ONLINE  Error_Code -> "0"
Mon May 02 07:18:16 2016 PM   tracedemo  :  Eject Executed  SP       Response -> SUCCESS
Mon May 02 07:21:21 2016 PM   tracedemo  :  Configuration ENTERING  SP       Response -> SUCCESS
Monday 02 May 2016 07:21:21 PM IST  tracedemo  :  Configuration ENTERING  C++       Response -> SUCCESS
Monday 02 May 2016 07:21:21 PM IST  tracedemo  :  Configuration CPI & LPI  C++       CPI ->"17"  LPI ->"40"   Response -> SUCCESS
Monday 02 May 2016 07:21:29 PM IST  tracedemo  :   Device Successfully Initialized  C++       Response -> SUCCESS
Mon May 02 07:21:31 2016 PM   tracedemo  :  Configuration ENTERING  SP       Response -> SUCCESS
Monday 02 May 2016 07:21:31 PM IST  tracedemo  :  Configuration ENTERING  C++       Response -> SUCCESS
Monday 02 May 2016 07:21:31 PM IST  tracedemo  :  Configuration CPI & LPI  C++       CPI ->"17"  LPI ->"40"   Response -> SUCCESS
Monday 02 May 2016 07:21:31 PM IST  tracedemo  :   Device Successfully Initialized  C++       Response -> SUCCESS
Mon May 02 07:21:32 2016 PM   tracedemo  :  Paper Status ENTERING  SP       Response -> SUCCESS
Monday 02 May 2016 07:21:32 PM IST  tracedemo  :  Paper Status  ENTERING  C++       Response -> SUCCESS
Monday 02 May 2016 07:21:32 PM IST  tracedemo  :  Paper Status EXECUTED  C++   Response -> "DOCPRESENT"  Status -> "2"
Mon May 02 07:21:32 2016 PM   tracedemo  :  Paper Status EXITING  SP       Response -> DOCPRESENT
Mon May 02 07:21:32 2016 PM   tracedemo  :  Scanning ENTERING  SP       Response -> SUCCESS
Monday 02 May 2016 07:21:32 PM IST  tracedemo  :  Scanning  ENTERING  C++       Response -> SUCCESS
Monday 02 May 2016 07:21:32 PM IST  tracedemo  :  Scanning Properties  C++       BitsPerPixel -> "8"  ScanMode ->"SCAN_FRONT_REAR" 
Monday 02 May 2016 07:21:37 PM IST  tracedemo  :  Scanning EXECUTED  C++       Response -> ONLINE
Mon May 02 07:21:37 2016 PM   tracedemo  :   Barcode Range specified Min->9  Max->16SP       
Mon May 02 07:21:37 2016 PM   tracedemo  :   Length of barcode retrieved ->16  SP       
Mon May 02 07:21:37 2016 PM   tracedemo  :  Barcode scanning successfully executed  SP       Response -> SUCCESSFULL	Barcode Data ->	0241301000021111
Mon May 02 07:21:37 2016 PM   tracedemo  :  SCanning   SP   LOWER REGION specified for scanning
Mon May 02 07:21:37 2016 PM tracedemo  :  Scanning EXITING  SP       Response -> SUCCESS     Barcode Data -> 0241301000021111
Mon May 02 07:21:45 2016 PM   tracedemo  :  Print ENTERING  SP       Response -> SUCCESS
Monday 02 May 2016 07:21:45 PM IST  tracedemo  :  Printing  ENTERING  C++       Response -> SUCCESS
Monday 02 May 2016 07:21:45 PM IST  tracedemo  :  Printing path  C++       Path ->  "/root/forbes/microbanker/bin/Print_Files/PrintFile.txt"
Monday 02 May 2016 07:21:47 PM IST  tracedemo  :  Printing EXECUTED  C++       Response -> ONLINE
Mon May 02 07:21:48 2016 PM   tracedemo  :  Print EXITING  SP       Response -> SUCCESS
Mon May 02 07:21:48 2016 PM   tracedemo  :  Eject ENTERING  SP       Response -> SUCCESS
Monday 02 May 2016 07:21:49 PM IST  tracedemo  :  Eject  ENTERING  C++       Response -> SUCCESS
Monday 02 May 2016 07:21:49 PM IST  tracedemo  :  Eject EXECUTED  C++       Response -> ONLINE  Error_Code -> "0"
Mon May 02 07:21:49 2016 PM   tracedemo  :  Eject Executed  SP       Response -> SUCCESS
Mon May 02 07:21:49 2016 PM   tracedemo  :  Paper Status ENTERING  SP       Response -> SUCCESS
Monday 02 May 2016 07:21:49 PM IST  tracedemo  :  Paper Status  ENTERING  C++       Response -> SUCCESS
Monday 02 May 2016 07:21:49 PM IST  tracedemo  :  Paper Status EXECUTED  C++   Response -> "DOCEJECTED"  Status -> "1"
Mon May 02 07:21:49 2016 PM   tracedemo  :  Paper Status EXITING  SP       Response -> DOCEJECTED
Mon May 02 07:21:49 2016 PM   tracedemo  :  Paper Status ENTERING  SP       Response -> SUCCESS
Monday 02 May 2016 07:21:49 PM IST  tracedemo  :  Paper Status  ENTERING  C++       Response -> SUCCESS
Monday 02 May 2016 07:21:49 PM IST  tracedemo  :  Paper Status EXECUTED  C++   Response -> "DOCEJECTED"  Status -> "1"
Mon May 02 07:21:49 2016 PM   tracedemo  :  Paper Status EXITING  SP       Response -> DOCEJECTED
Mon May 02 07:21:50 2016 PM   tracedemo  :  Paper Status ENTERING  SP       Response -> SUCCESS
Monday 02 May 2016 07:21:50 PM IST  tracedemo  :  Paper Status  ENTERING  C++       Response -> SUCCESS
Monday 02 May 2016 07:21:50 PM IST  tracedemo  :  Paper Status EXECUTED  C++   Response -> "DOCABSENT"  Status -> "0"
Mon May 02 07:21:50 2016 PM   tracedemo  :  Paper Status EXITING  SP       Response -> DOCABSENT
Mon May 02 07:21:51 2016 PM   tracedemo  :  Paper Status ENTERING  SP       Response -> SUCCESS
Monday 02 May 2016 07:21:51 PM IST  tracedemo  :  Paper Status  ENTERING  C++       Response -> SUCCESS
Monday 02 May 2016 07:21:51 PM IST  tracedemo  :  Paper Status EXECUTED  C++   Response -> "DOCABSENT"  Status -> "0"
Mon May 02 07:21:51 2016 PM   tracedemo  :  Paper Status EXITING  SP       Response -> DOCABSENT
Mon May 02 07:21:52 2016 PM   tracedemo  :  Paper Status ENTERING  SP       Response -> SUCCESS
Monday 02 May 2016 07:21:52 PM IST  tracedemo  :  Paper Status  ENTERING  C++       Response -> SUCCESS
Monday 02 May 2016 07:21:52 PM IST  tracedemo  :  Paper Status EXECUTED  C++   Response -> "DOCABSENT"  Status -> "0"
Mon May 02 07:21:52 2016 PM   tracedemo  :  Paper Status EXITING  SP       Response -> DOCABSENT
Mon May 02 07:21:53 2016 PM   tracedemo  :  Paper Status ENTERING  SP       Response -> SUCCESS
Monday 02 May 2016 07:21:53 PM IST  tracedemo  :  Paper Status  ENTERING  C++       Response -> SUCCESS
Monday 02 May 2016 07:21:53 PM IST  tracedemo  :  Paper Status EXECUTED  C++   Response -> "DOCABSENT"  Status -> "0"
Mon May 02 07:21:53 2016 PM   tracedemo  :  Paper Status EXITING  SP       Response -> DOCABSENT
Mon May 02 07:21:54 2016 PM   tracedemo  :  Paper Status ENTERING  SP       Response -> SUCCESS
Monday 02 May 2016 07:21:54 PM IST  tracedemo  :  Paper Status  ENTERING  C++       Response -> SUCCESS
Monday 02 May 2016 07:21:54 PM IST  tracedemo  :  Paper Status EXECUTED  C++   Response -> "DOCABSENT"  Status -> "0"
Mon May 02 07:21:54 2016 PM   tracedemo  :  Paper Status EXITING  SP       Response -> DOCABSENT
Mon May 02 07:21:55 2016 PM   tracedemo  :  Paper Status ENTERING  SP       Response -> SUCCESS
Monday 02 May 2016 07:21:55 PM IST  tracedemo  :  Paper Status  ENTERING  C++       Response -> SUCCESS
Monday 02 May 2016 07:21:55 PM IST  tracedemo  :  Paper Status EXECUTED  C++   Response -> "DOCABSENT"  Status -> "0"
Mon May 02 07:21:55 2016 PM   tracedemo  :  Paper Status EXITING  SP       Response -> DOCABSENT
Mon May 02 07:21:56 2016 PM   tracedemo  :  Paper Status ENTERING  SP       Response -> SUCCESS
Monday 02 May 2016 07:21:56 PM IST  tracedemo  :  Paper Status  ENTERING  C++       Response -> SUCCESS
Monday 02 May 2016 07:21:56 PM IST  tracedemo  :  Paper Status EXECUTED  C++   Response -> "DOCABSENT"  Status -> "0"
Mon May 02 07:21:56 2016 PM   tracedemo  :  Paper Status EXITING  SP       Response -> DOCABSENT
Mon May 02 07:21:57 2016 PM   tracedemo  :  Paper Status ENTERING  SP       Response -> SUCCESS
Monday 02 May 2016 07:21:57 PM IST  tracedemo  :  Paper Status  ENTERING  C++       Response -> SUCCESS
Monday 02 May 2016 07:21:57 PM IST  tracedemo  :  Paper Status EXECUTED  C++   Response -> "DOCABSENT"  Status -> "0"
Mon May 02 07:21:57 2016 PM   tracedemo  :  Paper Status EXITING  SP       Response -> DOCABSENT
Mon May 02 07:22:04 2016 PM   tracedemo  :  Configuration ENTERING  SP       Response -> SUCCESS
Monday 02 May 2016 07:22:04 PM IST  tracedemo  :  Configuration ENTERING  C++       Response -> SUCCESS
Monday 02 May 2016 07:22:04 PM IST  tracedemo  :  Configuration CPI & LPI  C++       CPI ->"17"  LPI ->"40"   Response -> SUCCESS
Monday 02 May 2016 07:22:10 PM IST  tracedemo  :   Device Successfully Initialized  C++       Response -> SUCCESS
Mon May 02 07:23:04 2016 PM   tracedemo  :  Configuration ENTERING  SP       Response -> SUCCESS
Monday 02 May 2016 07:23:04 PM IST  tracedemo  :  Configuration ENTERING  C++       Response -> SUCCESS
Monday 02 May 2016 07:23:04 PM IST  tracedemo  :  Configuration CPI & LPI  C++       CPI ->"17"  LPI ->"40"   Response -> SUCCESS
Monday 02 May 2016 07:23:04 PM IST  tracedemo  :   Device Successfully Initialized  C++       Response -> SUCCESS
Mon May 02 07:23:05 2016 PM   tracedemo  :  Paper Status ENTERING  SP       Response -> SUCCESS
Monday 02 May 2016 07:23:05 PM IST  tracedemo  :  Paper Status  ENTERING  C++       Response -> SUCCESS
Monday 02 May 2016 07:23:05 PM IST  tracedemo  :  Paper Status EXECUTED  C++   Response -> "DOCPRESENT"  Status -> "2"
Mon May 02 07:23:05 2016 PM   tracedemo  :  Paper Status EXITING  SP       Response -> DOCPRESENT
Mon May 02 07:23:05 2016 PM   tracedemo  :  Scanning ENTERING  SP       Response -> SUCCESS
Monday 02 May 2016 07:23:05 PM IST  tracedemo  :  Scanning  ENTERING  C++       Response -> SUCCESS
Monday 02 May 2016 07:23:05 PM IST  tracedemo  :  Scanning Properties  C++       BitsPerPixel -> "8"  ScanMode ->"SCAN_FRONT_REAR" 
Monday 02 May 2016 07:23:10 PM IST  tracedemo  :  Scanning EXECUTED  C++       Response -> ONLINE
Mon May 02 07:23:10 2016 PM   tracedemo  :   Barcode Range specified Min->9  Max->16SP       
Mon May 02 07:23:10 2016 PM   tracedemo  :   Length of barcode retrieved ->16  SP       
Mon May 02 07:23:10 2016 PM   tracedemo  :  Barcode scanning successfully executed  SP       Response -> SUCCESSFULL	Barcode Data ->	0241301000021111
Mon May 02 07:23:10 2016 PM   tracedemo  :  SCanning   SP   LOWER REGION specified for scanning
Mon May 02 07:23:10 2016 PM tracedemo  :  Scanning EXITING  SP       Response -> SUCCESS     Barcode Data -> 0241301000021111
Mon May 02 07:23:58 2016 PM   tracedemo  :  Eject ENTERING  SP       Response -> SUCCESS
Monday 02 May 2016 07:23:59 PM IST  tracedemo  :  Eject  ENTERING  C++       Response -> SUCCESS
Monday 02 May 2016 07:23:59 PM IST  tracedemo  :  Eject EXECUTED  C++       Response -> ONLINE  Error_Code -> "0"
Mon May 02 07:23:59 2016 PM   tracedemo  :  Eject Executed  SP       Response -> SUCCESS
