Thu Nov 14 10:56:27 2019 AM   Version 1.1.0  :  Eject ENTERING  SP       Response -> SUCCESS
Thursday 14 November 2019 10:56:27 AM IST  tracedemo  :  Device status "Device status could not be  retrieved"  C++       Response -> OFFLINE  Error Code -> "600"
Thu Nov 14 10:56:27 2019 AM   Version 1.1.0  :  Device Status EXITING  SP       Response -> OFFLINE
Thu Nov 14 10:56:27 2019 AM   Version 1.1.0  :  Eject cannot be executed  SP       Response -> OFFLINE
Thu Nov 14 10:56:28 2019 AM   Version 1.1.0  :  Configuration ENTERING  SP       Response -> SUCCESS
Thursday 14 November 2019 10:56:28 AM IST  tracedemo  :  Configuration ENTERING  C++       Response -> SUCCESS
Thursday 14 November 2019 10:56:28 AM IST  tracedemo  :  Configuration CPI & LPI  C++       CPI ->"16"  LPI ->"40"   Response -> SUCCESS
Thursday 14 November 2019 10:56:43 AM IST  tracedemo  :  Configuration "Device Could not be  Initialized"  C++       Response -> OFFLINE  Error Code -> "600"
Thursday 14 November 2019 10:56:43 AM IST  tracedemo  :  Device status "Device status could not be  retrieved"  C++       Response -> OFFLINE  Error Code -> "600"
Thu Nov 14 10:56:43 2019 AM   Version 1.1.0  :  Device Status EXITING  SP       Response -> OFFLINE
Thu Nov 14 11:06:09 2019 AM   Version 1.1.0  :  Eject ENTERING  SP       Response -> SUCCESS
Thursday 14 November 2019 11:06:09 AM IST  tracedemo  :  Device status "Device status could not be  retrieved"  C++       Response -> OFFLINE  Error Code -> "600"
Thu Nov 14 11:06:09 2019 AM   Version 1.1.0  :  Device Status EXITING  SP       Response -> OFFLINE
Thu Nov 14 11:06:09 2019 AM   Version 1.1.0  :  Eject cannot be executed  SP       Response -> OFFLINE
Thu Nov 14 11:06:10 2019 AM   Version 1.1.0  :  Configuration ENTERING  SP       Response -> SUCCESS
Thursday 14 November 2019 11:06:10 AM IST  tracedemo  :  Configuration ENTERING  C++       Response -> SUCCESS
Thursday 14 November 2019 11:06:10 AM IST  tracedemo  :  Configuration CPI & LPI  C++       CPI ->"16"  LPI ->"40"   Response -> SUCCESS
Thursday 14 November 2019 11:06:25 AM IST  tracedemo  :  Configuration "Device Could not be  Initialized"  C++       Response -> OFFLINE  Error Code -> "600"
Thursday 14 November 2019 11:06:25 AM IST  tracedemo  :  Device status "Device status could not be  retrieved"  C++       Response -> OFFLINE  Error Code -> "600"
Thu Nov 14 11:06:25 2019 AM   Version 1.1.0  :  Device Status EXITING  SP       Response -> OFFLINE
Thursday 14 November 2019 11:06:50 AM IST  tracedemo  :  Device status "Device status could not be  retrieved"  C++       Response -> OFFLINE  Error Code -> "600"
Thu Nov 14 11:06:50 2019 AM   Version 1.1.0  :  Device Status EXITING  SP       Response -> OFFLINE
Thu Nov 14 11:06:50 2019 AM   Version 1.1.0  :  Configuration ENTERING  SP       Response -> SUCCESS
Thursday 14 November 2019 11:06:50 AM IST  tracedemo  :  Configuration ENTERING  C++       Response -> SUCCESS
Thursday 14 November 2019 11:06:50 AM IST  tracedemo  :  Configuration CPI & LPI  C++       CPI ->"16"  LPI ->"40"   Response -> SUCCESS
Thursday 14 November 2019 11:07:05 AM IST  tracedemo  :  Configuration "Device Could not be  Initialized"  C++       Response -> OFFLINE  Error Code -> "600"
Thursday 14 November 2019 11:07:05 AM IST  tracedemo  :  Device status "Device status could not be  retrieved"  C++       Response -> OFFLINE  Error Code -> "600"
Thu Nov 14 11:07:05 2019 AM   Version 1.1.0  :  Device Status EXITING  SP       Response -> OFFLINE
Thu Nov 14 11:13:55 2019 AM   Version 1.1.0  :  Eject ENTERING  SP       Response -> SUCCESS
Thursday 14 November 2019 11:13:55 AM IST  tracedemo  :  Device status "Device status could not be  retrieved"  C++       Response -> OFFLINE  Error Code -> "600"
Thu Nov 14 11:13:55 2019 AM   Version 1.1.0  :  Device Status EXITING  SP       Response -> OFFLINE
Thu Nov 14 11:13:55 2019 AM   Version 1.1.0  :  Eject cannot be executed  SP       Response -> OFFLINE
Thu Nov 14 11:13:56 2019 AM   Version 1.1.0  :  Configuration ENTERING  SP       Response -> SUCCESS
Thursday 14 November 2019 11:13:56 AM IST  tracedemo  :  Configuration ENTERING  C++       Response -> SUCCESS
Thursday 14 November 2019 11:13:56 AM IST  tracedemo  :  Configuration CPI & LPI  C++       CPI ->"16"  LPI ->"40"   Response -> SUCCESS
Thursday 14 November 2019 11:14:11 AM IST  tracedemo  :  Configuration "Device Could not be  Initialized"  C++       Response -> OFFLINE  Error Code -> "600"
Thursday 14 November 2019 11:14:11 AM IST  tracedemo  :  Device status "Device status could not be  retrieved"  C++       Response -> OFFLINE  Error Code -> "600"
Thu Nov 14 11:14:11 2019 AM   Version 1.1.0  :  Device Status EXITING  SP       Response -> OFFLINE
Thu Nov 14 11:17:36 2019 AM   Version 1.1.0  :  Eject ENTERING  SP       Response -> SUCCESS
Thursday 14 November 2019 11:17:36 AM IST  tracedemo  :  Device status "Device status could not be  retrieved"  C++       Response -> OFFLINE  Error Code -> "600"
Thu Nov 14 11:17:36 2019 AM   Version 1.1.0  :  Device Status EXITING  SP       Response -> OFFLINE
Thu Nov 14 11:17:36 2019 AM   Version 1.1.0  :  Eject cannot be executed  SP       Response -> OFFLINE
Thu Nov 14 11:17:37 2019 AM   Version 1.1.0  :  Configuration ENTERING  SP       Response -> SUCCESS
Thursday 14 November 2019 11:17:37 AM IST  tracedemo  :  Configuration ENTERING  C++       Response -> SUCCESS
Thursday 14 November 2019 11:17:37 AM IST  tracedemo  :  Configuration CPI & LPI  C++       CPI ->"16"  LPI ->"40"   Response -> SUCCESS
Thursday 14 November 2019 11:17:52 AM IST  tracedemo  :  Configuration "Device Could not be  Initialized"  C++       Response -> OFFLINE  Error Code -> "600"
Thursday 14 November 2019 11:17:52 AM IST  tracedemo  :  Device status "Device status could not be  retrieved"  C++       Response -> OFFLINE  Error Code -> "600"
Thu Nov 14 11:17:52 2019 AM   Version 1.1.0  :  Device Status EXITING  SP       Response -> OFFLINE
