Thu Jun 23 12:59:56 2016 PM   tracedemo  :  Configuration ENTERING  SP       Response -> SUCCESS
Thursday 23 June 2016 12:59:56 PM IST  tracedemo  :  Configuration ENTERING  C++       Response -> SUCCESS
Thursday 23 June 2016 12:59:56 PM IST  tracedemo  :  Configuration CPI & LPI  C++       CPI ->"17"  LPI ->"40"   Response -> SUCCESS
Thursday 23 June 2016 01:00:11 PM IST  tracedemo  :  Configuration "Device Could not be  Initialized"  C++       Response -> OFFLINE  Error Code -> "600"
Thu Jun 23 01:00:12 2016 PM   tracedemo  :  Configuration ENTERING  SP       Response -> SUCCESS
Thursday 23 June 2016 01:00:12 PM IST  tracedemo  :  Configuration ENTERING  C++       Response -> SUCCESS
Thursday 23 June 2016 01:00:12 PM IST  tracedemo  :  Configuration CPI & LPI  C++       CPI ->"17"  LPI ->"40"   Response -> SUCCESS
Thursday 23 June 2016 01:00:27 PM IST  tracedemo  :  Configuration "Device Could not be  Initialized"  C++       Response -> OFFLINE  Error Code -> "600"
